{
  "generated_at": "2026-07-18T16:17:26Z",
  "total_entries": 4232,
  "pages": 43,
  "page": 43,
  "page_size": 100,
  "entries": [
    {
      "id": "2026-06-20-4201",
      "date": "2026-06-20",
      "commit": "8591834ff816",
      "dimension": "methods",
      "change_type": "added",
      "permission": "",
      "role": "",
      "service": "analyticsadmin",
      "method": "analyticsadmin.properties.updateReportingIdentitySettings",
      "severity": "INFO",
      "tags": [],
      "details": {
        "service": "analyticsadmin"
      }
    },
    {
      "id": "2026-06-20-4202",
      "date": "2026-06-20",
      "commit": "8591834ff816",
      "dimension": "methods",
      "change_type": "added",
      "permission": "",
      "role": "",
      "service": "assuredworkloads",
      "method": "assuredworkloads.organizations.violations.batchAcknowledgeViolations",
      "severity": "INFO",
      "tags": [],
      "details": {
        "service": "assuredworkloads"
      }
    },
    {
      "id": "2026-06-20-4203",
      "date": "2026-06-20",
      "commit": "8591834ff816",
      "dimension": "methods",
      "change_type": "added",
      "permission": "",
      "role": "",
      "service": "assuredworkloads",
      "method": "assuredworkloads.organizations.locations.violations.batchAcknowledgeViolations",
      "severity": "INFO",
      "tags": [],
      "details": {
        "service": "assuredworkloads"
      }
    },
    {
      "id": "2026-06-20-4204",
      "date": "2026-06-20",
      "commit": "8591834ff816",
      "dimension": "methods",
      "change_type": "added",
      "permission": "",
      "role": "",
      "service": "compute",
      "method": "compute.reservationSubBlocks.update",
      "severity": "HIGH",
      "tags": [],
      "details": {
        "service": "compute"
      }
    },
    {
      "id": "2026-06-20-4205",
      "date": "2026-06-20",
      "commit": "8591834ff816",
      "dimension": "method_map",
      "change_type": "unmapped_method",
      "permission": "",
      "role": "",
      "service": "aiplatform",
      "method": "aiplatform.projects.locations.onlineEvaluators.operations.list",
      "severity": "INFO",
      "tags": [],
      "details": {
        "note": "New method has no permission mapping"
      }
    },
    {
      "id": "2026-06-20-4206",
      "date": "2026-06-20",
      "commit": "8591834ff816",
      "dimension": "method_map",
      "change_type": "unmapped_method",
      "permission": "",
      "role": "",
      "service": "aiplatform",
      "method": "aiplatform.onlineEvaluators.operations.list",
      "severity": "INFO",
      "tags": [],
      "details": {
        "note": "New method has no permission mapping"
      }
    },
    {
      "id": "2026-06-20-4207",
      "date": "2026-06-20",
      "commit": "8591834ff816",
      "dimension": "method_map",
      "change_type": "unmapped_method",
      "permission": "",
      "role": "",
      "service": "aiplatform",
      "method": "aiplatform.projects.locations.onlineEvaluators.patch",
      "severity": "HIGH",
      "tags": [],
      "details": {
        "note": "New method has no permission mapping"
      }
    },
    {
      "id": "2026-06-20-4208",
      "date": "2026-06-20",
      "commit": "8591834ff816",
      "dimension": "method_map",
      "change_type": "unmapped_method",
      "permission": "",
      "role": "",
      "service": "aiplatform",
      "method": "aiplatform.projects.locations.evaluationSets.import",
      "severity": "INFO",
      "tags": [],
      "details": {
        "note": "New method has no permission mapping"
      }
    },
    {
      "id": "2026-06-20-4209",
      "date": "2026-06-20",
      "commit": "8591834ff816",
      "dimension": "method_map",
      "change_type": "unmapped_method",
      "permission": "",
      "role": "",
      "service": "compute",
      "method": "compute.reservationSubBlocks.update",
      "severity": "HIGH",
      "tags": [],
      "details": {
        "note": "New method has no permission mapping"
      }
    },
    {
      "id": "2026-06-20-4210",
      "date": "2026-06-20",
      "commit": "8591834ff816",
      "dimension": "method_map",
      "change_type": "unmapped_method",
      "permission": "",
      "role": "",
      "service": "aiplatform",
      "method": "aiplatform.projects.locations.onlineEvaluators.get",
      "severity": "INFO",
      "tags": [],
      "details": {
        "note": "New method has no permission mapping"
      }
    },
    {
      "id": "2026-06-20-4211",
      "date": "2026-06-20",
      "commit": "8591834ff816",
      "dimension": "method_map",
      "change_type": "unmapped_method",
      "permission": "",
      "role": "",
      "service": "aiplatform",
      "method": "aiplatform.projects.locations.onlineEvaluators.suspend",
      "severity": "INFO",
      "tags": [],
      "details": {
        "note": "New method has no permission mapping"
      }
    },
    {
      "id": "2026-06-20-4212",
      "date": "2026-06-20",
      "commit": "8591834ff816",
      "dimension": "method_map",
      "change_type": "unmapped_method",
      "permission": "",
      "role": "",
      "service": "aiplatform",
      "method": "aiplatform.onlineEvaluators.operations.cancel",
      "severity": "INFO",
      "tags": [],
      "details": {
        "note": "New method has no permission mapping"
      }
    },
    {
      "id": "2026-06-20-4213",
      "date": "2026-06-20",
      "commit": "8591834ff816",
      "dimension": "method_map",
      "change_type": "unmapped_method",
      "permission": "",
      "role": "",
      "service": "aiplatform",
      "method": "aiplatform.projects.locations.onlineEvaluators.create",
      "severity": "HIGH",
      "tags": [],
      "details": {
        "note": "New method has no permission mapping"
      }
    },
    {
      "id": "2026-06-20-4214",
      "date": "2026-06-20",
      "commit": "8591834ff816",
      "dimension": "method_map",
      "change_type": "unmapped_method",
      "permission": "",
      "role": "",
      "service": "aiplatform",
      "method": "aiplatform.onlineEvaluators.operations.delete",
      "severity": "HIGH",
      "tags": [],
      "details": {
        "note": "New method has no permission mapping"
      }
    },
    {
      "id": "2026-06-20-4215",
      "date": "2026-06-20",
      "commit": "8591834ff816",
      "dimension": "method_map",
      "change_type": "unmapped_method",
      "permission": "",
      "role": "",
      "service": "aiplatform",
      "method": "aiplatform.reasoningEngines.sandboxEnvironments.pause",
      "severity": "INFO",
      "tags": [],
      "details": {
        "note": "New method has no permission mapping"
      }
    },
    {
      "id": "2026-06-20-4216",
      "date": "2026-06-20",
      "commit": "8591834ff816",
      "dimension": "method_map",
      "change_type": "unmapped_method",
      "permission": "",
      "role": "",
      "service": "aiplatform",
      "method": "aiplatform.projects.locations.onlineEvaluators.operations.cancel",
      "severity": "INFO",
      "tags": [],
      "details": {
        "note": "New method has no permission mapping"
      }
    },
    {
      "id": "2026-06-20-4217",
      "date": "2026-06-20",
      "commit": "8591834ff816",
      "dimension": "method_map",
      "change_type": "unmapped_method",
      "permission": "",
      "role": "",
      "service": "aiplatform",
      "method": "aiplatform.projects.locations.onlineEvaluators.delete",
      "severity": "HIGH",
      "tags": [],
      "details": {
        "note": "New method has no permission mapping"
      }
    },
    {
      "id": "2026-06-20-4218",
      "date": "2026-06-20",
      "commit": "8591834ff816",
      "dimension": "method_map",
      "change_type": "unmapped_method",
      "permission": "",
      "role": "",
      "service": "aiplatform",
      "method": "aiplatform.projects.locations.onlineEvaluators.activate",
      "severity": "INFO",
      "tags": [],
      "details": {
        "note": "New method has no permission mapping"
      }
    },
    {
      "id": "2026-06-20-4219",
      "date": "2026-06-20",
      "commit": "8591834ff816",
      "dimension": "method_map",
      "change_type": "unmapped_method",
      "permission": "",
      "role": "",
      "service": "aiplatform",
      "method": "aiplatform.projects.locations.reasoningEngines.sandboxEnvironments.pause",
      "severity": "INFO",
      "tags": [],
      "details": {
        "note": "New method has no permission mapping"
      }
    },
    {
      "id": "2026-06-20-4220",
      "date": "2026-06-20",
      "commit": "8591834ff816",
      "dimension": "method_map",
      "change_type": "unmapped_method",
      "permission": "",
      "role": "",
      "service": "aiplatform",
      "method": "aiplatform.projects.locations.generateLossClusters",
      "severity": "INFO",
      "tags": [],
      "details": {
        "note": "New method has no permission mapping"
      }
    },
    {
      "id": "2026-06-20-4221",
      "date": "2026-06-20",
      "commit": "8591834ff816",
      "dimension": "method_map",
      "change_type": "unmapped_method",
      "permission": "",
      "role": "",
      "service": "assuredworkloads",
      "method": "assuredworkloads.organizations.violations.batchAcknowledgeViolations",
      "severity": "INFO",
      "tags": [],
      "details": {
        "note": "New method has no permission mapping"
      }
    },
    {
      "id": "2026-06-20-4222",
      "date": "2026-06-20",
      "commit": "8591834ff816",
      "dimension": "method_map",
      "change_type": "unmapped_method",
      "permission": "",
      "role": "",
      "service": "aiplatform",
      "method": "aiplatform.onlineEvaluators.operations.get",
      "severity": "INFO",
      "tags": [],
      "details": {
        "note": "New method has no permission mapping"
      }
    },
    {
      "id": "2026-06-20-4223",
      "date": "2026-06-20",
      "commit": "8591834ff816",
      "dimension": "method_map",
      "change_type": "unmapped_method",
      "permission": "",
      "role": "",
      "service": "aiplatform",
      "method": "aiplatform.reasoningEngines.sandboxEnvironments.resume",
      "severity": "INFO",
      "tags": [],
      "details": {
        "note": "New method has no permission mapping"
      }
    },
    {
      "id": "2026-06-20-4224",
      "date": "2026-06-20",
      "commit": "8591834ff816",
      "dimension": "method_map",
      "change_type": "unmapped_method",
      "permission": "",
      "role": "",
      "service": "aiplatform",
      "method": "aiplatform.projects.locations.onlineEvaluators.list",
      "severity": "INFO",
      "tags": [],
      "details": {
        "note": "New method has no permission mapping"
      }
    },
    {
      "id": "2026-06-20-4225",
      "date": "2026-06-20",
      "commit": "8591834ff816",
      "dimension": "method_map",
      "change_type": "unmapped_method",
      "permission": "",
      "role": "",
      "service": "aiplatform",
      "method": "aiplatform.projects.locations.onlineEvaluators.operations.get",
      "severity": "INFO",
      "tags": [],
      "details": {
        "note": "New method has no permission mapping"
      }
    },
    {
      "id": "2026-06-20-4226",
      "date": "2026-06-20",
      "commit": "8591834ff816",
      "dimension": "method_map",
      "change_type": "unmapped_method",
      "permission": "",
      "role": "",
      "service": "aiplatform",
      "method": "aiplatform.projects.locations.generateUserScenarios",
      "severity": "INFO",
      "tags": [],
      "details": {
        "note": "New method has no permission mapping"
      }
    },
    {
      "id": "2026-06-20-4227",
      "date": "2026-06-20",
      "commit": "8591834ff816",
      "dimension": "method_map",
      "change_type": "unmapped_method",
      "permission": "",
      "role": "",
      "service": "analyticsadmin",
      "method": "analyticsadmin.properties.updateReportingIdentitySettings",
      "severity": "INFO",
      "tags": [],
      "details": {
        "note": "New method has no permission mapping"
      }
    },
    {
      "id": "2026-06-20-4228",
      "date": "2026-06-20",
      "commit": "8591834ff816",
      "dimension": "method_map",
      "change_type": "unmapped_method",
      "permission": "",
      "role": "",
      "service": "aiplatform",
      "method": "aiplatform.projects.locations.onlineEvaluators.operations.wait",
      "severity": "INFO",
      "tags": [],
      "details": {
        "note": "New method has no permission mapping"
      }
    },
    {
      "id": "2026-06-20-4229",
      "date": "2026-06-20",
      "commit": "8591834ff816",
      "dimension": "method_map",
      "change_type": "unmapped_method",
      "permission": "",
      "role": "",
      "service": "aiplatform",
      "method": "aiplatform.projects.locations.reasoningEngines.sandboxEnvironments.resume",
      "severity": "INFO",
      "tags": [],
      "details": {
        "note": "New method has no permission mapping"
      }
    },
    {
      "id": "2026-06-20-4230",
      "date": "2026-06-20",
      "commit": "8591834ff816",
      "dimension": "method_map",
      "change_type": "unmapped_method",
      "permission": "",
      "role": "",
      "service": "assuredworkloads",
      "method": "assuredworkloads.organizations.locations.violations.batchAcknowledgeViolations",
      "severity": "INFO",
      "tags": [],
      "details": {
        "note": "New method has no permission mapping"
      }
    },
    {
      "id": "2026-06-20-4231",
      "date": "2026-06-20",
      "commit": "8591834ff816",
      "dimension": "method_map",
      "change_type": "unmapped_method",
      "permission": "",
      "role": "",
      "service": "aiplatform",
      "method": "aiplatform.onlineEvaluators.operations.wait",
      "severity": "INFO",
      "tags": [],
      "details": {
        "note": "New method has no permission mapping"
      }
    },
    {
      "id": "2026-06-20-4232",
      "date": "2026-06-20",
      "commit": "8591834ff816",
      "dimension": "method_map",
      "change_type": "unmapped_method",
      "permission": "",
      "role": "",
      "service": "aiplatform",
      "method": "aiplatform.projects.locations.onlineEvaluators.operations.delete",
      "severity": "HIGH",
      "tags": [],
      "details": {
        "note": "New method has no permission mapping"
      }
    }
  ],
  "summary": {
    "by_severity": {
      "CRITICAL": 16,
      "HIGH": 534,
      "MEDIUM": 3432,
      "INFO": 250
    },
    "by_dimension": {
      "predefined_roles": 32,
      "role_permissions": 3863,
      "methods": 176,
      "method_map": 161
    },
    "new_services": []
  }
}