{
  "generated_at": "2026-07-16T16:27:54Z",
  "total_entries": 3850,
  "pages": 39,
  "page": 39,
  "page_size": 100,
  "entries": [
    {
      "id": "2026-06-18-3801",
      "date": "2026-06-18",
      "commit": "63de73515088",
      "dimension": "predefined_roles",
      "change_type": "added",
      "permission": "",
      "role": "roles/dataplex.workflowApprover",
      "service": "dataplex",
      "method": "",
      "severity": "MEDIUM",
      "tags": [],
      "details": {
        "title": "Dataplex Workflow Approver",
        "description": "Access to approve/reject/revoke Change Requests in Approval Workflows.",
        "stage": "BETA"
      }
    },
    {
      "id": "2026-06-18-3802",
      "date": "2026-06-18",
      "commit": "63de73515088",
      "dimension": "predefined_roles",
      "change_type": "added",
      "permission": "",
      "role": "roles/datastudio.managedStorageServiceAgent",
      "service": "datastudio",
      "method": "",
      "severity": "MEDIUM",
      "tags": [],
      "details": {
        "title": "Data Studio Managed Storage Service Agent",
        "description": "Grants Data Studio Service Account access to manage resources in the user project.",
        "stage": "GA"
      }
    },
    {
      "id": "2026-06-18-3803",
      "date": "2026-06-18",
      "commit": "63de73515088",
      "dimension": "role_permissions",
      "change_type": "permission_added_to_role",
      "permission": "dataplex.entryGroups.requestChanges",
      "role": "roles/datacatalog.entryGroupOwner",
      "service": "dataplex",
      "method": "",
      "severity": "MEDIUM",
      "tags": [],
      "details": {
        "undocumented": true
      }
    },
    {
      "id": "2026-06-18-3804",
      "date": "2026-06-18",
      "commit": "63de73515088",
      "dimension": "role_permissions",
      "change_type": "permission_added_to_role",
      "permission": "dataplex.entryGroups.requestChanges",
      "role": "roles/datacatalog.admin",
      "service": "dataplex",
      "method": "",
      "severity": "MEDIUM",
      "tags": [],
      "details": {
        "undocumented": true
      }
    },
    {
      "id": "2026-06-18-3805",
      "date": "2026-06-18",
      "commit": "63de73515088",
      "dimension": "role_permissions",
      "change_type": "permission_added_to_role",
      "permission": "dataplex.entryGroups.requestChanges",
      "role": "roles/datacatalog.editor",
      "service": "dataplex",
      "method": "",
      "severity": "MEDIUM",
      "tags": [],
      "details": {
        "undocumented": true
      }
    },
    {
      "id": "2026-06-18-3806",
      "date": "2026-06-18",
      "commit": "63de73515088",
      "dimension": "role_permissions",
      "change_type": "permission_added_to_role",
      "permission": "dataplex.entryGroups.requestChanges",
      "role": "roles/viewer",
      "service": "dataplex",
      "method": "",
      "severity": "MEDIUM",
      "tags": [],
      "details": {
        "undocumented": true
      }
    },
    {
      "id": "2026-06-18-3807",
      "date": "2026-06-18",
      "commit": "63de73515088",
      "dimension": "role_permissions",
      "change_type": "permission_added_to_role",
      "permission": "dataplex.entryGroups.requestChanges",
      "role": "roles/datacatalog.viewer",
      "service": "dataplex",
      "method": "",
      "severity": "MEDIUM",
      "tags": [],
      "details": {
        "undocumented": true
      }
    },
    {
      "id": "2026-06-18-3808",
      "date": "2026-06-18",
      "commit": "63de73515088",
      "dimension": "role_permissions",
      "change_type": "permission_added_to_role",
      "permission": "dataplex.changeRequests.update",
      "role": "roles/dataplex.changeRequestOwner",
      "service": "dataplex",
      "method": "",
      "severity": "HIGH",
      "tags": [],
      "details": {
        "undocumented": true
      }
    },
    {
      "id": "2026-06-18-3809",
      "date": "2026-06-18",
      "commit": "63de73515088",
      "dimension": "role_permissions",
      "change_type": "permission_added_to_role",
      "permission": "dataplex.changeRequests.delete",
      "role": "roles/datacatalog.admin",
      "service": "dataplex",
      "method": "",
      "severity": "HIGH",
      "tags": [],
      "details": {
        "undocumented": true
      }
    },
    {
      "id": "2026-06-18-3810",
      "date": "2026-06-18",
      "commit": "63de73515088",
      "dimension": "role_permissions",
      "change_type": "permission_added_to_role",
      "permission": "dataplex.changeRequests.delete",
      "role": "roles/dataplex.changeRequestOwner",
      "service": "dataplex",
      "method": "",
      "severity": "HIGH",
      "tags": [],
      "details": {
        "undocumented": true
      }
    },
    {
      "id": "2026-06-18-3811",
      "date": "2026-06-18",
      "commit": "63de73515088",
      "dimension": "role_permissions",
      "change_type": "permission_added_to_role",
      "permission": "dataplex.changeRequests.delete",
      "role": "roles/dataplex.workflowAdmin",
      "service": "dataplex",
      "method": "",
      "severity": "HIGH",
      "tags": [],
      "details": {
        "undocumented": true
      }
    },
    {
      "id": "2026-06-18-3812",
      "date": "2026-06-18",
      "commit": "63de73515088",
      "dimension": "role_permissions",
      "change_type": "permission_added_to_role",
      "permission": "navigationconnect.trips.cancel",
      "role": "roles/navigationconnect.admin",
      "service": "navigationconnect",
      "method": "",
      "severity": "MEDIUM",
      "tags": [],
      "details": {
        "undocumented": true
      }
    },
    {
      "id": "2026-06-18-3813",
      "date": "2026-06-18",
      "commit": "63de73515088",
      "dimension": "role_permissions",
      "change_type": "permission_added_to_role",
      "permission": "firebaseappcheck.recaptchaV3Config.get",
      "role": "roles/firebase.managementServiceAgent",
      "service": "firebaseappcheck",
      "method": "",
      "severity": "MEDIUM",
      "tags": [],
      "details": {
        "undocumented": true
      }
    },
    {
      "id": "2026-06-18-3814",
      "date": "2026-06-18",
      "commit": "63de73515088",
      "dimension": "role_permissions",
      "change_type": "permission_added_to_role",
      "permission": "cloudkms.keyHandles.get",
      "role": "roles/file.admin",
      "service": "cloudkms",
      "method": "",
      "severity": "MEDIUM",
      "tags": [],
      "details": {
        "undocumented": true
      }
    },
    {
      "id": "2026-06-18-3815",
      "date": "2026-06-18",
      "commit": "63de73515088",
      "dimension": "role_permissions",
      "change_type": "permission_added_to_role",
      "permission": "cloudkms.keyHandles.list",
      "role": "roles/file.admin",
      "service": "cloudkms",
      "method": "",
      "severity": "MEDIUM",
      "tags": [],
      "details": {
        "undocumented": true
      }
    },
    {
      "id": "2026-06-18-3816",
      "date": "2026-06-18",
      "commit": "63de73515088",
      "dimension": "role_permissions",
      "change_type": "permission_added_to_role",
      "permission": "navigationconnect.trips.create",
      "role": "roles/navigationconnect.admin",
      "service": "navigationconnect",
      "method": "",
      "severity": "HIGH",
      "tags": [],
      "details": {
        "undocumented": true
      }
    },
    {
      "id": "2026-06-18-3817",
      "date": "2026-06-18",
      "commit": "63de73515088",
      "dimension": "role_permissions",
      "change_type": "permission_added_to_role",
      "permission": "cloudkms.projects.showEffectiveAutokeyConfig",
      "role": "roles/file.admin",
      "service": "cloudkms",
      "method": "",
      "severity": "MEDIUM",
      "tags": [],
      "details": {
        "undocumented": true
      }
    },
    {
      "id": "2026-06-18-3818",
      "date": "2026-06-18",
      "commit": "63de73515088",
      "dimension": "role_permissions",
      "change_type": "permission_added_to_role",
      "permission": "cloudkms.operations.get",
      "role": "roles/file.admin",
      "service": "cloudkms",
      "method": "",
      "severity": "MEDIUM",
      "tags": [],
      "details": {
        "undocumented": true
      }
    },
    {
      "id": "2026-06-18-3819",
      "date": "2026-06-18",
      "commit": "63de73515088",
      "dimension": "role_permissions",
      "change_type": "permission_added_to_role",
      "permission": "dataplex.dataProducts.approve",
      "role": "roles/dataplex.editor",
      "service": "dataplex",
      "method": "",
      "severity": "MEDIUM",
      "tags": [],
      "details": {
        "undocumented": true
      }
    },
    {
      "id": "2026-06-18-3820",
      "date": "2026-06-18",
      "commit": "63de73515088",
      "dimension": "role_permissions",
      "change_type": "permission_added_to_role",
      "permission": "dataplex.changeRequests.list",
      "role": "roles/datacatalog.entryOwner",
      "service": "dataplex",
      "method": "",
      "severity": "MEDIUM",
      "tags": [],
      "details": {
        "undocumented": true
      }
    },
    {
      "id": "2026-06-18-3821",
      "date": "2026-06-18",
      "commit": "63de73515088",
      "dimension": "role_permissions",
      "change_type": "permission_added_to_role",
      "permission": "dataplex.changeRequests.list",
      "role": "roles/datacatalog.entryGroupOwner",
      "service": "dataplex",
      "method": "",
      "severity": "MEDIUM",
      "tags": [],
      "details": {
        "undocumented": true
      }
    },
    {
      "id": "2026-06-18-3822",
      "date": "2026-06-18",
      "commit": "63de73515088",
      "dimension": "role_permissions",
      "change_type": "permission_added_to_role",
      "permission": "dataplex.changeRequests.list",
      "role": "roles/dataplex.workflowAdmin",
      "service": "dataplex",
      "method": "",
      "severity": "MEDIUM",
      "tags": [],
      "details": {
        "undocumented": true
      }
    },
    {
      "id": "2026-06-18-3823",
      "date": "2026-06-18",
      "commit": "63de73515088",
      "dimension": "role_permissions",
      "change_type": "permission_added_to_role",
      "permission": "dataplex.changeRequests.list",
      "role": "roles/datacatalog.admin",
      "service": "dataplex",
      "method": "",
      "severity": "MEDIUM",
      "tags": [],
      "details": {
        "undocumented": true
      }
    },
    {
      "id": "2026-06-18-3824",
      "date": "2026-06-18",
      "commit": "63de73515088",
      "dimension": "role_permissions",
      "change_type": "permission_added_to_role",
      "permission": "dataplex.changeRequests.list",
      "role": "roles/dataplex.catalogEditor",
      "service": "dataplex",
      "method": "",
      "severity": "MEDIUM",
      "tags": [],
      "details": {
        "undocumented": true
      }
    },
    {
      "id": "2026-06-18-3825",
      "date": "2026-06-18",
      "commit": "63de73515088",
      "dimension": "role_permissions",
      "change_type": "permission_added_to_role",
      "permission": "dataplex.changeRequests.list",
      "role": "roles/datacatalog.editor",
      "service": "dataplex",
      "method": "",
      "severity": "MEDIUM",
      "tags": [],
      "details": {
        "undocumented": true
      }
    },
    {
      "id": "2026-06-18-3826",
      "date": "2026-06-18",
      "commit": "63de73515088",
      "dimension": "role_permissions",
      "change_type": "permission_added_to_role",
      "permission": "dataplex.changeRequests.list",
      "role": "roles/viewer",
      "service": "dataplex",
      "method": "",
      "severity": "MEDIUM",
      "tags": [],
      "details": {
        "undocumented": true
      }
    },
    {
      "id": "2026-06-18-3827",
      "date": "2026-06-18",
      "commit": "63de73515088",
      "dimension": "role_permissions",
      "change_type": "permission_added_to_role",
      "permission": "dataplex.changeRequests.list",
      "role": "roles/datacatalog.viewer",
      "service": "dataplex",
      "method": "",
      "severity": "MEDIUM",
      "tags": [],
      "details": {
        "undocumented": true
      }
    },
    {
      "id": "2026-06-18-3828",
      "date": "2026-06-18",
      "commit": "63de73515088",
      "dimension": "role_permissions",
      "change_type": "permission_added_to_role",
      "permission": "dataplex.glossaries.requestChanges",
      "role": "roles/datacatalog.viewer",
      "service": "dataplex",
      "method": "",
      "severity": "MEDIUM",
      "tags": [],
      "details": {
        "undocumented": true
      }
    },
    {
      "id": "2026-06-18-3829",
      "date": "2026-06-18",
      "commit": "63de73515088",
      "dimension": "role_permissions",
      "change_type": "permission_added_to_role",
      "permission": "dataplex.glossaries.requestChanges",
      "role": "roles/datacatalog.admin",
      "service": "dataplex",
      "method": "",
      "severity": "MEDIUM",
      "tags": [],
      "details": {
        "undocumented": true
      }
    },
    {
      "id": "2026-06-18-3830",
      "date": "2026-06-18",
      "commit": "63de73515088",
      "dimension": "role_permissions",
      "change_type": "permission_added_to_role",
      "permission": "dataplex.glossaries.requestChanges",
      "role": "roles/datacatalog.editor",
      "service": "dataplex",
      "method": "",
      "severity": "MEDIUM",
      "tags": [],
      "details": {
        "undocumented": true
      }
    },
    {
      "id": "2026-06-18-3831",
      "date": "2026-06-18",
      "commit": "63de73515088",
      "dimension": "role_permissions",
      "change_type": "permission_added_to_role",
      "permission": "dataplex.glossaries.requestChanges",
      "role": "roles/viewer",
      "service": "dataplex",
      "method": "",
      "severity": "MEDIUM",
      "tags": [],
      "details": {
        "undocumented": true
      }
    },
    {
      "id": "2026-06-18-3832",
      "date": "2026-06-18",
      "commit": "63de73515088",
      "dimension": "role_permissions",
      "change_type": "permission_added_to_role",
      "permission": "dataplex.changeRequests.use",
      "role": "roles/datacatalog.admin",
      "service": "dataplex",
      "method": "",
      "severity": "MEDIUM",
      "tags": [],
      "details": {
        "undocumented": true
      }
    },
    {
      "id": "2026-06-18-3833",
      "date": "2026-06-18",
      "commit": "63de73515088",
      "dimension": "role_permissions",
      "change_type": "permission_added_to_role",
      "permission": "dataplex.changeRequests.use",
      "role": "roles/dataplex.workflowAdmin",
      "service": "dataplex",
      "method": "",
      "severity": "MEDIUM",
      "tags": [],
      "details": {
        "undocumented": true
      }
    },
    {
      "id": "2026-06-18-3834",
      "date": "2026-06-18",
      "commit": "63de73515088",
      "dimension": "role_permissions",
      "change_type": "permission_added_to_role",
      "permission": "networkmanagement.providers.generateProviderAccessToken",
      "role": "roles/viewer",
      "service": "networkmanagement",
      "method": "",
      "severity": "MEDIUM",
      "tags": [],
      "details": {
        "undocumented": true
      }
    },
    {
      "id": "2026-06-18-3835",
      "date": "2026-06-18",
      "commit": "63de73515088",
      "dimension": "role_permissions",
      "change_type": "permission_added_to_role",
      "permission": "dataplex.changeRequests.adminDelete",
      "role": "roles/datacatalog.admin",
      "service": "dataplex",
      "method": "",
      "severity": "MEDIUM",
      "tags": [],
      "details": {
        "undocumented": true
      }
    },
    {
      "id": "2026-06-18-3836",
      "date": "2026-06-18",
      "commit": "63de73515088",
      "dimension": "role_permissions",
      "change_type": "permission_added_to_role",
      "permission": "dataplex.changeRequests.adminDelete",
      "role": "roles/dataplex.workflowAdmin",
      "service": "dataplex",
      "method": "",
      "severity": "MEDIUM",
      "tags": [],
      "details": {
        "undocumented": true
      }
    },
    {
      "id": "2026-06-18-3837",
      "date": "2026-06-18",
      "commit": "63de73515088",
      "dimension": "role_permissions",
      "change_type": "permission_added_to_role",
      "permission": "dataplex.changeRequests.getIamPolicy",
      "role": "roles/viewer",
      "service": "dataplex",
      "method": "",
      "severity": "MEDIUM",
      "tags": [],
      "details": {
        "undocumented": true
      }
    },
    {
      "id": "2026-06-18-3838",
      "date": "2026-06-18",
      "commit": "63de73515088",
      "dimension": "role_permissions",
      "change_type": "permission_added_to_role",
      "permission": "cloudkms.keyHandles.create",
      "role": "roles/file.admin",
      "service": "cloudkms",
      "method": "",
      "severity": "HIGH",
      "tags": [],
      "details": {
        "undocumented": true
      }
    },
    {
      "id": "2026-06-18-3839",
      "date": "2026-06-18",
      "commit": "63de73515088",
      "dimension": "role_permissions",
      "change_type": "permission_added_to_role",
      "permission": "dataplex.changeRequests.get",
      "role": "roles/datacatalog.entryOwner",
      "service": "dataplex",
      "method": "",
      "severity": "MEDIUM",
      "tags": [],
      "details": {
        "undocumented": true
      }
    },
    {
      "id": "2026-06-18-3840",
      "date": "2026-06-18",
      "commit": "63de73515088",
      "dimension": "role_permissions",
      "change_type": "permission_added_to_role",
      "permission": "dataplex.changeRequests.get",
      "role": "roles/datacatalog.entryGroupOwner",
      "service": "dataplex",
      "method": "",
      "severity": "MEDIUM",
      "tags": [],
      "details": {
        "undocumented": true
      }
    },
    {
      "id": "2026-06-18-3841",
      "date": "2026-06-18",
      "commit": "63de73515088",
      "dimension": "role_permissions",
      "change_type": "permission_added_to_role",
      "permission": "dataplex.changeRequests.get",
      "role": "roles/dataplex.workflowAdmin",
      "service": "dataplex",
      "method": "",
      "severity": "MEDIUM",
      "tags": [],
      "details": {
        "undocumented": true
      }
    },
    {
      "id": "2026-06-18-3842",
      "date": "2026-06-18",
      "commit": "63de73515088",
      "dimension": "role_permissions",
      "change_type": "permission_added_to_role",
      "permission": "dataplex.changeRequests.get",
      "role": "roles/datacatalog.admin",
      "service": "dataplex",
      "method": "",
      "severity": "MEDIUM",
      "tags": [],
      "details": {
        "undocumented": true
      }
    },
    {
      "id": "2026-06-18-3843",
      "date": "2026-06-18",
      "commit": "63de73515088",
      "dimension": "role_permissions",
      "change_type": "permission_added_to_role",
      "permission": "dataplex.changeRequests.get",
      "role": "roles/dataplex.catalogEditor",
      "service": "dataplex",
      "method": "",
      "severity": "MEDIUM",
      "tags": [],
      "details": {
        "undocumented": true
      }
    },
    {
      "id": "2026-06-18-3844",
      "date": "2026-06-18",
      "commit": "63de73515088",
      "dimension": "role_permissions",
      "change_type": "permission_added_to_role",
      "permission": "dataplex.changeRequests.get",
      "role": "roles/datacatalog.editor",
      "service": "dataplex",
      "method": "",
      "severity": "MEDIUM",
      "tags": [],
      "details": {
        "undocumented": true
      }
    },
    {
      "id": "2026-06-18-3845",
      "date": "2026-06-18",
      "commit": "63de73515088",
      "dimension": "role_permissions",
      "change_type": "permission_added_to_role",
      "permission": "dataplex.changeRequests.get",
      "role": "roles/viewer",
      "service": "dataplex",
      "method": "",
      "severity": "MEDIUM",
      "tags": [],
      "details": {
        "undocumented": true
      }
    },
    {
      "id": "2026-06-18-3846",
      "date": "2026-06-18",
      "commit": "63de73515088",
      "dimension": "role_permissions",
      "change_type": "permission_added_to_role",
      "permission": "dataplex.changeRequests.get",
      "role": "roles/dataplex.changeRequestOwner",
      "service": "dataplex",
      "method": "",
      "severity": "MEDIUM",
      "tags": [],
      "details": {
        "undocumented": true
      }
    },
    {
      "id": "2026-06-18-3847",
      "date": "2026-06-18",
      "commit": "63de73515088",
      "dimension": "role_permissions",
      "change_type": "permission_added_to_role",
      "permission": "dataplex.changeRequests.get",
      "role": "roles/datacatalog.viewer",
      "service": "dataplex",
      "method": "",
      "severity": "MEDIUM",
      "tags": [],
      "details": {
        "undocumented": true
      }
    },
    {
      "id": "2026-06-18-3848",
      "date": "2026-06-18",
      "commit": "63de73515088",
      "dimension": "role_permissions",
      "change_type": "permission_added_to_role",
      "permission": "externalexposure.scanMetrics.get",
      "role": "roles/securitycenter.adminViewer",
      "service": "externalexposure",
      "method": "",
      "severity": "MEDIUM",
      "tags": [],
      "details": {
        "undocumented": true
      }
    },
    {
      "id": "2026-06-18-3849",
      "date": "2026-06-18",
      "commit": "63de73515088",
      "dimension": "role_permissions",
      "change_type": "permission_added_to_role",
      "permission": "navigationconnect.trips.get",
      "role": "roles/navigationconnect.admin",
      "service": "navigationconnect",
      "method": "",
      "severity": "MEDIUM",
      "tags": [],
      "details": {
        "undocumented": true
      }
    },
    {
      "id": "2026-06-18-3850",
      "date": "2026-06-18",
      "commit": "63de73515088",
      "dimension": "role_permissions",
      "change_type": "permission_added_to_role",
      "permission": "navigationconnect.trips.get",
      "role": "roles/viewer",
      "service": "navigationconnect",
      "method": "",
      "severity": "MEDIUM",
      "tags": [],
      "details": {
        "undocumented": true
      }
    }
  ],
  "summary": {
    "by_severity": {
      "CRITICAL": 16,
      "HIGH": 497,
      "MEDIUM": 3106,
      "INFO": 231
    },
    "by_dimension": {
      "methods": 163,
      "method_map": 151,
      "role_permissions": 3498,
      "predefined_roles": 38
    },
    "new_services": []
  }
}