{
  "generated_at": "2026-05-21T17:51:01Z",
  "total_entries": 2746,
  "pages": 28,
  "page": 28,
  "page_size": 100,
  "entries": [
    {
      "id": "2026-05-06-2701",
      "date": "2026-05-06",
      "commit": "174fd0c0eef8",
      "dimension": "method_map",
      "change_type": "unmapped_method",
      "permission": "",
      "role": "",
      "service": "networksecurity",
      "method": "networksecurity.projects.locations.securityProfiles.create",
      "severity": "HIGH",
      "tags": [],
      "details": {
        "note": "New method has no permission mapping"
      }
    },
    {
      "id": "2026-05-06-2702",
      "date": "2026-05-06",
      "commit": "174fd0c0eef8",
      "dimension": "method_map",
      "change_type": "unmapped_method",
      "permission": "",
      "role": "",
      "service": "networksecurity",
      "method": "networksecurity.projects.locations.securityProfiles.list",
      "severity": "INFO",
      "tags": [],
      "details": {
        "note": "New method has no permission mapping"
      }
    },
    {
      "id": "2026-05-06-2703",
      "date": "2026-05-06",
      "commit": "174fd0c0eef8",
      "dimension": "method_map",
      "change_type": "unmapped_method",
      "permission": "",
      "role": "",
      "service": "aiplatform",
      "method": "aiplatform.skills.operations.list",
      "severity": "INFO",
      "tags": [],
      "details": {
        "note": "New method has no permission mapping"
      }
    },
    {
      "id": "2026-05-06-2704",
      "date": "2026-05-06",
      "commit": "174fd0c0eef8",
      "dimension": "method_map",
      "change_type": "unmapped_method",
      "permission": "",
      "role": "",
      "service": "drive",
      "method": "drive.approvals.comment",
      "severity": "INFO",
      "tags": [],
      "details": {
        "note": "New method has no permission mapping"
      }
    },
    {
      "id": "2026-05-06-2705",
      "date": "2026-05-06",
      "commit": "174fd0c0eef8",
      "dimension": "method_map",
      "change_type": "unmapped_method",
      "permission": "",
      "role": "",
      "service": "gkehub",
      "method": "gkehub.projects.locations.rollouts.forceCompleteStage",
      "severity": "INFO",
      "tags": [],
      "details": {
        "note": "New method has no permission mapping"
      }
    },
    {
      "id": "2026-05-06-2706",
      "date": "2026-05-06",
      "commit": "174fd0c0eef8",
      "dimension": "method_map",
      "change_type": "unmapped_method",
      "permission": "",
      "role": "",
      "service": "drive",
      "method": "drive.approvals.cancel",
      "severity": "INFO",
      "tags": [],
      "details": {
        "note": "New method has no permission mapping"
      }
    },
    {
      "id": "2026-05-06-2707",
      "date": "2026-05-06",
      "commit": "174fd0c0eef8",
      "dimension": "method_map",
      "change_type": "unmapped_method",
      "permission": "",
      "role": "",
      "service": "networksecurity",
      "method": "networksecurity.projects.locations.securityProfileGroups.delete",
      "severity": "HIGH",
      "tags": [],
      "details": {
        "note": "New method has no permission mapping"
      }
    },
    {
      "id": "2026-05-06-2708",
      "date": "2026-05-06",
      "commit": "174fd0c0eef8",
      "dimension": "method_map",
      "change_type": "unmapped_method",
      "permission": "",
      "role": "",
      "service": "networksecurity",
      "method": "networksecurity.projects.locations.firewallEndpoints.patch",
      "severity": "HIGH",
      "tags": [],
      "details": {
        "note": "New method has no permission mapping"
      }
    },
    {
      "id": "2026-05-06-2709",
      "date": "2026-05-06",
      "commit": "174fd0c0eef8",
      "dimension": "method_map",
      "change_type": "unmapped_method",
      "permission": "",
      "role": "",
      "service": "aiplatform",
      "method": "aiplatform.skills.operations.cancel",
      "severity": "INFO",
      "tags": [],
      "details": {
        "note": "New method has no permission mapping"
      }
    },
    {
      "id": "2026-05-06-2710",
      "date": "2026-05-06",
      "commit": "174fd0c0eef8",
      "dimension": "method_map",
      "change_type": "unmapped_method",
      "permission": "",
      "role": "",
      "service": "backupdr",
      "method": "backupdr.projects.locations.resourceBackupConfigs.fetch",
      "severity": "INFO",
      "tags": [],
      "details": {
        "note": "New method has no permission mapping"
      }
    },
    {
      "id": "2026-05-06-2711",
      "date": "2026-05-06",
      "commit": "174fd0c0eef8",
      "dimension": "method_map",
      "change_type": "unmapped_method",
      "permission": "",
      "role": "",
      "service": "aiplatform",
      "method": "aiplatform.projects.locations.reasoningEngines.asyncQuery",
      "severity": "INFO",
      "tags": [],
      "details": {
        "note": "New method has no permission mapping"
      }
    },
    {
      "id": "2026-05-06-2712",
      "date": "2026-05-06",
      "commit": "174fd0c0eef8",
      "dimension": "method_map",
      "change_type": "unmapped_method",
      "permission": "",
      "role": "",
      "service": "compute",
      "method": "compute.rollouts.advance",
      "severity": "INFO",
      "tags": [],
      "details": {
        "note": "New method has no permission mapping"
      }
    },
    {
      "id": "2026-05-06-2713",
      "date": "2026-05-06",
      "commit": "174fd0c0eef8",
      "dimension": "method_map",
      "change_type": "unmapped_method",
      "permission": "",
      "role": "",
      "service": "assuredworkloads",
      "method": "assuredworkloads.assuredworkloads.archiveResourceEvents",
      "severity": "INFO",
      "tags": [],
      "details": {
        "note": "New method has no permission mapping"
      }
    },
    {
      "id": "2026-05-06-2714",
      "date": "2026-05-06",
      "commit": "174fd0c0eef8",
      "dimension": "method_map",
      "change_type": "unmapped_method",
      "permission": "",
      "role": "",
      "service": "networksecurity",
      "method": "networksecurity.projects.locations.securityProfileGroups.get",
      "severity": "INFO",
      "tags": [],
      "details": {
        "note": "New method has no permission mapping"
      }
    },
    {
      "id": "2026-05-06-2715",
      "date": "2026-05-06",
      "commit": "174fd0c0eef8",
      "dimension": "method_map",
      "change_type": "unmapped_method",
      "permission": "",
      "role": "",
      "service": "aiplatform",
      "method": "aiplatform.projects.locations.skills.operations.get",
      "severity": "INFO",
      "tags": [],
      "details": {
        "note": "New method has no permission mapping"
      }
    },
    {
      "id": "2026-05-06-2716",
      "date": "2026-05-06",
      "commit": "174fd0c0eef8",
      "dimension": "method_map",
      "change_type": "unmapped_method",
      "permission": "",
      "role": "",
      "service": "networksecurity",
      "method": "networksecurity.projects.locations.firewallEndpoints.list",
      "severity": "INFO",
      "tags": [],
      "details": {
        "note": "New method has no permission mapping"
      }
    },
    {
      "id": "2026-05-06-2717",
      "date": "2026-05-06",
      "commit": "174fd0c0eef8",
      "dimension": "method_map",
      "change_type": "unmapped_method",
      "permission": "",
      "role": "",
      "service": "networksecurity",
      "method": "networksecurity.projects.locations.securityProfileGroups.list",
      "severity": "INFO",
      "tags": [],
      "details": {
        "note": "New method has no permission mapping"
      }
    },
    {
      "id": "2026-05-06-2718",
      "date": "2026-05-06",
      "commit": "174fd0c0eef8",
      "dimension": "method_map",
      "change_type": "unmapped_method",
      "permission": "",
      "role": "",
      "service": "networksecurity",
      "method": "networksecurity.projects.locations.securityProfiles.patch",
      "severity": "HIGH",
      "tags": [],
      "details": {
        "note": "New method has no permission mapping"
      }
    },
    {
      "id": "2026-05-06-2719",
      "date": "2026-05-06",
      "commit": "174fd0c0eef8",
      "dimension": "method_map",
      "change_type": "unmapped_method",
      "permission": "",
      "role": "",
      "service": "drive",
      "method": "drive.approvals.decline",
      "severity": "INFO",
      "tags": [],
      "details": {
        "note": "New method has no permission mapping"
      }
    },
    {
      "id": "2026-05-06-2720",
      "date": "2026-05-06",
      "commit": "174fd0c0eef8",
      "dimension": "method_map",
      "change_type": "unmapped_method",
      "permission": "",
      "role": "",
      "service": "compute",
      "method": "compute.imageViews.get",
      "severity": "INFO",
      "tags": [],
      "details": {
        "note": "New method has no permission mapping"
      }
    },
    {
      "id": "2026-05-06-2721",
      "date": "2026-05-06",
      "commit": "174fd0c0eef8",
      "dimension": "method_map",
      "change_type": "unmapped_method",
      "permission": "",
      "role": "",
      "service": "networksecurity",
      "method": "networksecurity.projects.locations.securityProfiles.get",
      "severity": "INFO",
      "tags": [],
      "details": {
        "note": "New method has no permission mapping"
      }
    },
    {
      "id": "2026-05-06-2722",
      "date": "2026-05-06",
      "commit": "174fd0c0eef8",
      "dimension": "method_map",
      "change_type": "unmapped_method",
      "permission": "",
      "role": "",
      "service": "compute",
      "method": "compute.imageViews.list",
      "severity": "INFO",
      "tags": [],
      "details": {
        "note": "New method has no permission mapping"
      }
    },
    {
      "id": "2026-05-06-2723",
      "date": "2026-05-06",
      "commit": "174fd0c0eef8",
      "dimension": "method_map",
      "change_type": "unmapped_method",
      "permission": "",
      "role": "",
      "service": "drive",
      "method": "drive.approvals.reassign",
      "severity": "INFO",
      "tags": [],
      "details": {
        "note": "New method has no permission mapping"
      }
    },
    {
      "id": "2026-05-06-2724",
      "date": "2026-05-06",
      "commit": "174fd0c0eef8",
      "dimension": "method_map",
      "change_type": "unmapped_method",
      "permission": "",
      "role": "",
      "service": "aiplatform",
      "method": "aiplatform.skills.operations.delete",
      "severity": "HIGH",
      "tags": [],
      "details": {
        "note": "New method has no permission mapping"
      }
    },
    {
      "id": "2026-05-06-2725",
      "date": "2026-05-06",
      "commit": "174fd0c0eef8",
      "dimension": "method_map",
      "change_type": "unmapped_method",
      "permission": "",
      "role": "",
      "service": "assuredworkloads",
      "method": "assuredworkloads.assuredworkloads.revertArchivedResourceEvents",
      "severity": "INFO",
      "tags": [],
      "details": {
        "note": "New method has no permission mapping"
      }
    },
    {
      "id": "2026-05-06-2726",
      "date": "2026-05-06",
      "commit": "174fd0c0eef8",
      "dimension": "method_map",
      "change_type": "unmapped_method",
      "permission": "",
      "role": "",
      "service": "aiplatform",
      "method": "aiplatform.projects.locations.skills.operations.list",
      "severity": "INFO",
      "tags": [],
      "details": {
        "note": "New method has no permission mapping"
      }
    },
    {
      "id": "2026-05-06-2727",
      "date": "2026-05-06",
      "commit": "174fd0c0eef8",
      "dimension": "method_map",
      "change_type": "unmapped_method",
      "permission": "",
      "role": "",
      "service": "backupdr",
      "method": "backupdr.folders.locations.resourceBackupConfigs.fetch",
      "severity": "INFO",
      "tags": [],
      "details": {
        "note": "New method has no permission mapping"
      }
    },
    {
      "id": "2026-05-06-2728",
      "date": "2026-05-06",
      "commit": "174fd0c0eef8",
      "dimension": "method_map",
      "change_type": "unmapped_method",
      "permission": "",
      "role": "",
      "service": "aiplatform",
      "method": "aiplatform.skills.operations.get",
      "severity": "INFO",
      "tags": [],
      "details": {
        "note": "New method has no permission mapping"
      }
    },
    {
      "id": "2026-05-06-2729",
      "date": "2026-05-06",
      "commit": "174fd0c0eef8",
      "dimension": "method_map",
      "change_type": "unmapped_method",
      "permission": "",
      "role": "",
      "service": "networksecurity",
      "method": "networksecurity.projects.locations.securityProfileGroups.patch",
      "severity": "HIGH",
      "tags": [],
      "details": {
        "note": "New method has no permission mapping"
      }
    },
    {
      "id": "2026-05-06-2730",
      "date": "2026-05-06",
      "commit": "174fd0c0eef8",
      "dimension": "method_map",
      "change_type": "unmapped_method",
      "permission": "",
      "role": "",
      "service": "drive",
      "method": "drive.approvals.start",
      "severity": "INFO",
      "tags": [],
      "details": {
        "note": "New method has no permission mapping"
      }
    },
    {
      "id": "2026-04-29-2731",
      "date": "2026-04-29",
      "commit": "728114dae678",
      "dimension": "methods",
      "change_type": "added",
      "permission": "",
      "role": "",
      "service": "workstations",
      "method": "workstations.projects.locations.workstationClusters.workstationConfigs.workstations.pushCredentials",
      "severity": "INFO",
      "tags": [],
      "details": {
        "service": "workstations"
      }
    },
    {
      "id": "2026-04-29-2732",
      "date": "2026-04-29",
      "commit": "728114dae678",
      "dimension": "methods",
      "change_type": "added",
      "permission": "",
      "role": "",
      "service": "youtube",
      "method": "youtube.youtube.v3.deleteAudiotracks",
      "severity": "INFO",
      "tags": [],
      "details": {
        "service": "youtube"
      }
    },
    {
      "id": "2026-04-29-2733",
      "date": "2026-04-29",
      "commit": "728114dae678",
      "dimension": "methods",
      "change_type": "added",
      "permission": "",
      "role": "",
      "service": "youtube",
      "method": "youtube.youtube.v3.audiotracks.list",
      "severity": "INFO",
      "tags": [],
      "details": {
        "service": "youtube"
      }
    },
    {
      "id": "2026-04-29-2734",
      "date": "2026-04-29",
      "commit": "728114dae678",
      "dimension": "methods",
      "change_type": "added",
      "permission": "",
      "role": "",
      "service": "youtube",
      "method": "youtube.media.upload",
      "severity": "INFO",
      "tags": [],
      "details": {
        "service": "youtube"
      }
    },
    {
      "id": "2026-04-29-2735",
      "date": "2026-04-29",
      "commit": "728114dae678",
      "dimension": "method_map",
      "change_type": "unmapped_method",
      "permission": "",
      "role": "",
      "service": "workstations",
      "method": "workstations.projects.locations.workstationClusters.workstationConfigs.workstations.pushCredentials",
      "severity": "INFO",
      "tags": [],
      "details": {
        "note": "New method has no permission mapping"
      }
    },
    {
      "id": "2026-04-29-2736",
      "date": "2026-04-29",
      "commit": "728114dae678",
      "dimension": "method_map",
      "change_type": "unmapped_method",
      "permission": "",
      "role": "",
      "service": "youtube",
      "method": "youtube.youtube.v3.deleteAudiotracks",
      "severity": "INFO",
      "tags": [],
      "details": {
        "note": "New method has no permission mapping"
      }
    },
    {
      "id": "2026-04-29-2737",
      "date": "2026-04-29",
      "commit": "728114dae678",
      "dimension": "method_map",
      "change_type": "unmapped_method",
      "permission": "",
      "role": "",
      "service": "youtube",
      "method": "youtube.youtube.v3.audiotracks.list",
      "severity": "INFO",
      "tags": [],
      "details": {
        "note": "New method has no permission mapping"
      }
    },
    {
      "id": "2026-04-29-2738",
      "date": "2026-04-29",
      "commit": "728114dae678",
      "dimension": "method_map",
      "change_type": "unmapped_method",
      "permission": "",
      "role": "",
      "service": "youtube",
      "method": "youtube.media.upload",
      "severity": "INFO",
      "tags": [],
      "details": {
        "note": "New method has no permission mapping"
      }
    },
    {
      "id": "2026-04-26-2739",
      "date": "2026-04-26",
      "commit": "54a4d8f61f0b",
      "dimension": "methods",
      "change_type": "added",
      "permission": "",
      "role": "",
      "service": "chromemanagement",
      "method": "chromemanagement.customers.connectorConfigs.patch",
      "severity": "HIGH",
      "tags": [],
      "details": {
        "service": "chromemanagement"
      }
    },
    {
      "id": "2026-04-26-2740",
      "date": "2026-04-26",
      "commit": "54a4d8f61f0b",
      "dimension": "method_map",
      "change_type": "unmapped_method",
      "permission": "",
      "role": "",
      "service": "chromemanagement",
      "method": "chromemanagement.customers.connectorConfigs.patch",
      "severity": "HIGH",
      "tags": [],
      "details": {
        "note": "New method has no permission mapping"
      }
    },
    {
      "id": "2026-04-24-2741",
      "date": "2026-04-24",
      "commit": "7441a7b70cc7",
      "dimension": "methods",
      "change_type": "removed",
      "permission": "",
      "role": "",
      "service": "playdeveloperreporting",
      "method": "playdeveloperreporting.ratings.get",
      "severity": "INFO",
      "tags": [],
      "details": {
        "service": "playdeveloperreporting"
      }
    },
    {
      "id": "2026-04-24-2742",
      "date": "2026-04-24",
      "commit": "7441a7b70cc7",
      "dimension": "methods",
      "change_type": "removed",
      "permission": "",
      "role": "",
      "service": "playdeveloperreporting",
      "method": "playdeveloperreporting.ratings.query",
      "severity": "INFO",
      "tags": [],
      "details": {
        "service": "playdeveloperreporting"
      }
    },
    {
      "id": "2026-04-23-2743",
      "date": "2026-04-23",
      "commit": "250af8a2fe03",
      "dimension": "methods",
      "change_type": "added",
      "permission": "",
      "role": "",
      "service": "playdeveloperreporting",
      "method": "playdeveloperreporting.ratings.get",
      "severity": "INFO",
      "tags": [],
      "details": {
        "service": "playdeveloperreporting"
      }
    },
    {
      "id": "2026-04-23-2744",
      "date": "2026-04-23",
      "commit": "250af8a2fe03",
      "dimension": "methods",
      "change_type": "added",
      "permission": "",
      "role": "",
      "service": "playdeveloperreporting",
      "method": "playdeveloperreporting.ratings.query",
      "severity": "INFO",
      "tags": [],
      "details": {
        "service": "playdeveloperreporting"
      }
    },
    {
      "id": "2026-04-23-2745",
      "date": "2026-04-23",
      "commit": "250af8a2fe03",
      "dimension": "method_map",
      "change_type": "unmapped_method",
      "permission": "",
      "role": "",
      "service": "playdeveloperreporting",
      "method": "playdeveloperreporting.ratings.get",
      "severity": "INFO",
      "tags": [],
      "details": {
        "note": "New method has no permission mapping"
      }
    },
    {
      "id": "2026-04-23-2746",
      "date": "2026-04-23",
      "commit": "250af8a2fe03",
      "dimension": "method_map",
      "change_type": "unmapped_method",
      "permission": "",
      "role": "",
      "service": "playdeveloperreporting",
      "method": "playdeveloperreporting.ratings.query",
      "severity": "INFO",
      "tags": [],
      "details": {
        "note": "New method has no permission mapping"
      }
    }
  ],
  "summary": {
    "by_severity": {
      "CRITICAL": 12,
      "HIGH": 599,
      "MEDIUM": 2004,
      "INFO": 131
    },
    "by_dimension": {
      "predefined_roles": 31,
      "role_permissions": 2548,
      "methods": 91,
      "method_map": 76
    },
    "new_services": []
  }
}