{
  "generated_at": "2026-04-25T16:32:17Z",
  "total_entries": 50909,
  "pages": 510,
  "page": 510,
  "page_size": 100,
  "entries": [
    {
      "id": "2026-03-28-50901",
      "date": "2026-03-28",
      "commit": "d6bb0669e066",
      "dimension": "role_permissions",
      "change_type": "permission_added_to_role",
      "permission": "config.deploymentgroups.list",
      "role": "roles/designcenter.applicationViewer",
      "service": "config",
      "method": "",
      "severity": "MEDIUM",
      "tags": [],
      "details": {
        "undocumented": true
      }
    },
    {
      "id": "2026-03-28-50902",
      "date": "2026-03-28",
      "commit": "d6bb0669e066",
      "dimension": "role_permissions",
      "change_type": "permission_removed_from_role",
      "permission": "config.deploymentgroups.list",
      "role": "roles/designcenter.applicationAdmin",
      "service": "config",
      "method": "",
      "severity": "MEDIUM",
      "tags": [],
      "details": {
        "was_undocumented": true
      }
    },
    {
      "id": "2026-03-28-50903",
      "date": "2026-03-28",
      "commit": "d6bb0669e066",
      "dimension": "role_permissions",
      "change_type": "permission_removed_from_role",
      "permission": "config.deploymentgroups.list",
      "role": "roles/iam.securityAdmin",
      "service": "config",
      "method": "",
      "severity": "MEDIUM",
      "tags": [],
      "details": {
        "was_undocumented": true
      }
    },
    {
      "id": "2026-03-28-50904",
      "date": "2026-03-28",
      "commit": "d6bb0669e066",
      "dimension": "role_permissions",
      "change_type": "permission_added_to_role",
      "permission": "networkservices.route_views.list",
      "role": "roles/hypercomputecluster.sharedVpcServiceAgent",
      "service": "networkservices",
      "method": "",
      "severity": "MEDIUM",
      "tags": [],
      "details": {
        "undocumented": true
      }
    },
    {
      "id": "2026-03-28-50905",
      "date": "2026-03-28",
      "commit": "d6bb0669e066",
      "dimension": "role_permissions",
      "change_type": "permission_added_to_role",
      "permission": "apphub.applications.create",
      "role": "roles/saasservicemgmt.serviceAgent",
      "service": "apphub",
      "method": "",
      "severity": "HIGH",
      "tags": [],
      "details": {
        "undocumented": true
      }
    },
    {
      "id": "2026-03-28-50906",
      "date": "2026-03-28",
      "commit": "d6bb0669e066",
      "dimension": "role_permissions",
      "change_type": "permission_added_to_role",
      "permission": "networkservices.meshes.get",
      "role": "roles/hypercomputecluster.sharedVpcServiceAgent",
      "service": "networkservices",
      "method": "",
      "severity": "MEDIUM",
      "tags": [],
      "details": {
        "undocumented": true
      }
    },
    {
      "id": "2026-03-28-50907",
      "date": "2026-03-28",
      "commit": "d6bb0669e066",
      "dimension": "role_permissions",
      "change_type": "permission_added_to_role",
      "permission": "biglake.catalogs.update",
      "role": "roles/iam.databasesAdmin",
      "service": "biglake",
      "method": "",
      "severity": "HIGH",
      "tags": [],
      "details": {
        "undocumented": true
      }
    },
    {
      "id": "2026-03-28-50908",
      "date": "2026-03-28",
      "commit": "d6bb0669e066",
      "dimension": "role_permissions",
      "change_type": "permission_added_to_role",
      "permission": "biglake.catalogs.update",
      "role": "roles/editor",
      "service": "biglake",
      "method": "",
      "severity": "HIGH",
      "tags": [],
      "details": {
        "undocumented": true
      }
    },
    {
      "id": "2026-03-28-50909",
      "date": "2026-03-28",
      "commit": "d6bb0669e066",
      "dimension": "role_permissions",
      "change_type": "permission_added_to_role",
      "permission": "networkservices.serviceLbPolicies.get",
      "role": "roles/hypercomputecluster.sharedVpcServiceAgent",
      "service": "networkservices",
      "method": "",
      "severity": "MEDIUM",
      "tags": [],
      "details": {
        "undocumented": true
      }
    }
  ],
  "summary": {
    "by_severity": {
      "CRITICAL": 433,
      "HIGH": 11194,
      "MEDIUM": 38046,
      "INFO": 1236
    },
    "by_dimension": {
      "methods": 1129,
      "method_map": 618,
      "predefined_roles": 763,
      "role_permissions": 48399
    },
    "new_services": []
  }
}