{
  "generated_at": "2026-04-05T16:26:21Z",
  "total_entries": 10211,
  "pages": 103,
  "page": 103,
  "page_size": 100,
  "entries": [
    {
      "id": "2026-03-08-10201",
      "date": "2026-03-08",
      "commit": "ee508ea6ad84",
      "dimension": "role_permissions",
      "change_type": "permission_added_to_role",
      "permission": "cloudkms.retiredResources.get",
      "role": "roles/cloudkms.admin",
      "service": "cloudkms",
      "method": "",
      "severity": "MEDIUM",
      "tags": [],
      "details": {
        "undocumented": true
      }
    },
    {
      "id": "2026-03-08-10202",
      "date": "2026-03-08",
      "commit": "ee508ea6ad84",
      "dimension": "role_permissions",
      "change_type": "permission_added_to_role",
      "permission": "auditmanager.auditSchedules.get",
      "role": "roles/viewer",
      "service": "auditmanager",
      "method": "",
      "severity": "MEDIUM",
      "tags": [],
      "details": {
        "undocumented": true
      }
    },
    {
      "id": "2026-03-08-10203",
      "date": "2026-03-08",
      "commit": "ee508ea6ad84",
      "dimension": "role_permissions",
      "change_type": "permission_added_to_role",
      "permission": "compute.regionTargetTcpProxies.attach",
      "role": "roles/cloudtpu.serviceAgent",
      "service": "compute",
      "method": "",
      "severity": "MEDIUM",
      "tags": [],
      "details": {
        "undocumented": true
      }
    },
    {
      "id": "2026-03-08-10204",
      "date": "2026-03-08",
      "commit": "ee508ea6ad84",
      "dimension": "role_permissions",
      "change_type": "permission_added_to_role",
      "permission": "compute.regionTargetTcpProxies.attach",
      "role": "roles/compute.admin",
      "service": "compute",
      "method": "",
      "severity": "MEDIUM",
      "tags": [],
      "details": {
        "undocumented": true
      }
    },
    {
      "id": "2026-03-08-10205",
      "date": "2026-03-08",
      "commit": "ee508ea6ad84",
      "dimension": "role_permissions",
      "change_type": "permission_added_to_role",
      "permission": "compute.regionTargetTcpProxies.attach",
      "role": "roles/iam.networkAdmin",
      "service": "compute",
      "method": "",
      "severity": "MEDIUM",
      "tags": [],
      "details": {
        "undocumented": true
      }
    },
    {
      "id": "2026-03-08-10206",
      "date": "2026-03-08",
      "commit": "ee508ea6ad84",
      "dimension": "methods",
      "change_type": "added",
      "permission": "",
      "role": "",
      "service": "aiplatform",
      "method": "aiplatform.projects.locations.askContexts",
      "severity": "INFO",
      "tags": [],
      "details": {
        "service": "aiplatform"
      }
    },
    {
      "id": "2026-03-08-10207",
      "date": "2026-03-08",
      "commit": "ee508ea6ad84",
      "dimension": "methods",
      "change_type": "added",
      "permission": "",
      "role": "",
      "service": "aiplatform",
      "method": "aiplatform.projects.locations.asyncRetrieveContexts",
      "severity": "INFO",
      "tags": [],
      "details": {
        "service": "aiplatform"
      }
    },
    {
      "id": "2026-03-08-10208",
      "date": "2026-03-08",
      "commit": "ee508ea6ad84",
      "dimension": "methods",
      "change_type": "added",
      "permission": "",
      "role": "",
      "service": "aiplatform",
      "method": "aiplatform.projects.locations.endpoints.openapi.responses",
      "severity": "INFO",
      "tags": [],
      "details": {
        "service": "aiplatform"
      }
    },
    {
      "id": "2026-03-08-10209",
      "date": "2026-03-08",
      "commit": "ee508ea6ad84",
      "dimension": "method_map",
      "change_type": "unmapped_method",
      "permission": "",
      "role": "",
      "service": "aiplatform",
      "method": "aiplatform.projects.locations.endpoints.openapi.responses",
      "severity": "INFO",
      "tags": [],
      "details": {
        "note": "New method has no permission mapping"
      }
    },
    {
      "id": "2026-03-08-10210",
      "date": "2026-03-08",
      "commit": "ee508ea6ad84",
      "dimension": "method_map",
      "change_type": "unmapped_method",
      "permission": "",
      "role": "",
      "service": "aiplatform",
      "method": "aiplatform.projects.locations.asyncRetrieveContexts",
      "severity": "INFO",
      "tags": [],
      "details": {
        "note": "New method has no permission mapping"
      }
    },
    {
      "id": "2026-03-08-10211",
      "date": "2026-03-08",
      "commit": "ee508ea6ad84",
      "dimension": "method_map",
      "change_type": "unmapped_method",
      "permission": "",
      "role": "",
      "service": "aiplatform",
      "method": "aiplatform.projects.locations.askContexts",
      "severity": "INFO",
      "tags": [],
      "details": {
        "note": "New method has no permission mapping"
      }
    }
  ],
  "summary": {
    "by_severity": {
      "CRITICAL": 64,
      "HIGH": 2480,
      "MEDIUM": 7529,
      "INFO": 138
    },
    "by_dimension": {
      "predefined_roles": 176,
      "role_permissions": 9849,
      "methods": 115,
      "method_map": 71
    },
    "new_services": []
  }
}