{
  "generated_at": "2026-07-09T16:48:59Z",
  "total_entries": 3608,
  "pages": 37,
  "page": 37,
  "page_size": 100,
  "entries": [
    {
      "id": "2026-06-12-3601",
      "date": "2026-06-12",
      "commit": "88035e35580d",
      "dimension": "role_permissions",
      "change_type": "permission_added_to_role",
      "permission": "dataplex.changeRequests.get",
      "role": "roles/datacatalog.viewer",
      "service": "dataplex",
      "method": "",
      "severity": "MEDIUM",
      "tags": [],
      "details": {
        "undocumented": true
      }
    },
    {
      "id": "2026-06-12-3602",
      "date": "2026-06-12",
      "commit": "88035e35580d",
      "dimension": "role_permissions",
      "change_type": "permission_added_to_role",
      "permission": "cloudkms.keyHandles.list",
      "role": "roles/apigee.editor",
      "service": "cloudkms",
      "method": "",
      "severity": "MEDIUM",
      "tags": [],
      "details": {
        "undocumented": true
      }
    },
    {
      "id": "2026-06-12-3603",
      "date": "2026-06-12",
      "commit": "88035e35580d",
      "dimension": "role_permissions",
      "change_type": "permission_added_to_role",
      "permission": "navigationconnect.trips.get",
      "role": "roles/editor",
      "service": "navigationconnect",
      "method": "",
      "severity": "MEDIUM",
      "tags": [],
      "details": {
        "undocumented": true
      }
    },
    {
      "id": "2026-06-12-3604",
      "date": "2026-06-12",
      "commit": "88035e35580d",
      "dimension": "role_permissions",
      "change_type": "permission_added_to_role",
      "permission": "cloudmessaging.topicSubscriptions.list",
      "role": "roles/firebase.growthViewer",
      "service": "cloudmessaging",
      "method": "",
      "severity": "MEDIUM",
      "tags": [],
      "details": {
        "undocumented": true
      }
    },
    {
      "id": "2026-06-12-3605",
      "date": "2026-06-12",
      "commit": "88035e35580d",
      "dimension": "role_permissions",
      "change_type": "permission_added_to_role",
      "permission": "dataplex.dataProducts.approve",
      "role": "roles/editor",
      "service": "dataplex",
      "method": "",
      "severity": "MEDIUM",
      "tags": [],
      "details": {
        "undocumented": true
      }
    },
    {
      "id": "2026-06-12-3606",
      "date": "2026-06-12",
      "commit": "88035e35580d",
      "dimension": "role_permissions",
      "change_type": "permission_added_to_role",
      "permission": "dataplex.dataProducts.approve",
      "role": "roles/dataplex.editor",
      "service": "dataplex",
      "method": "",
      "severity": "MEDIUM",
      "tags": [],
      "details": {
        "undocumented": true
      }
    },
    {
      "id": "2026-06-11-3607",
      "date": "2026-06-11",
      "commit": "04844ad70025",
      "dimension": "methods",
      "change_type": "added",
      "permission": "",
      "role": "",
      "service": "sqladmin",
      "method": "sql.connect.resolve",
      "severity": "INFO",
      "tags": [],
      "details": {
        "service": "sqladmin"
      }
    },
    {
      "id": "2026-06-11-3608",
      "date": "2026-06-11",
      "commit": "04844ad70025",
      "dimension": "method_map",
      "change_type": "unmapped_method",
      "permission": "",
      "role": "",
      "service": "sqladmin",
      "method": "sqladmin.sql.connect.resolve",
      "severity": "INFO",
      "tags": [],
      "details": {
        "note": "New method has no permission mapping"
      }
    }
  ],
  "summary": {
    "by_severity": {
      "CRITICAL": 15,
      "HIGH": 423,
      "MEDIUM": 2934,
      "INFO": 236
    },
    "by_dimension": {
      "methods": 169,
      "method_map": 161,
      "predefined_roles": 66,
      "role_permissions": 3212
    },
    "new_services": []
  }
}