{
  "generated_at": "2026-04-14T16:56:38Z",
  "total_entries": 48501,
  "pages": 486,
  "page": 486,
  "page_size": 100,
  "entries": [
    {
      "id": "2026-03-24-48501",
      "date": "2026-03-24",
      "commit": "751fcf4b854d",
      "dimension": "method_map",
      "change_type": "unmapped_method",
      "permission": "",
      "role": "",
      "service": "meet",
      "method": "meet.conferenceRecords.smartNotes.get",
      "severity": "INFO",
      "tags": [],
      "details": {
        "note": "New method has no permission mapping"
      }
    }
  ],
  "summary": {
    "by_severity": {
      "CRITICAL": 424,
      "HIGH": 10923,
      "MEDIUM": 35923,
      "INFO": 1231
    },
    "by_dimension": {
      "predefined_roles": 720,
      "role_permissions": 46043,
      "methods": 1125,
      "method_map": 613
    },
    "new_services": []
  }
}