{
  "generated_at": "2026-05-13T17:58:22Z",
  "total_entries": 4926,
  "pages": 50,
  "page": 50,
  "page_size": 100,
  "entries": [
    {
      "id": "2026-04-15-4901",
      "date": "2026-04-15",
      "commit": "ce1853416c14",
      "dimension": "role_permissions",
      "change_type": "permission_added_to_role",
      "permission": "iamconnectors.locations.get",
      "role": "roles/editor",
      "service": "iamconnectors",
      "method": "",
      "severity": "MEDIUM",
      "tags": [],
      "details": {
        "undocumented": true
      }
    },
    {
      "id": "2026-04-15-4902",
      "date": "2026-04-15",
      "commit": "ce1853416c14",
      "dimension": "role_permissions",
      "change_type": "permission_added_to_role",
      "permission": "iamconnectors.locations.get",
      "role": "roles/owner",
      "service": "iamconnectors",
      "method": "",
      "severity": "MEDIUM",
      "tags": [],
      "details": {
        "undocumented": true
      }
    },
    {
      "id": "2026-04-15-4903",
      "date": "2026-04-15",
      "commit": "ce1853416c14",
      "dimension": "role_permissions",
      "change_type": "permission_removed_from_role",
      "permission": "iamconnectors.locations.get",
      "role": "roles/iam.supportUser",
      "service": "iamconnectors",
      "method": "",
      "severity": "MEDIUM",
      "tags": [],
      "details": {
        "was_undocumented": true
      }
    },
    {
      "id": "2026-04-15-4904",
      "date": "2026-04-15",
      "commit": "ce1853416c14",
      "dimension": "role_permissions",
      "change_type": "permission_added_to_role",
      "permission": "servicemanagement.services.quota",
      "role": "roles/servicemanagement.editor",
      "service": "servicemanagement",
      "method": "",
      "severity": "MEDIUM",
      "tags": [],
      "details": {
        "undocumented": true
      }
    },
    {
      "id": "2026-04-15-4905",
      "date": "2026-04-15",
      "commit": "ce1853416c14",
      "dimension": "role_permissions",
      "change_type": "permission_added_to_role",
      "permission": "eventarc.channelConnections.listEffectiveTags",
      "role": "roles/run.sourceDeveloper",
      "service": "eventarc",
      "method": "",
      "severity": "MEDIUM",
      "tags": [],
      "details": {
        "undocumented": true
      }
    },
    {
      "id": "2026-04-15-4906",
      "date": "2026-04-15",
      "commit": "ce1853416c14",
      "dimension": "role_permissions",
      "change_type": "permission_added_to_role",
      "permission": "eventarc.channelConnections.listEffectiveTags",
      "role": "roles/eventarc.editor",
      "service": "eventarc",
      "method": "",
      "severity": "MEDIUM",
      "tags": [],
      "details": {
        "undocumented": true
      }
    },
    {
      "id": "2026-04-15-4907",
      "date": "2026-04-15",
      "commit": "ce1853416c14",
      "dimension": "role_permissions",
      "change_type": "permission_added_to_role",
      "permission": "eventarc.channelConnections.listEffectiveTags",
      "role": "roles/eventarc.viewer",
      "service": "eventarc",
      "method": "",
      "severity": "MEDIUM",
      "tags": [],
      "details": {
        "undocumented": true
      }
    },
    {
      "id": "2026-04-15-4908",
      "date": "2026-04-15",
      "commit": "ce1853416c14",
      "dimension": "role_permissions",
      "change_type": "permission_added_to_role",
      "permission": "eventarc.channelConnections.listEffectiveTags",
      "role": "roles/viewer",
      "service": "eventarc",
      "method": "",
      "severity": "MEDIUM",
      "tags": [],
      "details": {
        "undocumented": true
      }
    },
    {
      "id": "2026-04-15-4909",
      "date": "2026-04-15",
      "commit": "ce1853416c14",
      "dimension": "role_permissions",
      "change_type": "permission_added_to_role",
      "permission": "eventarc.channelConnections.listEffectiveTags",
      "role": "roles/editor",
      "service": "eventarc",
      "method": "",
      "severity": "MEDIUM",
      "tags": [],
      "details": {
        "undocumented": true
      }
    },
    {
      "id": "2026-04-15-4910",
      "date": "2026-04-15",
      "commit": "ce1853416c14",
      "dimension": "role_permissions",
      "change_type": "permission_added_to_role",
      "permission": "eventarc.channelConnections.listEffectiveTags",
      "role": "roles/run.sourceViewer",
      "service": "eventarc",
      "method": "",
      "severity": "MEDIUM",
      "tags": [],
      "details": {
        "undocumented": true
      }
    },
    {
      "id": "2026-04-15-4911",
      "date": "2026-04-15",
      "commit": "ce1853416c14",
      "dimension": "role_permissions",
      "change_type": "permission_added_to_role",
      "permission": "eventarc.channelConnections.listEffectiveTags",
      "role": "roles/dlp.projectdriver",
      "service": "eventarc",
      "method": "",
      "severity": "MEDIUM",
      "tags": [],
      "details": {
        "undocumented": true
      }
    },
    {
      "id": "2026-04-15-4912",
      "date": "2026-04-15",
      "commit": "ce1853416c14",
      "dimension": "role_permissions",
      "change_type": "permission_added_to_role",
      "permission": "eventarc.channelConnections.listEffectiveTags",
      "role": "roles/eventarc.developer",
      "service": "eventarc",
      "method": "",
      "severity": "MEDIUM",
      "tags": [],
      "details": {
        "undocumented": true
      }
    },
    {
      "id": "2026-04-15-4913",
      "date": "2026-04-15",
      "commit": "ce1853416c14",
      "dimension": "role_permissions",
      "change_type": "permission_added_to_role",
      "permission": "eventarc.channelConnections.listEffectiveTags",
      "role": "roles/firebase.developViewer",
      "service": "eventarc",
      "method": "",
      "severity": "MEDIUM",
      "tags": [],
      "details": {
        "undocumented": true
      }
    },
    {
      "id": "2026-04-15-4914",
      "date": "2026-04-15",
      "commit": "ce1853416c14",
      "dimension": "role_permissions",
      "change_type": "permission_added_to_role",
      "permission": "eventarc.channelConnections.listEffectiveTags",
      "role": "roles/dlp.orgdriver",
      "service": "eventarc",
      "method": "",
      "severity": "MEDIUM",
      "tags": [],
      "details": {
        "undocumented": true
      }
    },
    {
      "id": "2026-04-15-4915",
      "date": "2026-04-15",
      "commit": "ce1853416c14",
      "dimension": "role_permissions",
      "change_type": "permission_added_to_role",
      "permission": "eventarc.channelConnections.listEffectiveTags",
      "role": "roles/owner",
      "service": "eventarc",
      "method": "",
      "severity": "MEDIUM",
      "tags": [],
      "details": {
        "undocumented": true
      }
    },
    {
      "id": "2026-04-15-4916",
      "date": "2026-04-15",
      "commit": "ce1853416c14",
      "dimension": "role_permissions",
      "change_type": "permission_removed_from_role",
      "permission": "eventarc.channelConnections.listEffectiveTags",
      "role": "roles/cloudfunctions.admin",
      "service": "eventarc",
      "method": "",
      "severity": "MEDIUM",
      "tags": [],
      "details": {
        "was_undocumented": true
      }
    },
    {
      "id": "2026-04-15-4917",
      "date": "2026-04-15",
      "commit": "ce1853416c14",
      "dimension": "role_permissions",
      "change_type": "permission_removed_from_role",
      "permission": "eventarc.channelConnections.listEffectiveTags",
      "role": "roles/iam.securityAuditor",
      "service": "eventarc",
      "method": "",
      "severity": "MEDIUM",
      "tags": [],
      "details": {
        "was_undocumented": true
      }
    },
    {
      "id": "2026-04-15-4918",
      "date": "2026-04-15",
      "commit": "ce1853416c14",
      "dimension": "role_permissions",
      "change_type": "permission_removed_from_role",
      "permission": "eventarc.channelConnections.listEffectiveTags",
      "role": "roles/iam.dataScientist",
      "service": "eventarc",
      "method": "",
      "severity": "MEDIUM",
      "tags": [],
      "details": {
        "was_undocumented": true
      }
    },
    {
      "id": "2026-04-15-4919",
      "date": "2026-04-15",
      "commit": "ce1853416c14",
      "dimension": "role_permissions",
      "change_type": "permission_removed_from_role",
      "permission": "eventarc.channelConnections.listEffectiveTags",
      "role": "roles/iam.supportUser",
      "service": "eventarc",
      "method": "",
      "severity": "MEDIUM",
      "tags": [],
      "details": {
        "was_undocumented": true
      }
    },
    {
      "id": "2026-04-15-4920",
      "date": "2026-04-15",
      "commit": "ce1853416c14",
      "dimension": "role_permissions",
      "change_type": "permission_added_to_role",
      "permission": "capacityplanner.operations.get",
      "role": "roles/viewer",
      "service": "capacityplanner",
      "method": "",
      "severity": "MEDIUM",
      "tags": [],
      "details": {
        "undocumented": true
      }
    },
    {
      "id": "2026-04-15-4921",
      "date": "2026-04-15",
      "commit": "ce1853416c14",
      "dimension": "role_permissions",
      "change_type": "permission_added_to_role",
      "permission": "capacityplanner.operations.get",
      "role": "roles/editor",
      "service": "capacityplanner",
      "method": "",
      "severity": "MEDIUM",
      "tags": [],
      "details": {
        "undocumented": true
      }
    },
    {
      "id": "2026-04-15-4922",
      "date": "2026-04-15",
      "commit": "ce1853416c14",
      "dimension": "role_permissions",
      "change_type": "permission_added_to_role",
      "permission": "capacityplanner.operations.get",
      "role": "roles/owner",
      "service": "capacityplanner",
      "method": "",
      "severity": "MEDIUM",
      "tags": [],
      "details": {
        "undocumented": true
      }
    },
    {
      "id": "2026-04-15-4923",
      "date": "2026-04-15",
      "commit": "ce1853416c14",
      "dimension": "role_permissions",
      "change_type": "permission_removed_from_role",
      "permission": "capacityplanner.operations.get",
      "role": "roles/capacityplanner.viewer",
      "service": "capacityplanner",
      "method": "",
      "severity": "MEDIUM",
      "tags": [],
      "details": {
        "was_undocumented": true
      }
    },
    {
      "id": "2026-04-15-4924",
      "date": "2026-04-15",
      "commit": "ce1853416c14",
      "dimension": "role_permissions",
      "change_type": "permission_removed_from_role",
      "permission": "capacityplanner.operations.get",
      "role": "roles/iam.supportUser",
      "service": "capacityplanner",
      "method": "",
      "severity": "MEDIUM",
      "tags": [],
      "details": {
        "was_undocumented": true
      }
    },
    {
      "id": "2026-04-15-4925",
      "date": "2026-04-15",
      "commit": "ce1853416c14",
      "dimension": "role_permissions",
      "change_type": "permission_added_to_role",
      "permission": "serviceusage.consumerpolicy.analyze",
      "role": "roles/cloudsecurityscanner.admin",
      "service": "serviceusage",
      "method": "",
      "severity": "MEDIUM",
      "tags": [],
      "details": {
        "undocumented": true
      }
    },
    {
      "id": "2026-04-15-4926",
      "date": "2026-04-15",
      "commit": "ce1853416c14",
      "dimension": "role_permissions",
      "change_type": "permission_added_to_role",
      "permission": "servicehealth.artifacts.list",
      "role": "roles/servicehealth.admin",
      "service": "servicehealth",
      "method": "",
      "severity": "MEDIUM",
      "tags": [],
      "details": {
        "undocumented": true
      }
    }
  ],
  "summary": {
    "by_severity": {
      "CRITICAL": 21,
      "HIGH": 773,
      "MEDIUM": 4027,
      "INFO": 105
    },
    "by_dimension": {
      "predefined_roles": 78,
      "role_permissions": 4711,
      "methods": 76,
      "method_map": 61
    },
    "new_services": []
  }
}