{
  "generated_at": "2026-04-04T16:24:24Z",
  "total_entries": 5027,
  "pages": 51,
  "page": 51,
  "page_size": 100,
  "entries": [
    {
      "id": "2026-03-07-5001",
      "date": "2026-03-07",
      "commit": "add387e29068",
      "dimension": "role_permissions",
      "change_type": "permission_added_to_role",
      "permission": "dataform.teamFolders.deleteTree",
      "role": "roles/dataplex.serviceAgent",
      "service": "dataform",
      "method": "",
      "severity": "MEDIUM",
      "tags": [],
      "details": {
        "undocumented": true
      }
    },
    {
      "id": "2026-03-07-5002",
      "date": "2026-03-07",
      "commit": "add387e29068",
      "dimension": "role_permissions",
      "change_type": "permission_added_to_role",
      "permission": "dataform.teamFolders.deleteTree",
      "role": "roles/owner",
      "service": "dataform",
      "method": "",
      "severity": "MEDIUM",
      "tags": [],
      "details": {
        "undocumented": true
      }
    },
    {
      "id": "2026-03-07-5003",
      "date": "2026-03-07",
      "commit": "add387e29068",
      "dimension": "role_permissions",
      "change_type": "permission_added_to_role",
      "permission": "dataform.teamFolders.deleteTree",
      "role": "roles/bigquery.admin",
      "service": "dataform",
      "method": "",
      "severity": "MEDIUM",
      "tags": [],
      "details": {
        "undocumented": true
      }
    },
    {
      "id": "2026-03-07-5004",
      "date": "2026-03-07",
      "commit": "add387e29068",
      "dimension": "role_permissions",
      "change_type": "permission_added_to_role",
      "permission": "dataform.teamFolders.deleteTree",
      "role": "roles/aiplatform.colabEnterpriseAdmin",
      "service": "dataform",
      "method": "",
      "severity": "MEDIUM",
      "tags": [],
      "details": {
        "undocumented": true
      }
    },
    {
      "id": "2026-03-07-5005",
      "date": "2026-03-07",
      "commit": "add387e29068",
      "dimension": "methods",
      "change_type": "added",
      "permission": "",
      "role": "",
      "service": "displayvideo",
      "method": "displayvideo.advertisers.adGroups.targetingTypes.assignedTargetingOptions.delete",
      "severity": "HIGH",
      "tags": [],
      "details": {
        "service": "displayvideo"
      }
    },
    {
      "id": "2026-03-07-5006",
      "date": "2026-03-07",
      "commit": "add387e29068",
      "dimension": "methods",
      "change_type": "added",
      "permission": "",
      "role": "",
      "service": "displayvideo",
      "method": "displayvideo.advertisers.adGroups.delete",
      "severity": "HIGH",
      "tags": [],
      "details": {
        "service": "displayvideo"
      }
    },
    {
      "id": "2026-03-07-5007",
      "date": "2026-03-07",
      "commit": "add387e29068",
      "dimension": "methods",
      "change_type": "added",
      "permission": "",
      "role": "",
      "service": "displayvideo",
      "method": "displayvideo.advertisers.adGroupAds.delete",
      "severity": "HIGH",
      "tags": [],
      "details": {
        "service": "displayvideo"
      }
    },
    {
      "id": "2026-03-07-5008",
      "date": "2026-03-07",
      "commit": "add387e29068",
      "dimension": "methods",
      "change_type": "added",
      "permission": "",
      "role": "",
      "service": "displayvideo",
      "method": "displayvideo.advertisers.adGroups.targetingTypes.assignedTargetingOptions.create",
      "severity": "HIGH",
      "tags": [],
      "details": {
        "service": "displayvideo"
      }
    },
    {
      "id": "2026-03-07-5009",
      "date": "2026-03-07",
      "commit": "add387e29068",
      "dimension": "methods",
      "change_type": "added",
      "permission": "",
      "role": "",
      "service": "displayvideo",
      "method": "displayvideo.advertisers.adGroupAds.patch",
      "severity": "HIGH",
      "tags": [],
      "details": {
        "service": "displayvideo"
      }
    },
    {
      "id": "2026-03-07-5010",
      "date": "2026-03-07",
      "commit": "add387e29068",
      "dimension": "methods",
      "change_type": "added",
      "permission": "",
      "role": "",
      "service": "displayvideo",
      "method": "displayvideo.advertisers.adGroups.create",
      "severity": "HIGH",
      "tags": [],
      "details": {
        "service": "displayvideo"
      }
    },
    {
      "id": "2026-03-07-5011",
      "date": "2026-03-07",
      "commit": "add387e29068",
      "dimension": "methods",
      "change_type": "added",
      "permission": "",
      "role": "",
      "service": "displayvideo",
      "method": "displayvideo.advertisers.adGroups.patch",
      "severity": "HIGH",
      "tags": [],
      "details": {
        "service": "displayvideo"
      }
    },
    {
      "id": "2026-03-07-5012",
      "date": "2026-03-07",
      "commit": "add387e29068",
      "dimension": "methods",
      "change_type": "added",
      "permission": "",
      "role": "",
      "service": "displayvideo",
      "method": "displayvideo.advertisers.adGroups.bulkEditAssignedTargetingOptions",
      "severity": "INFO",
      "tags": [],
      "details": {
        "service": "displayvideo"
      }
    },
    {
      "id": "2026-03-07-5013",
      "date": "2026-03-07",
      "commit": "add387e29068",
      "dimension": "methods",
      "change_type": "added",
      "permission": "",
      "role": "",
      "service": "displayvideo",
      "method": "displayvideo.advertisers.adGroupAds.create",
      "severity": "HIGH",
      "tags": [],
      "details": {
        "service": "displayvideo"
      }
    },
    {
      "id": "2026-03-07-5014",
      "date": "2026-03-07",
      "commit": "add387e29068",
      "dimension": "methods",
      "change_type": "removed",
      "permission": "",
      "role": "",
      "service": "networksecurity",
      "method": "networksecurity.projects.locations.firewallEndpoints.get",
      "severity": "INFO",
      "tags": [],
      "details": {
        "service": "networksecurity"
      }
    },
    {
      "id": "2026-03-07-5015",
      "date": "2026-03-07",
      "commit": "add387e29068",
      "dimension": "methods",
      "change_type": "removed",
      "permission": "",
      "role": "",
      "service": "networksecurity",
      "method": "networksecurity.projects.locations.firewallEndpoints.delete",
      "severity": "HIGH",
      "tags": [],
      "details": {
        "service": "networksecurity"
      }
    },
    {
      "id": "2026-03-07-5016",
      "date": "2026-03-07",
      "commit": "add387e29068",
      "dimension": "methods",
      "change_type": "removed",
      "permission": "",
      "role": "",
      "service": "networksecurity",
      "method": "networksecurity.projects.locations.firewallEndpoints.patch",
      "severity": "HIGH",
      "tags": [],
      "details": {
        "service": "networksecurity"
      }
    },
    {
      "id": "2026-03-07-5017",
      "date": "2026-03-07",
      "commit": "add387e29068",
      "dimension": "methods",
      "change_type": "removed",
      "permission": "",
      "role": "",
      "service": "networksecurity",
      "method": "networksecurity.projects.locations.firewallEndpoints.create",
      "severity": "HIGH",
      "tags": [],
      "details": {
        "service": "networksecurity"
      }
    },
    {
      "id": "2026-03-07-5018",
      "date": "2026-03-07",
      "commit": "add387e29068",
      "dimension": "methods",
      "change_type": "removed",
      "permission": "",
      "role": "",
      "service": "networksecurity",
      "method": "networksecurity.projects.locations.firewallEndpoints.list",
      "severity": "INFO",
      "tags": [],
      "details": {
        "service": "networksecurity"
      }
    },
    {
      "id": "2026-03-07-5019",
      "date": "2026-03-07",
      "commit": "add387e29068",
      "dimension": "method_map",
      "change_type": "unmapped_method",
      "permission": "",
      "role": "",
      "service": "displayvideo",
      "method": "displayvideo.advertisers.adGroups.targetingTypes.assignedTargetingOptions.delete",
      "severity": "HIGH",
      "tags": [],
      "details": {
        "note": "New method has no permission mapping"
      }
    },
    {
      "id": "2026-03-07-5020",
      "date": "2026-03-07",
      "commit": "add387e29068",
      "dimension": "method_map",
      "change_type": "unmapped_method",
      "permission": "",
      "role": "",
      "service": "displayvideo",
      "method": "displayvideo.advertisers.adGroups.delete",
      "severity": "HIGH",
      "tags": [],
      "details": {
        "note": "New method has no permission mapping"
      }
    },
    {
      "id": "2026-03-07-5021",
      "date": "2026-03-07",
      "commit": "add387e29068",
      "dimension": "method_map",
      "change_type": "unmapped_method",
      "permission": "",
      "role": "",
      "service": "displayvideo",
      "method": "displayvideo.advertisers.adGroupAds.delete",
      "severity": "HIGH",
      "tags": [],
      "details": {
        "note": "New method has no permission mapping"
      }
    },
    {
      "id": "2026-03-07-5022",
      "date": "2026-03-07",
      "commit": "add387e29068",
      "dimension": "method_map",
      "change_type": "unmapped_method",
      "permission": "",
      "role": "",
      "service": "displayvideo",
      "method": "displayvideo.advertisers.adGroupAds.patch",
      "severity": "HIGH",
      "tags": [],
      "details": {
        "note": "New method has no permission mapping"
      }
    },
    {
      "id": "2026-03-07-5023",
      "date": "2026-03-07",
      "commit": "add387e29068",
      "dimension": "method_map",
      "change_type": "unmapped_method",
      "permission": "",
      "role": "",
      "service": "displayvideo",
      "method": "displayvideo.advertisers.adGroups.targetingTypes.assignedTargetingOptions.create",
      "severity": "HIGH",
      "tags": [],
      "details": {
        "note": "New method has no permission mapping"
      }
    },
    {
      "id": "2026-03-07-5024",
      "date": "2026-03-07",
      "commit": "add387e29068",
      "dimension": "method_map",
      "change_type": "unmapped_method",
      "permission": "",
      "role": "",
      "service": "displayvideo",
      "method": "displayvideo.advertisers.adGroups.create",
      "severity": "HIGH",
      "tags": [],
      "details": {
        "note": "New method has no permission mapping"
      }
    },
    {
      "id": "2026-03-07-5025",
      "date": "2026-03-07",
      "commit": "add387e29068",
      "dimension": "method_map",
      "change_type": "unmapped_method",
      "permission": "",
      "role": "",
      "service": "displayvideo",
      "method": "displayvideo.advertisers.adGroups.patch",
      "severity": "HIGH",
      "tags": [],
      "details": {
        "note": "New method has no permission mapping"
      }
    },
    {
      "id": "2026-03-07-5026",
      "date": "2026-03-07",
      "commit": "add387e29068",
      "dimension": "method_map",
      "change_type": "unmapped_method",
      "permission": "",
      "role": "",
      "service": "displayvideo",
      "method": "displayvideo.advertisers.adGroups.bulkEditAssignedTargetingOptions",
      "severity": "INFO",
      "tags": [],
      "details": {
        "note": "New method has no permission mapping"
      }
    },
    {
      "id": "2026-03-07-5027",
      "date": "2026-03-07",
      "commit": "add387e29068",
      "dimension": "method_map",
      "change_type": "unmapped_method",
      "permission": "",
      "role": "",
      "service": "displayvideo",
      "method": "displayvideo.advertisers.adGroupAds.create",
      "severity": "HIGH",
      "tags": [],
      "details": {
        "note": "New method has no permission mapping"
      }
    }
  ],
  "summary": {
    "by_severity": {
      "CRITICAL": 30,
      "HIGH": 1098,
      "MEDIUM": 3757,
      "INFO": 142
    },
    "by_dimension": {
      "predefined_roles": 57,
      "role_permissions": 4761,
      "methods": 129,
      "method_map": 80
    },
    "new_services": []
  }
}