{
  "generated_at": "2026-05-03T16:38:11Z",
  "total_entries": 46441,
  "pages": 465,
  "page": 465,
  "page_size": 100,
  "entries": [
    {
      "id": "2026-04-05-46401",
      "date": "2026-04-05",
      "commit": "d0c5a4951cba",
      "dimension": "role_permissions",
      "change_type": "permission_added_to_role",
      "permission": "iap.web.getSettings",
      "role": "roles/iap.viewer",
      "service": "iap",
      "method": "",
      "severity": "MEDIUM",
      "tags": [],
      "details": {
        "undocumented": true
      }
    },
    {
      "id": "2026-04-05-46402",
      "date": "2026-04-05",
      "commit": "d0c5a4951cba",
      "dimension": "role_permissions",
      "change_type": "permission_added_to_role",
      "permission": "remotebuildexecution.logstreams.create",
      "role": "roles/remotebuildexecution.admin",
      "service": "remotebuildexecution",
      "method": "",
      "severity": "HIGH",
      "tags": [],
      "details": {
        "undocumented": true
      }
    },
    {
      "id": "2026-04-05-46403",
      "date": "2026-04-05",
      "commit": "d0c5a4951cba",
      "dimension": "role_permissions",
      "change_type": "permission_added_to_role",
      "permission": "remotebuildexecution.logstreams.create",
      "role": "roles/remotebuildexecution.editor",
      "service": "remotebuildexecution",
      "method": "",
      "severity": "HIGH",
      "tags": [],
      "details": {
        "undocumented": true
      }
    },
    {
      "id": "2026-04-05-46404",
      "date": "2026-04-05",
      "commit": "d0c5a4951cba",
      "dimension": "role_permissions",
      "change_type": "permission_added_to_role",
      "permission": "recommender.loggingProductSuggestionContainerInsights.get",
      "role": "roles/recommender.admin",
      "service": "recommender",
      "method": "",
      "severity": "MEDIUM",
      "tags": [],
      "details": {
        "undocumented": true
      }
    },
    {
      "id": "2026-04-05-46405",
      "date": "2026-04-05",
      "commit": "d0c5a4951cba",
      "dimension": "role_permissions",
      "change_type": "permission_added_to_role",
      "permission": "recommender.loggingProductSuggestionContainerInsights.get",
      "role": "roles/recommender.editor",
      "service": "recommender",
      "method": "",
      "severity": "MEDIUM",
      "tags": [],
      "details": {
        "undocumented": true
      }
    },
    {
      "id": "2026-04-05-46406",
      "date": "2026-04-05",
      "commit": "d0c5a4951cba",
      "dimension": "role_permissions",
      "change_type": "permission_added_to_role",
      "permission": "backupdr.bvdataSources.fetchAccessToken",
      "role": "roles/backupdr.editor",
      "service": "backupdr",
      "method": "",
      "severity": "MEDIUM",
      "tags": [],
      "details": {
        "undocumented": true
      }
    },
    {
      "id": "2026-04-05-46407",
      "date": "2026-04-05",
      "commit": "d0c5a4951cba",
      "dimension": "role_permissions",
      "change_type": "permission_added_to_role",
      "permission": "certificatemanager.trustconfigs.listTagBindings",
      "role": "roles/certificatemanager.admin",
      "service": "certificatemanager",
      "method": "",
      "severity": "MEDIUM",
      "tags": [],
      "details": {
        "undocumented": true
      }
    },
    {
      "id": "2026-04-05-46408",
      "date": "2026-04-05",
      "commit": "d0c5a4951cba",
      "dimension": "role_permissions",
      "change_type": "permission_added_to_role",
      "permission": "dataconnectors.connectors.delete",
      "role": "roles/dataconnectors.admin",
      "service": "dataconnectors",
      "method": "",
      "severity": "HIGH",
      "tags": [],
      "details": {
        "undocumented": true
      }
    },
    {
      "id": "2026-04-05-46409",
      "date": "2026-04-05",
      "commit": "d0c5a4951cba",
      "dimension": "role_permissions",
      "change_type": "permission_added_to_role",
      "permission": "dataconnectors.connectors.delete",
      "role": "roles/dataconnectors.editor",
      "service": "dataconnectors",
      "method": "",
      "severity": "HIGH",
      "tags": [],
      "details": {
        "undocumented": true
      }
    },
    {
      "id": "2026-04-05-46410",
      "date": "2026-04-05",
      "commit": "d0c5a4951cba",
      "dimension": "role_permissions",
      "change_type": "permission_added_to_role",
      "permission": "recommender.computeFirewallInsights.list",
      "role": "roles/recommender.admin",
      "service": "recommender",
      "method": "",
      "severity": "MEDIUM",
      "tags": [],
      "details": {
        "undocumented": true
      }
    },
    {
      "id": "2026-04-05-46411",
      "date": "2026-04-05",
      "commit": "d0c5a4951cba",
      "dimension": "role_permissions",
      "change_type": "permission_added_to_role",
      "permission": "recommender.computeFirewallInsights.list",
      "role": "roles/recommender.editor",
      "service": "recommender",
      "method": "",
      "severity": "MEDIUM",
      "tags": [],
      "details": {
        "undocumented": true
      }
    },
    {
      "id": "2026-04-05-46412",
      "date": "2026-04-05",
      "commit": "d0c5a4951cba",
      "dimension": "role_permissions",
      "change_type": "permission_added_to_role",
      "permission": "datastore.databases.getMetadata",
      "role": "roles/firebase.editor",
      "service": "datastore",
      "method": "",
      "severity": "MEDIUM",
      "tags": [],
      "details": {
        "undocumented": true
      }
    },
    {
      "id": "2026-04-05-46413",
      "date": "2026-04-05",
      "commit": "d0c5a4951cba",
      "dimension": "role_permissions",
      "change_type": "permission_added_to_role",
      "permission": "file.instances.create",
      "role": "roles/file.admin",
      "service": "file",
      "method": "",
      "severity": "HIGH",
      "tags": [],
      "details": {
        "undocumented": true
      }
    },
    {
      "id": "2026-04-05-46414",
      "date": "2026-04-05",
      "commit": "d0c5a4951cba",
      "dimension": "role_permissions",
      "change_type": "permission_added_to_role",
      "permission": "backupdr.bvbackups.delete",
      "role": "roles/backupdr.editor",
      "service": "backupdr",
      "method": "",
      "severity": "HIGH",
      "tags": [],
      "details": {
        "undocumented": true
      }
    },
    {
      "id": "2026-04-05-46415",
      "date": "2026-04-05",
      "commit": "d0c5a4951cba",
      "dimension": "role_permissions",
      "change_type": "permission_added_to_role",
      "permission": "apigee.securityProfiles.update",
      "role": "roles/apigee.editor",
      "service": "apigee",
      "method": "",
      "severity": "HIGH",
      "tags": [],
      "details": {
        "undocumented": true
      }
    },
    {
      "id": "2026-04-05-46416",
      "date": "2026-04-05",
      "commit": "d0c5a4951cba",
      "dimension": "role_permissions",
      "change_type": "permission_added_to_role",
      "permission": "beyondcorp.operations.list",
      "role": "roles/beyondcorp.editor",
      "service": "beyondcorp",
      "method": "",
      "severity": "MEDIUM",
      "tags": [],
      "details": {
        "undocumented": true
      }
    },
    {
      "id": "2026-04-05-46417",
      "date": "2026-04-05",
      "commit": "d0c5a4951cba",
      "dimension": "role_permissions",
      "change_type": "permission_added_to_role",
      "permission": "recommender.computeInstanceGroupManagerMemoryUsagePredictionInsights.get",
      "role": "roles/recommender.admin",
      "service": "recommender",
      "method": "",
      "severity": "MEDIUM",
      "tags": [],
      "details": {
        "undocumented": true
      }
    },
    {
      "id": "2026-04-05-46418",
      "date": "2026-04-05",
      "commit": "d0c5a4951cba",
      "dimension": "role_permissions",
      "change_type": "permission_added_to_role",
      "permission": "recommender.computeInstanceGroupManagerMemoryUsagePredictionInsights.get",
      "role": "roles/recommender.editor",
      "service": "recommender",
      "method": "",
      "severity": "MEDIUM",
      "tags": [],
      "details": {
        "undocumented": true
      }
    },
    {
      "id": "2026-04-05-46419",
      "date": "2026-04-05",
      "commit": "d0c5a4951cba",
      "dimension": "role_permissions",
      "change_type": "permission_added_to_role",
      "permission": "run.services.listTagBindings",
      "role": "roles/firebase.editor",
      "service": "run",
      "method": "",
      "severity": "MEDIUM",
      "tags": [],
      "details": {
        "undocumented": true
      }
    },
    {
      "id": "2026-04-05-46420",
      "date": "2026-04-05",
      "commit": "d0c5a4951cba",
      "dimension": "role_permissions",
      "change_type": "permission_added_to_role",
      "permission": "recommender.spannerProjectReliabilityInsights.get",
      "role": "roles/recommender.admin",
      "service": "recommender",
      "method": "",
      "severity": "MEDIUM",
      "tags": [],
      "details": {
        "undocumented": true
      }
    },
    {
      "id": "2026-04-05-46421",
      "date": "2026-04-05",
      "commit": "d0c5a4951cba",
      "dimension": "role_permissions",
      "change_type": "permission_added_to_role",
      "permission": "recommender.spannerProjectReliabilityInsights.get",
      "role": "roles/recommender.editor",
      "service": "recommender",
      "method": "",
      "severity": "MEDIUM",
      "tags": [],
      "details": {
        "undocumented": true
      }
    },
    {
      "id": "2026-04-05-46422",
      "date": "2026-04-05",
      "commit": "d0c5a4951cba",
      "dimension": "role_permissions",
      "change_type": "permission_added_to_role",
      "permission": "spanner.instanceOperations.cancel",
      "role": "roles/spanner.editor",
      "service": "spanner",
      "method": "",
      "severity": "MEDIUM",
      "tags": [],
      "details": {
        "undocumented": true
      }
    },
    {
      "id": "2026-04-05-46423",
      "date": "2026-04-05",
      "commit": "d0c5a4951cba",
      "dimension": "role_permissions",
      "change_type": "permission_added_to_role",
      "permission": "accessapproval.settings.delete",
      "role": "roles/accessapproval.admin",
      "service": "accessapproval",
      "method": "",
      "severity": "HIGH",
      "tags": [],
      "details": {
        "undocumented": true
      }
    },
    {
      "id": "2026-04-05-46424",
      "date": "2026-04-05",
      "commit": "d0c5a4951cba",
      "dimension": "role_permissions",
      "change_type": "permission_added_to_role",
      "permission": "recommender.containerDiagnosisInsights.update",
      "role": "roles/recommender.admin",
      "service": "recommender",
      "method": "",
      "severity": "HIGH",
      "tags": [],
      "details": {
        "undocumented": true
      }
    },
    {
      "id": "2026-04-05-46425",
      "date": "2026-04-05",
      "commit": "d0c5a4951cba",
      "dimension": "role_permissions",
      "change_type": "permission_added_to_role",
      "permission": "recommender.containerDiagnosisInsights.update",
      "role": "roles/recommender.editor",
      "service": "recommender",
      "method": "",
      "severity": "HIGH",
      "tags": [],
      "details": {
        "undocumented": true
      }
    },
    {
      "id": "2026-04-05-46426",
      "date": "2026-04-05",
      "commit": "d0c5a4951cba",
      "dimension": "role_permissions",
      "change_type": "permission_added_to_role",
      "permission": "container.auditSinks.create",
      "role": "roles/container.editor",
      "service": "container",
      "method": "",
      "severity": "HIGH",
      "tags": [],
      "details": {
        "undocumented": true
      }
    },
    {
      "id": "2026-04-05-46427",
      "date": "2026-04-05",
      "commit": "d0c5a4951cba",
      "dimension": "role_permissions",
      "change_type": "permission_added_to_role",
      "permission": "recommender.cloudRecentChangeInsights.update",
      "role": "roles/recommender.admin",
      "service": "recommender",
      "method": "",
      "severity": "HIGH",
      "tags": [],
      "details": {
        "undocumented": true
      }
    },
    {
      "id": "2026-04-05-46428",
      "date": "2026-04-05",
      "commit": "d0c5a4951cba",
      "dimension": "role_permissions",
      "change_type": "permission_added_to_role",
      "permission": "recommender.cloudRecentChangeInsights.update",
      "role": "roles/recommender.editor",
      "service": "recommender",
      "method": "",
      "severity": "HIGH",
      "tags": [],
      "details": {
        "undocumented": true
      }
    },
    {
      "id": "2026-04-05-46429",
      "date": "2026-04-05",
      "commit": "d0c5a4951cba",
      "dimension": "role_permissions",
      "change_type": "permission_added_to_role",
      "permission": "issuerswitch.ruleMetadataValues.list",
      "role": "roles/issuerswitch.viewer",
      "service": "issuerswitch",
      "method": "",
      "severity": "MEDIUM",
      "tags": [],
      "details": {
        "undocumented": true
      }
    },
    {
      "id": "2026-04-05-46430",
      "date": "2026-04-05",
      "commit": "d0c5a4951cba",
      "dimension": "role_permissions",
      "change_type": "permission_added_to_role",
      "permission": "recommender.iamPolicyChangeRiskRecommendations.update",
      "role": "roles/recommender.admin",
      "service": "recommender",
      "method": "",
      "severity": "HIGH",
      "tags": [],
      "details": {
        "undocumented": true
      }
    },
    {
      "id": "2026-04-05-46431",
      "date": "2026-04-05",
      "commit": "d0c5a4951cba",
      "dimension": "role_permissions",
      "change_type": "permission_added_to_role",
      "permission": "recommender.iamPolicyChangeRiskRecommendations.update",
      "role": "roles/recommender.editor",
      "service": "recommender",
      "method": "",
      "severity": "HIGH",
      "tags": [],
      "details": {
        "undocumented": true
      }
    },
    {
      "id": "2026-04-05-46432",
      "date": "2026-04-05",
      "commit": "d0c5a4951cba",
      "dimension": "role_permissions",
      "change_type": "permission_added_to_role",
      "permission": "recommender.orgPolicyRecommendations.update",
      "role": "roles/recommender.admin",
      "service": "recommender",
      "method": "",
      "severity": "HIGH",
      "tags": [],
      "details": {
        "undocumented": true
      }
    },
    {
      "id": "2026-04-05-46433",
      "date": "2026-04-05",
      "commit": "d0c5a4951cba",
      "dimension": "role_permissions",
      "change_type": "permission_added_to_role",
      "permission": "recommender.orgPolicyRecommendations.update",
      "role": "roles/recommender.editor",
      "service": "recommender",
      "method": "",
      "severity": "HIGH",
      "tags": [],
      "details": {
        "undocumented": true
      }
    },
    {
      "id": "2026-04-05-46434",
      "date": "2026-04-05",
      "commit": "d0c5a4951cba",
      "dimension": "role_permissions",
      "change_type": "permission_added_to_role",
      "permission": "cloudtoolresults.executions.update",
      "role": "roles/firebase.editor",
      "service": "cloudtoolresults",
      "method": "",
      "severity": "HIGH",
      "tags": [],
      "details": {
        "undocumented": true
      }
    },
    {
      "id": "2026-04-05-46435",
      "date": "2026-04-05",
      "commit": "d0c5a4951cba",
      "dimension": "role_permissions",
      "change_type": "permission_added_to_role",
      "permission": "integrations.sfdcChannels.update",
      "role": "roles/integrations.admin",
      "service": "integrations",
      "method": "",
      "severity": "HIGH",
      "tags": [],
      "details": {
        "undocumented": true
      }
    },
    {
      "id": "2026-04-05-46436",
      "date": "2026-04-05",
      "commit": "d0c5a4951cba",
      "dimension": "role_permissions",
      "change_type": "permission_added_to_role",
      "permission": "cloudbuild.connections.list",
      "role": "roles/cloudbuild.editor",
      "service": "cloudbuild",
      "method": "",
      "severity": "MEDIUM",
      "tags": [],
      "details": {
        "undocumented": true
      }
    },
    {
      "id": "2026-04-05-46437",
      "date": "2026-04-05",
      "commit": "d0c5a4951cba",
      "dimension": "role_permissions",
      "change_type": "permission_added_to_role",
      "permission": "cloudbuild.connections.list",
      "role": "roles/cloudbuild.admin",
      "service": "cloudbuild",
      "method": "",
      "severity": "MEDIUM",
      "tags": [],
      "details": {
        "undocumented": true
      }
    },
    {
      "id": "2026-04-05-46438",
      "date": "2026-04-05",
      "commit": "d0c5a4951cba",
      "dimension": "role_permissions",
      "change_type": "permission_added_to_role",
      "permission": "cloudbuild.connections.list",
      "role": "roles/cloudbuild.viewer",
      "service": "cloudbuild",
      "method": "",
      "severity": "MEDIUM",
      "tags": [],
      "details": {
        "undocumented": true
      }
    },
    {
      "id": "2026-04-05-46439",
      "date": "2026-04-05",
      "commit": "d0c5a4951cba",
      "dimension": "role_permissions",
      "change_type": "permission_added_to_role",
      "permission": "recommender.storageBucketSoftDeleteInsights.list",
      "role": "roles/recommender.admin",
      "service": "recommender",
      "method": "",
      "severity": "MEDIUM",
      "tags": [],
      "details": {
        "undocumented": true
      }
    },
    {
      "id": "2026-04-05-46440",
      "date": "2026-04-05",
      "commit": "d0c5a4951cba",
      "dimension": "role_permissions",
      "change_type": "permission_added_to_role",
      "permission": "recommender.storageBucketSoftDeleteInsights.list",
      "role": "roles/recommender.editor",
      "service": "recommender",
      "method": "",
      "severity": "MEDIUM",
      "tags": [],
      "details": {
        "undocumented": true
      }
    },
    {
      "id": "2026-04-05-46441",
      "date": "2026-04-05",
      "commit": "d0c5a4951cba",
      "dimension": "role_permissions",
      "change_type": "permission_added_to_role",
      "permission": "analyticshub.listings.list",
      "role": "roles/analyticshub.editor",
      "service": "analyticshub",
      "method": "",
      "severity": "MEDIUM",
      "tags": [],
      "details": {
        "undocumented": true
      }
    }
  ],
  "summary": {
    "by_severity": {
      "CRITICAL": 405,
      "HIGH": 10189,
      "MEDIUM": 34709,
      "INFO": 1138
    },
    "by_dimension": {
      "methods": 1054,
      "method_map": 562,
      "predefined_roles": 715,
      "role_permissions": 44110
    },
    "new_services": []
  }
}