{
  "generated_at": "2026-06-21T16:31:35Z",
  "total_entries": 1607,
  "pages": 17,
  "page": 17,
  "page_size": 100,
  "entries": [
    {
      "id": "2026-05-31-1601",
      "date": "2026-05-31",
      "commit": "484627b4f9fb",
      "dimension": "role_permissions",
      "change_type": "permission_added_to_role",
      "permission": "netapp.storagePools.updateBackupConfig",
      "role": "roles/owner",
      "service": "netapp",
      "method": "",
      "severity": "MEDIUM",
      "tags": [],
      "details": {
        "undocumented": true
      }
    },
    {
      "id": "2026-05-31-1602",
      "date": "2026-05-31",
      "commit": "484627b4f9fb",
      "dimension": "role_permissions",
      "change_type": "permission_added_to_role",
      "permission": "resourcemanager.projects.get",
      "role": "roles/geminidataanalytics.admin",
      "service": "resourcemanager",
      "method": "",
      "severity": "MEDIUM",
      "tags": [],
      "details": {
        "undocumented": true
      }
    },
    {
      "id": "2026-05-31-1603",
      "date": "2026-05-31",
      "commit": "484627b4f9fb",
      "dimension": "role_permissions",
      "change_type": "permission_added_to_role",
      "permission": "resourcemanager.projects.get",
      "role": "roles/geminidataanalytics.viewer",
      "service": "resourcemanager",
      "method": "",
      "severity": "MEDIUM",
      "tags": [],
      "details": {
        "undocumented": true
      }
    },
    {
      "id": "2026-05-31-1604",
      "date": "2026-05-31",
      "commit": "484627b4f9fb",
      "dimension": "role_permissions",
      "change_type": "permission_added_to_role",
      "permission": "resourcemanager.projects.get",
      "role": "roles/fleetengine.viewer",
      "service": "resourcemanager",
      "method": "",
      "severity": "MEDIUM",
      "tags": [],
      "details": {
        "undocumented": true
      }
    },
    {
      "id": "2026-05-31-1605",
      "date": "2026-05-31",
      "commit": "484627b4f9fb",
      "dimension": "role_permissions",
      "change_type": "permission_added_to_role",
      "permission": "resourcemanager.projects.get",
      "role": "roles/auditmanager.viewer",
      "service": "resourcemanager",
      "method": "",
      "severity": "MEDIUM",
      "tags": [],
      "details": {
        "undocumented": true
      }
    },
    {
      "id": "2026-05-27-1606",
      "date": "2026-05-27",
      "commit": "9d97ea9727ba",
      "dimension": "methods",
      "change_type": "added",
      "permission": "",
      "role": "",
      "service": "vmwareengine",
      "method": "vmwareengine.projects.locations.privateClouds.migrateManagementVms",
      "severity": "INFO",
      "tags": [],
      "details": {
        "service": "vmwareengine"
      }
    },
    {
      "id": "2026-05-27-1607",
      "date": "2026-05-27",
      "commit": "9d97ea9727ba",
      "dimension": "method_map",
      "change_type": "unmapped_method",
      "permission": "",
      "role": "",
      "service": "vmwareengine",
      "method": "vmwareengine.projects.locations.privateClouds.migrateManagementVms",
      "severity": "INFO",
      "tags": [],
      "details": {
        "note": "New method has no permission mapping"
      }
    }
  ],
  "summary": {
    "by_severity": {
      "CRITICAL": 6,
      "HIGH": 314,
      "MEDIUM": 1127,
      "INFO": 160
    },
    "by_dimension": {
      "predefined_roles": 57,
      "role_permissions": 1323,
      "methods": 116,
      "method_map": 111
    },
    "new_services": []
  }
}