{
  "generated_at": "2026-07-20T16:29:25Z",
  "total_entries": 4104,
  "pages": 42,
  "page": 42,
  "page_size": 100,
  "entries": [
    {
      "id": "2026-06-22-4101",
      "date": "2026-06-22",
      "commit": "e615f899c9d1",
      "dimension": "role_permissions",
      "change_type": "permission_added_to_role",
      "permission": "workloadmanager.findings.create",
      "role": "roles/workloadmanager.evaluationAdmin",
      "service": "workloadmanager",
      "method": "",
      "severity": "HIGH",
      "tags": [],
      "details": {
        "undocumented": true
      }
    },
    {
      "id": "2026-06-22-4102",
      "date": "2026-06-22",
      "commit": "e615f899c9d1",
      "dimension": "role_permissions",
      "change_type": "permission_added_to_role",
      "permission": "workloadmanager.findings.create",
      "role": "roles/owner",
      "service": "workloadmanager",
      "method": "",
      "severity": "HIGH",
      "tags": [],
      "details": {
        "undocumented": true
      }
    },
    {
      "id": "2026-06-22-4103",
      "date": "2026-06-22",
      "commit": "e615f899c9d1",
      "dimension": "role_permissions",
      "change_type": "permission_added_to_role",
      "permission": "appengine.versions.update",
      "role": "roles/appengine.admin",
      "service": "appengine",
      "method": "",
      "severity": "HIGH",
      "tags": [],
      "details": {
        "undocumented": true
      }
    },
    {
      "id": "2026-06-22-4104",
      "date": "2026-06-22",
      "commit": "e615f899c9d1",
      "dimension": "role_permissions",
      "change_type": "permission_added_to_role",
      "permission": "appengine.versions.update",
      "role": "roles/appengine.editor",
      "service": "appengine",
      "method": "",
      "severity": "HIGH",
      "tags": [],
      "details": {
        "undocumented": true
      }
    }
  ],
  "summary": {
    "by_severity": {
      "CRITICAL": 16,
      "HIGH": 492,
      "MEDIUM": 3392,
      "INFO": 204
    },
    "by_dimension": {
      "role_permissions": 3804,
      "predefined_roles": 23,
      "methods": 146,
      "method_map": 131
    },
    "new_services": []
  }
}