{
  "generated_at": "2026-04-16T17:04:32Z",
  "total_entries": 51166,
  "pages": 512,
  "page": 512,
  "page_size": 100,
  "entries": [
    {
      "id": "2026-03-27-51101",
      "date": "2026-03-27",
      "commit": "3f5fa2b3f2e0",
      "dimension": "role_permissions",
      "change_type": "permission_added_to_role",
      "permission": "networkmanagement.providers.get",
      "role": "roles/viewer",
      "service": "networkmanagement",
      "method": "",
      "severity": "MEDIUM",
      "tags": [],
      "details": {
        "undocumented": true
      }
    },
    {
      "id": "2026-03-27-51102",
      "date": "2026-03-27",
      "commit": "3f5fa2b3f2e0",
      "dimension": "role_permissions",
      "change_type": "permission_added_to_role",
      "permission": "networkmanagement.providers.get",
      "role": "roles/networkmanagement.CloudNetworkInsightsViewer",
      "service": "networkmanagement",
      "method": "",
      "severity": "MEDIUM",
      "tags": [],
      "details": {
        "undocumented": true
      }
    },
    {
      "id": "2026-03-27-51103",
      "date": "2026-03-27",
      "commit": "3f5fa2b3f2e0",
      "dimension": "role_permissions",
      "change_type": "permission_added_to_role",
      "permission": "storage.objects.delete",
      "role": "roles/aiplatform.agentSandboxServiceAgent",
      "service": "storage",
      "method": "",
      "severity": "HIGH",
      "tags": [],
      "details": {
        "undocumented": true
      }
    },
    {
      "id": "2026-03-27-51104",
      "date": "2026-03-27",
      "commit": "3f5fa2b3f2e0",
      "dimension": "role_permissions",
      "change_type": "permission_added_to_role",
      "permission": "monitoring.metricDescriptors.create",
      "role": "roles/apigee.coreServiceAgent",
      "service": "monitoring",
      "method": "",
      "severity": "HIGH",
      "tags": [],
      "details": {
        "undocumented": true
      }
    },
    {
      "id": "2026-03-27-51105",
      "date": "2026-03-27",
      "commit": "3f5fa2b3f2e0",
      "dimension": "role_permissions",
      "change_type": "permission_added_to_role",
      "permission": "apigee.canaryevaluations.create",
      "role": "roles/apigee.coreServiceAgent",
      "service": "apigee",
      "method": "",
      "severity": "HIGH",
      "tags": [],
      "details": {
        "undocumented": true
      }
    },
    {
      "id": "2026-03-27-51106",
      "date": "2026-03-27",
      "commit": "3f5fa2b3f2e0",
      "dimension": "role_permissions",
      "change_type": "permission_added_to_role",
      "permission": "logging.views.list",
      "role": "roles/apigee.coreServiceAgent",
      "service": "logging",
      "method": "",
      "severity": "MEDIUM",
      "tags": [],
      "details": {
        "undocumented": true
      }
    },
    {
      "id": "2026-03-27-51107",
      "date": "2026-03-27",
      "commit": "3f5fa2b3f2e0",
      "dimension": "role_permissions",
      "change_type": "permission_added_to_role",
      "permission": "auditmanager.controlReports.list",
      "role": "roles/cloudsecuritycompliance.viewer",
      "service": "auditmanager",
      "method": "",
      "severity": "MEDIUM",
      "tags": [],
      "details": {
        "undocumented": true
      }
    },
    {
      "id": "2026-03-27-51108",
      "date": "2026-03-27",
      "commit": "3f5fa2b3f2e0",
      "dimension": "role_permissions",
      "change_type": "permission_added_to_role",
      "permission": "auditmanager.controlReports.list",
      "role": "roles/cloudhub.operator",
      "service": "auditmanager",
      "method": "",
      "severity": "MEDIUM",
      "tags": [],
      "details": {
        "undocumented": true
      }
    },
    {
      "id": "2026-03-27-51109",
      "date": "2026-03-27",
      "commit": "3f5fa2b3f2e0",
      "dimension": "role_permissions",
      "change_type": "permission_added_to_role",
      "permission": "logging.buckets.create",
      "role": "roles/apigee.coreServiceAgent",
      "service": "logging",
      "method": "",
      "severity": "HIGH",
      "tags": [],
      "details": {
        "undocumented": true
      }
    },
    {
      "id": "2026-03-27-51110",
      "date": "2026-03-27",
      "commit": "3f5fa2b3f2e0",
      "dimension": "role_permissions",
      "change_type": "permission_added_to_role",
      "permission": "apihub.hostProjectRegistrations.get",
      "role": "roles/apigee.coreServiceAgent",
      "service": "apihub",
      "method": "",
      "severity": "MEDIUM",
      "tags": [],
      "details": {
        "undocumented": true
      }
    },
    {
      "id": "2026-03-27-51111",
      "date": "2026-03-27",
      "commit": "3f5fa2b3f2e0",
      "dimension": "role_permissions",
      "change_type": "permission_added_to_role",
      "permission": "cloudtrace.traces.patch",
      "role": "roles/apigee.coreServiceAgent",
      "service": "cloudtrace",
      "method": "",
      "severity": "HIGH",
      "tags": [],
      "details": {
        "undocumented": true
      }
    },
    {
      "id": "2026-03-27-51112",
      "date": "2026-03-27",
      "commit": "3f5fa2b3f2e0",
      "dimension": "role_permissions",
      "change_type": "permission_added_to_role",
      "permission": "apihub.operations.delete",
      "role": "roles/apigee.coreServiceAgent",
      "service": "apihub",
      "method": "",
      "severity": "HIGH",
      "tags": [],
      "details": {
        "undocumented": true
      }
    },
    {
      "id": "2026-03-27-51113",
      "date": "2026-03-27",
      "commit": "3f5fa2b3f2e0",
      "dimension": "role_permissions",
      "change_type": "permission_added_to_role",
      "permission": "dataplex.entryGroups.useSchemaJoinAspect",
      "role": "roles/dataplex.catalogEditor",
      "service": "dataplex",
      "method": "",
      "severity": "MEDIUM",
      "tags": [],
      "details": {
        "undocumented": true
      }
    },
    {
      "id": "2026-03-27-51114",
      "date": "2026-03-27",
      "commit": "3f5fa2b3f2e0",
      "dimension": "role_permissions",
      "change_type": "permission_added_to_role",
      "permission": "dataplex.entryGroups.useSchemaJoinAspect",
      "role": "roles/datacatalog.admin",
      "service": "dataplex",
      "method": "",
      "severity": "MEDIUM",
      "tags": [],
      "details": {
        "undocumented": true
      }
    },
    {
      "id": "2026-03-27-51115",
      "date": "2026-03-27",
      "commit": "3f5fa2b3f2e0",
      "dimension": "role_permissions",
      "change_type": "permission_added_to_role",
      "permission": "databaseinsights.dbPerformance.query",
      "role": "roles/viewer",
      "service": "databaseinsights",
      "method": "",
      "severity": "MEDIUM",
      "tags": [],
      "details": {
        "undocumented": true
      }
    },
    {
      "id": "2026-03-27-51116",
      "date": "2026-03-27",
      "commit": "3f5fa2b3f2e0",
      "dimension": "role_permissions",
      "change_type": "permission_added_to_role",
      "permission": "config.deploymentgroups.delete",
      "role": "roles/config.admin",
      "service": "config",
      "method": "",
      "severity": "HIGH",
      "tags": [],
      "details": {
        "undocumented": true
      }
    },
    {
      "id": "2026-03-27-51117",
      "date": "2026-03-27",
      "commit": "3f5fa2b3f2e0",
      "dimension": "role_permissions",
      "change_type": "permission_added_to_role",
      "permission": "apigee.developers.get",
      "role": "roles/apigee.coreServiceAgent",
      "service": "apigee",
      "method": "",
      "severity": "MEDIUM",
      "tags": [],
      "details": {
        "undocumented": true
      }
    },
    {
      "id": "2026-03-27-51118",
      "date": "2026-03-27",
      "commit": "3f5fa2b3f2e0",
      "dimension": "role_permissions",
      "change_type": "permission_added_to_role",
      "permission": "apihub.runTimeProjectAttachments.lookup",
      "role": "roles/apigee.coreServiceAgent",
      "service": "apihub",
      "method": "",
      "severity": "MEDIUM",
      "tags": [],
      "details": {
        "undocumented": true
      }
    },
    {
      "id": "2026-03-27-51119",
      "date": "2026-03-27",
      "commit": "3f5fa2b3f2e0",
      "dimension": "role_permissions",
      "change_type": "permission_added_to_role",
      "permission": "monitoring.monitoredResourceDescriptors.list",
      "role": "roles/apigee.coreServiceAgent",
      "service": "monitoring",
      "method": "",
      "severity": "MEDIUM",
      "tags": [],
      "details": {
        "undocumented": true
      }
    },
    {
      "id": "2026-03-27-51120",
      "date": "2026-03-27",
      "commit": "3f5fa2b3f2e0",
      "dimension": "role_permissions",
      "change_type": "permission_added_to_role",
      "permission": "apihub.deployments.list",
      "role": "roles/apigee.coreServiceAgent",
      "service": "apihub",
      "method": "",
      "severity": "MEDIUM",
      "tags": [],
      "details": {
        "undocumented": true
      }
    },
    {
      "id": "2026-03-27-51121",
      "date": "2026-03-27",
      "commit": "3f5fa2b3f2e0",
      "dimension": "role_permissions",
      "change_type": "permission_added_to_role",
      "permission": "apihub.plugininstances.delete",
      "role": "roles/apigee.coreServiceAgent",
      "service": "apihub",
      "method": "",
      "severity": "HIGH",
      "tags": [],
      "details": {
        "undocumented": true
      }
    },
    {
      "id": "2026-03-27-51122",
      "date": "2026-03-27",
      "commit": "3f5fa2b3f2e0",
      "dimension": "role_permissions",
      "change_type": "permission_added_to_role",
      "permission": "resourcemanager.projects.get",
      "role": "roles/roads.roadsSelectionAdmin",
      "service": "resourcemanager",
      "method": "",
      "severity": "MEDIUM",
      "tags": [],
      "details": {
        "undocumented": true
      }
    },
    {
      "id": "2026-03-27-51123",
      "date": "2026-03-27",
      "commit": "3f5fa2b3f2e0",
      "dimension": "role_permissions",
      "change_type": "permission_added_to_role",
      "permission": "resourcemanager.projects.get",
      "role": "roles/networkmanagement.CloudNetworkInsightsEditor",
      "service": "resourcemanager",
      "method": "",
      "severity": "MEDIUM",
      "tags": [],
      "details": {
        "undocumented": true
      }
    },
    {
      "id": "2026-03-27-51124",
      "date": "2026-03-27",
      "commit": "3f5fa2b3f2e0",
      "dimension": "role_permissions",
      "change_type": "permission_added_to_role",
      "permission": "resourcemanager.projects.get",
      "role": "roles/networkmanagement.CloudNetworkInsightsViewer",
      "service": "resourcemanager",
      "method": "",
      "severity": "MEDIUM",
      "tags": [],
      "details": {
        "undocumented": true
      }
    },
    {
      "id": "2026-03-27-51125",
      "date": "2026-03-27",
      "commit": "3f5fa2b3f2e0",
      "dimension": "role_permissions",
      "change_type": "permission_added_to_role",
      "permission": "resourcemanager.projects.get",
      "role": "roles/networkmanagement.CloudNetworkInsightsAdmin",
      "service": "resourcemanager",
      "method": "",
      "severity": "MEDIUM",
      "tags": [],
      "details": {
        "undocumented": true
      }
    },
    {
      "id": "2026-03-27-51126",
      "date": "2026-03-27",
      "commit": "3f5fa2b3f2e0",
      "dimension": "role_permissions",
      "change_type": "permission_added_to_role",
      "permission": "resourcemanager.projects.get",
      "role": "roles/roads.roadsSelectionViewer",
      "service": "resourcemanager",
      "method": "",
      "severity": "MEDIUM",
      "tags": [],
      "details": {
        "undocumented": true
      }
    },
    {
      "id": "2026-03-27-51127",
      "date": "2026-03-27",
      "commit": "3f5fa2b3f2e0",
      "dimension": "role_permissions",
      "change_type": "permission_added_to_role",
      "permission": "apigee.runtimeconfigs.get",
      "role": "roles/apigee.coreServiceAgent",
      "service": "apigee",
      "method": "",
      "severity": "MEDIUM",
      "tags": [],
      "details": {
        "undocumented": true
      }
    },
    {
      "id": "2026-03-27-51128",
      "date": "2026-03-27",
      "commit": "3f5fa2b3f2e0",
      "dimension": "role_permissions",
      "change_type": "permission_added_to_role",
      "permission": "apptopology.locations.get",
      "role": "roles/iam.siteReliabilityEngineer",
      "service": "apptopology",
      "method": "",
      "severity": "MEDIUM",
      "tags": [],
      "details": {
        "undocumented": true
      }
    },
    {
      "id": "2026-03-27-51129",
      "date": "2026-03-27",
      "commit": "3f5fa2b3f2e0",
      "dimension": "role_permissions",
      "change_type": "permission_added_to_role",
      "permission": "apptopology.locations.get",
      "role": "roles/cloudhub.operator",
      "service": "apptopology",
      "method": "",
      "severity": "MEDIUM",
      "tags": [],
      "details": {
        "undocumented": true
      }
    },
    {
      "id": "2026-03-27-51130",
      "date": "2026-03-27",
      "commit": "3f5fa2b3f2e0",
      "dimension": "role_permissions",
      "change_type": "permission_added_to_role",
      "permission": "config.deploymentgroups.deprovision",
      "role": "roles/config.admin",
      "service": "config",
      "method": "",
      "severity": "MEDIUM",
      "tags": [],
      "details": {
        "undocumented": true
      }
    },
    {
      "id": "2026-03-27-51131",
      "date": "2026-03-27",
      "commit": "3f5fa2b3f2e0",
      "dimension": "role_permissions",
      "change_type": "permission_added_to_role",
      "permission": "logging.views.get",
      "role": "roles/apigee.coreServiceAgent",
      "service": "logging",
      "method": "",
      "severity": "MEDIUM",
      "tags": [],
      "details": {
        "undocumented": true
      }
    },
    {
      "id": "2026-03-27-51132",
      "date": "2026-03-27",
      "commit": "3f5fa2b3f2e0",
      "dimension": "role_permissions",
      "change_type": "permission_added_to_role",
      "permission": "apigee.appkeys.create",
      "role": "roles/apigee.coreServiceAgent",
      "service": "apigee",
      "method": "",
      "severity": "HIGH",
      "tags": [],
      "details": {
        "undocumented": true
      }
    },
    {
      "id": "2026-03-27-51133",
      "date": "2026-03-27",
      "commit": "3f5fa2b3f2e0",
      "dimension": "role_permissions",
      "change_type": "permission_added_to_role",
      "permission": "config.deploymentgroups.list",
      "role": "roles/designcenter.admin",
      "service": "config",
      "method": "",
      "severity": "MEDIUM",
      "tags": [],
      "details": {
        "undocumented": true
      }
    },
    {
      "id": "2026-03-27-51134",
      "date": "2026-03-27",
      "commit": "3f5fa2b3f2e0",
      "dimension": "role_permissions",
      "change_type": "permission_added_to_role",
      "permission": "config.deploymentgroups.list",
      "role": "roles/designcenter.applicationAdmin",
      "service": "config",
      "method": "",
      "severity": "MEDIUM",
      "tags": [],
      "details": {
        "undocumented": true
      }
    },
    {
      "id": "2026-03-27-51135",
      "date": "2026-03-27",
      "commit": "3f5fa2b3f2e0",
      "dimension": "role_permissions",
      "change_type": "permission_added_to_role",
      "permission": "config.deploymentgroups.list",
      "role": "roles/viewer",
      "service": "config",
      "method": "",
      "severity": "MEDIUM",
      "tags": [],
      "details": {
        "undocumented": true
      }
    },
    {
      "id": "2026-03-27-51136",
      "date": "2026-03-27",
      "commit": "3f5fa2b3f2e0",
      "dimension": "role_permissions",
      "change_type": "permission_added_to_role",
      "permission": "config.deploymentgroups.list",
      "role": "roles/cloudhub.operator",
      "service": "config",
      "method": "",
      "severity": "MEDIUM",
      "tags": [],
      "details": {
        "undocumented": true
      }
    },
    {
      "id": "2026-03-27-51137",
      "date": "2026-03-27",
      "commit": "3f5fa2b3f2e0",
      "dimension": "role_permissions",
      "change_type": "permission_added_to_role",
      "permission": "config.deploymentgroups.list",
      "role": "roles/iam.securityReviewer",
      "service": "config",
      "method": "",
      "severity": "MEDIUM",
      "tags": [],
      "details": {
        "undocumented": true
      }
    },
    {
      "id": "2026-03-27-51138",
      "date": "2026-03-27",
      "commit": "3f5fa2b3f2e0",
      "dimension": "role_permissions",
      "change_type": "permission_added_to_role",
      "permission": "config.deploymentgroups.list",
      "role": "roles/iam.securityAdmin",
      "service": "config",
      "method": "",
      "severity": "MEDIUM",
      "tags": [],
      "details": {
        "undocumented": true
      }
    },
    {
      "id": "2026-03-27-51139",
      "date": "2026-03-27",
      "commit": "3f5fa2b3f2e0",
      "dimension": "role_permissions",
      "change_type": "permission_added_to_role",
      "permission": "config.deploymentgroups.list",
      "role": "roles/config.admin",
      "service": "config",
      "method": "",
      "severity": "MEDIUM",
      "tags": [],
      "details": {
        "undocumented": true
      }
    },
    {
      "id": "2026-03-27-51140",
      "date": "2026-03-27",
      "commit": "3f5fa2b3f2e0",
      "dimension": "role_permissions",
      "change_type": "permission_added_to_role",
      "permission": "apigee.developerapps.manage",
      "role": "roles/apigee.coreServiceAgent",
      "service": "apigee",
      "method": "",
      "severity": "MEDIUM",
      "tags": [],
      "details": {
        "undocumented": true
      }
    },
    {
      "id": "2026-03-27-51141",
      "date": "2026-03-27",
      "commit": "3f5fa2b3f2e0",
      "dimension": "role_permissions",
      "change_type": "permission_added_to_role",
      "permission": "networkmanagement.webpaths.get",
      "role": "roles/viewer",
      "service": "networkmanagement",
      "method": "",
      "severity": "MEDIUM",
      "tags": [],
      "details": {
        "undocumented": true
      }
    },
    {
      "id": "2026-03-27-51142",
      "date": "2026-03-27",
      "commit": "3f5fa2b3f2e0",
      "dimension": "role_permissions",
      "change_type": "permission_added_to_role",
      "permission": "networkmanagement.webpaths.get",
      "role": "roles/networkmanagement.CloudNetworkInsightsViewer",
      "service": "networkmanagement",
      "method": "",
      "severity": "MEDIUM",
      "tags": [],
      "details": {
        "undocumented": true
      }
    },
    {
      "id": "2026-03-27-51143",
      "date": "2026-03-27",
      "commit": "3f5fa2b3f2e0",
      "dimension": "role_permissions",
      "change_type": "permission_added_to_role",
      "permission": "auditmanager.billingSettings.get",
      "role": "roles/cloudsecuritycompliance.viewer",
      "service": "auditmanager",
      "method": "",
      "severity": "MEDIUM",
      "tags": [],
      "details": {
        "undocumented": true
      }
    },
    {
      "id": "2026-03-27-51144",
      "date": "2026-03-27",
      "commit": "3f5fa2b3f2e0",
      "dimension": "role_permissions",
      "change_type": "permission_added_to_role",
      "permission": "auditmanager.billingSettings.get",
      "role": "roles/cloudhub.operator",
      "service": "auditmanager",
      "method": "",
      "severity": "MEDIUM",
      "tags": [],
      "details": {
        "undocumented": true
      }
    },
    {
      "id": "2026-03-27-51145",
      "date": "2026-03-27",
      "commit": "3f5fa2b3f2e0",
      "dimension": "role_permissions",
      "change_type": "permission_added_to_role",
      "permission": "config.deploymentgroups.provision",
      "role": "roles/config.admin",
      "service": "config",
      "method": "",
      "severity": "MEDIUM",
      "tags": [],
      "details": {
        "undocumented": true
      }
    },
    {
      "id": "2026-03-27-51146",
      "date": "2026-03-27",
      "commit": "3f5fa2b3f2e0",
      "dimension": "role_permissions",
      "change_type": "permission_added_to_role",
      "permission": "apigee.developerapps.list",
      "role": "roles/apigee.coreServiceAgent",
      "service": "apigee",
      "method": "",
      "severity": "MEDIUM",
      "tags": [],
      "details": {
        "undocumented": true
      }
    },
    {
      "id": "2026-03-27-51147",
      "date": "2026-03-27",
      "commit": "3f5fa2b3f2e0",
      "dimension": "role_permissions",
      "change_type": "permission_added_to_role",
      "permission": "apihub.plugininstances.list",
      "role": "roles/apigee.coreServiceAgent",
      "service": "apihub",
      "method": "",
      "severity": "MEDIUM",
      "tags": [],
      "details": {
        "undocumented": true
      }
    },
    {
      "id": "2026-03-27-51148",
      "date": "2026-03-27",
      "commit": "3f5fa2b3f2e0",
      "dimension": "role_permissions",
      "change_type": "permission_added_to_role",
      "permission": "apihub.hostProjectRegistrations.delete",
      "role": "roles/apigee.coreServiceAgent",
      "service": "apihub",
      "method": "",
      "severity": "HIGH",
      "tags": [],
      "details": {
        "undocumented": true
      }
    },
    {
      "id": "2026-03-27-51149",
      "date": "2026-03-27",
      "commit": "3f5fa2b3f2e0",
      "dimension": "role_permissions",
      "change_type": "permission_added_to_role",
      "permission": "apihub.runTimeProjectAttachments.attach",
      "role": "roles/apigee.coreServiceAgent",
      "service": "apihub",
      "method": "",
      "severity": "MEDIUM",
      "tags": [],
      "details": {
        "undocumented": true
      }
    },
    {
      "id": "2026-03-27-51150",
      "date": "2026-03-27",
      "commit": "3f5fa2b3f2e0",
      "dimension": "role_permissions",
      "change_type": "permission_added_to_role",
      "permission": "geminidataanalytics.locations.useDataEngineeringAgent",
      "role": "roles/viewer",
      "service": "geminidataanalytics",
      "method": "",
      "severity": "MEDIUM",
      "tags": [],
      "details": {
        "undocumented": true
      }
    },
    {
      "id": "2026-03-27-51151",
      "date": "2026-03-27",
      "commit": "3f5fa2b3f2e0",
      "dimension": "role_permissions",
      "change_type": "permission_added_to_role",
      "permission": "geminidataanalytics.locations.useDataEngineeringAgent",
      "role": "roles/bigquery.studioUser",
      "service": "geminidataanalytics",
      "method": "",
      "severity": "MEDIUM",
      "tags": [],
      "details": {
        "undocumented": true
      }
    },
    {
      "id": "2026-03-27-51152",
      "date": "2026-03-27",
      "commit": "3f5fa2b3f2e0",
      "dimension": "role_permissions",
      "change_type": "permission_added_to_role",
      "permission": "logging.logEntries.create",
      "role": "roles/apigee.coreServiceAgent",
      "service": "logging",
      "method": "",
      "severity": "HIGH",
      "tags": [],
      "details": {
        "undocumented": true
      }
    },
    {
      "id": "2026-03-27-51153",
      "date": "2026-03-27",
      "commit": "3f5fa2b3f2e0",
      "dimension": "role_permissions",
      "change_type": "permission_added_to_role",
      "permission": "logging.logEntries.create",
      "role": "roles/aiplatform.agentSandboxServiceAgent",
      "service": "logging",
      "method": "",
      "severity": "HIGH",
      "tags": [],
      "details": {
        "undocumented": true
      }
    },
    {
      "id": "2026-03-24-51154",
      "date": "2026-03-24",
      "commit": "751fcf4b854d",
      "dimension": "methods",
      "change_type": "added",
      "permission": "",
      "role": "",
      "service": "developerconnect",
      "method": "developerconnect.projects.locations.accountConnectors.fetchUserRepositories",
      "severity": "INFO",
      "tags": [],
      "details": {
        "service": "developerconnect"
      }
    },
    {
      "id": "2026-03-24-51155",
      "date": "2026-03-24",
      "commit": "751fcf4b854d",
      "dimension": "methods",
      "change_type": "removed",
      "permission": "",
      "role": "",
      "service": "discoveryengine",
      "method": "discoveryengine.projects.locations.userStores.delete",
      "severity": "HIGH",
      "tags": [],
      "details": {
        "service": "discoveryengine"
      }
    },
    {
      "id": "2026-03-24-51156",
      "date": "2026-03-24",
      "commit": "751fcf4b854d",
      "dimension": "methods",
      "change_type": "removed",
      "permission": "",
      "role": "",
      "service": "discoveryengine",
      "method": "discoveryengine.projects.locations.userStores.create",
      "severity": "HIGH",
      "tags": [],
      "details": {
        "service": "discoveryengine"
      }
    },
    {
      "id": "2026-03-24-51157",
      "date": "2026-03-24",
      "commit": "751fcf4b854d",
      "dimension": "methods",
      "change_type": "added",
      "permission": "",
      "role": "",
      "service": "meet",
      "method": "meet.conferenceRecords.smartNotes.list",
      "severity": "INFO",
      "tags": [],
      "details": {
        "service": "meet"
      }
    },
    {
      "id": "2026-03-24-51158",
      "date": "2026-03-24",
      "commit": "751fcf4b854d",
      "dimension": "methods",
      "change_type": "added",
      "permission": "",
      "role": "",
      "service": "meet",
      "method": "meet.conferenceRecords.smartNotes.get",
      "severity": "INFO",
      "tags": [],
      "details": {
        "service": "meet"
      }
    },
    {
      "id": "2026-03-24-51159",
      "date": "2026-03-24",
      "commit": "751fcf4b854d",
      "dimension": "methods",
      "change_type": "added",
      "permission": "",
      "role": "",
      "service": "appengine",
      "method": "appengine.projects.locations.applications.services.versions.exportAppImage",
      "severity": "INFO",
      "tags": [],
      "details": {
        "service": "appengine"
      }
    },
    {
      "id": "2026-03-24-51160",
      "date": "2026-03-24",
      "commit": "751fcf4b854d",
      "dimension": "methods",
      "change_type": "added",
      "permission": "",
      "role": "",
      "service": "appengine",
      "method": "appengine.apps.services.versions.exportAppImage",
      "severity": "INFO",
      "tags": [],
      "details": {
        "service": "appengine"
      }
    },
    {
      "id": "2026-03-24-51161",
      "date": "2026-03-24",
      "commit": "751fcf4b854d",
      "dimension": "methods",
      "change_type": "removed",
      "permission": "",
      "role": "",
      "service": "iam",
      "method": "iam.locations.workforcePools.providers.scimTenants.tokens.undelete",
      "severity": "INFO",
      "tags": [],
      "details": {
        "service": "iam"
      }
    },
    {
      "id": "2026-03-24-51162",
      "date": "2026-03-24",
      "commit": "751fcf4b854d",
      "dimension": "method_map",
      "change_type": "unmapped_method",
      "permission": "",
      "role": "",
      "service": "appengine",
      "method": "appengine.projects.locations.applications.services.versions.exportAppImage",
      "severity": "INFO",
      "tags": [],
      "details": {
        "note": "New method has no permission mapping"
      }
    },
    {
      "id": "2026-03-24-51163",
      "date": "2026-03-24",
      "commit": "751fcf4b854d",
      "dimension": "method_map",
      "change_type": "unmapped_method",
      "permission": "",
      "role": "",
      "service": "appengine",
      "method": "appengine.apps.services.versions.exportAppImage",
      "severity": "INFO",
      "tags": [],
      "details": {
        "note": "New method has no permission mapping"
      }
    },
    {
      "id": "2026-03-24-51164",
      "date": "2026-03-24",
      "commit": "751fcf4b854d",
      "dimension": "method_map",
      "change_type": "unmapped_method",
      "permission": "",
      "role": "",
      "service": "developerconnect",
      "method": "developerconnect.projects.locations.accountConnectors.fetchUserRepositories",
      "severity": "INFO",
      "tags": [],
      "details": {
        "note": "New method has no permission mapping"
      }
    },
    {
      "id": "2026-03-24-51165",
      "date": "2026-03-24",
      "commit": "751fcf4b854d",
      "dimension": "method_map",
      "change_type": "unmapped_method",
      "permission": "",
      "role": "",
      "service": "meet",
      "method": "meet.conferenceRecords.smartNotes.list",
      "severity": "INFO",
      "tags": [],
      "details": {
        "note": "New method has no permission mapping"
      }
    },
    {
      "id": "2026-03-24-51166",
      "date": "2026-03-24",
      "commit": "751fcf4b854d",
      "dimension": "method_map",
      "change_type": "unmapped_method",
      "permission": "",
      "role": "",
      "service": "meet",
      "method": "meet.conferenceRecords.smartNotes.get",
      "severity": "INFO",
      "tags": [],
      "details": {
        "note": "New method has no permission mapping"
      }
    }
  ],
  "summary": {
    "by_severity": {
      "CRITICAL": 433,
      "HIGH": 11224,
      "MEDIUM": 38278,
      "INFO": 1231
    },
    "by_dimension": {
      "predefined_roles": 772,
      "role_permissions": 48656,
      "methods": 1125,
      "method_map": 613
    },
    "new_services": []
  }
}