{
  "generated_at": "2026-05-06T17:23:06Z",
  "total_entries": 41234,
  "pages": 413,
  "page": 413,
  "page_size": 100,
  "entries": [
    {
      "id": "2026-04-08-41201",
      "date": "2026-04-08",
      "commit": "d187ff9d3f4c",
      "dimension": "method_map",
      "change_type": "unmapped_method",
      "permission": "",
      "role": "",
      "service": "networkconnectivity",
      "method": "networkconnectivity.projects.locations.serviceConnectionPolicies.getIamPolicy",
      "severity": "INFO",
      "tags": [],
      "details": {
        "note": "New method has no permission mapping"
      }
    },
    {
      "id": "2026-04-08-41202",
      "date": "2026-04-08",
      "commit": "d187ff9d3f4c",
      "dimension": "method_map",
      "change_type": "unmapped_method",
      "permission": "",
      "role": "",
      "service": "discoveryengine",
      "method": "discoveryengine.projects.locations.notebooks.sources.uploadFile",
      "severity": "INFO",
      "tags": [],
      "details": {
        "note": "New method has no permission mapping"
      }
    },
    {
      "id": "2026-04-08-41203",
      "date": "2026-04-08",
      "commit": "d187ff9d3f4c",
      "dimension": "method_map",
      "change_type": "unmapped_method",
      "permission": "",
      "role": "",
      "service": "discoveryengine",
      "method": "discoveryengine.projects.locations.userStores.create",
      "severity": "HIGH",
      "tags": [],
      "details": {
        "note": "New method has no permission mapping"
      }
    },
    {
      "id": "2026-04-08-41204",
      "date": "2026-04-08",
      "commit": "d187ff9d3f4c",
      "dimension": "method_map",
      "change_type": "unmapped_method",
      "permission": "",
      "role": "",
      "service": "networkconnectivity",
      "method": "networkconnectivity.projects.locations.serviceConnectionPolicies.setIamPolicy",
      "severity": "CRITICAL",
      "tags": [],
      "details": {
        "note": "New method has no permission mapping"
      }
    },
    {
      "id": "2026-04-08-41205",
      "date": "2026-04-08",
      "commit": "d187ff9d3f4c",
      "dimension": "method_map",
      "change_type": "unmapped_method",
      "permission": "",
      "role": "",
      "service": "discoveryengine",
      "method": "discoveryengine.projects.locations.getConfigurablePricingUsageStats",
      "severity": "INFO",
      "tags": [],
      "details": {
        "note": "New method has no permission mapping"
      }
    },
    {
      "id": "2026-04-08-41206",
      "date": "2026-04-08",
      "commit": "d187ff9d3f4c",
      "dimension": "method_map",
      "change_type": "unmapped_method",
      "permission": "",
      "role": "",
      "service": "displayvideo",
      "method": "displayvideo.advertisers.insertionOrders.targetingTypes.assignedTargetingOptions.create",
      "severity": "HIGH",
      "tags": [],
      "details": {
        "note": "New method has no permission mapping"
      }
    },
    {
      "id": "2026-04-08-41207",
      "date": "2026-04-08",
      "commit": "d187ff9d3f4c",
      "dimension": "method_map",
      "change_type": "unmapped_method",
      "permission": "",
      "role": "",
      "service": "discoveryengine",
      "method": "discoveryengine.media.upload",
      "severity": "INFO",
      "tags": [],
      "details": {
        "note": "New method has no permission mapping"
      }
    },
    {
      "id": "2026-04-08-41208",
      "date": "2026-04-08",
      "commit": "d187ff9d3f4c",
      "dimension": "method_map",
      "change_type": "unmapped_method",
      "permission": "",
      "role": "",
      "service": "dataplex",
      "method": "dataplex.projects.locations.dataProducts.dataAssets.testIamPermissions",
      "severity": "INFO",
      "tags": [],
      "details": {
        "note": "New method has no permission mapping"
      }
    },
    {
      "id": "2026-04-08-41209",
      "date": "2026-04-08",
      "commit": "d187ff9d3f4c",
      "dimension": "method_map",
      "change_type": "unmapped_method",
      "permission": "",
      "role": "",
      "service": "dataplex",
      "method": "dataplex.projects.locations.lakes.contentitems.getIamPolicy",
      "severity": "INFO",
      "tags": [],
      "details": {
        "note": "New method has no permission mapping"
      }
    },
    {
      "id": "2026-04-08-41210",
      "date": "2026-04-08",
      "commit": "d187ff9d3f4c",
      "dimension": "method_map",
      "change_type": "unmapped_method",
      "permission": "",
      "role": "",
      "service": "dataplex",
      "method": "dataplex.projects.locations.lakes.environments.create",
      "severity": "HIGH",
      "tags": [],
      "details": {
        "note": "New method has no permission mapping"
      }
    },
    {
      "id": "2026-04-08-41211",
      "date": "2026-04-08",
      "commit": "d187ff9d3f4c",
      "dimension": "method_map",
      "change_type": "unmapped_method",
      "permission": "",
      "role": "",
      "service": "content",
      "method": "content.returnaddress.list",
      "severity": "INFO",
      "tags": [],
      "details": {
        "note": "New method has no permission mapping"
      }
    },
    {
      "id": "2026-04-08-41212",
      "date": "2026-04-08",
      "commit": "d187ff9d3f4c",
      "dimension": "method_map",
      "change_type": "unmapped_method",
      "permission": "",
      "role": "",
      "service": "networkconnectivity",
      "method": "networkconnectivity.projects.locations.serviceConnectionMaps.testIamPermissions",
      "severity": "INFO",
      "tags": [],
      "details": {
        "note": "New method has no permission mapping"
      }
    },
    {
      "id": "2026-04-08-41213",
      "date": "2026-04-08",
      "commit": "d187ff9d3f4c",
      "dimension": "method_map",
      "change_type": "unmapped_method",
      "permission": "",
      "role": "",
      "service": "networkconnectivity",
      "method": "networkconnectivity.projects.locations.serviceClasses.setIamPolicy",
      "severity": "CRITICAL",
      "tags": [],
      "details": {
        "note": "New method has no permission mapping"
      }
    },
    {
      "id": "2026-04-08-41214",
      "date": "2026-04-08",
      "commit": "d187ff9d3f4c",
      "dimension": "method_map",
      "change_type": "unmapped_method",
      "permission": "",
      "role": "",
      "service": "dataplex",
      "method": "dataplex.projects.locations.lakes.contentitems.delete",
      "severity": "HIGH",
      "tags": [],
      "details": {
        "note": "New method has no permission mapping"
      }
    },
    {
      "id": "2026-04-08-41215",
      "date": "2026-04-08",
      "commit": "d187ff9d3f4c",
      "dimension": "method_map",
      "change_type": "unmapped_method",
      "permission": "",
      "role": "",
      "service": "beyondcorp",
      "method": "beyondcorp.organizations.locations.global.partnerTenants.get",
      "severity": "INFO",
      "tags": [],
      "details": {
        "note": "New method has no permission mapping"
      }
    },
    {
      "id": "2026-04-08-41216",
      "date": "2026-04-08",
      "commit": "d187ff9d3f4c",
      "dimension": "method_map",
      "change_type": "unmapped_method",
      "permission": "",
      "role": "",
      "service": "networkmanagement",
      "method": "networkmanagement.organizations.locations.operations.delete",
      "severity": "HIGH",
      "tags": [],
      "details": {
        "note": "New method has no permission mapping"
      }
    },
    {
      "id": "2026-04-08-41217",
      "date": "2026-04-08",
      "commit": "d187ff9d3f4c",
      "dimension": "method_map",
      "change_type": "unmapped_method",
      "permission": "",
      "role": "",
      "service": "displayvideo",
      "method": "displayvideo.advertisers.insertionOrders.targetingTypes.assignedTargetingOptions.delete",
      "severity": "HIGH",
      "tags": [],
      "details": {
        "note": "New method has no permission mapping"
      }
    },
    {
      "id": "2026-04-08-41218",
      "date": "2026-04-08",
      "commit": "d187ff9d3f4c",
      "dimension": "method_map",
      "change_type": "unmapped_method",
      "permission": "",
      "role": "",
      "service": "dataplex",
      "method": "dataplex.projects.locations.lakes.contentitems.patch",
      "severity": "HIGH",
      "tags": [],
      "details": {
        "note": "New method has no permission mapping"
      }
    },
    {
      "id": "2026-04-08-41219",
      "date": "2026-04-08",
      "commit": "d187ff9d3f4c",
      "dimension": "method_map",
      "change_type": "unmapped_method",
      "permission": "",
      "role": "",
      "service": "dataplex",
      "method": "dataplex.projects.locations.lakes.environments.patch",
      "severity": "HIGH",
      "tags": [],
      "details": {
        "note": "New method has no permission mapping"
      }
    },
    {
      "id": "2026-04-08-41220",
      "date": "2026-04-08",
      "commit": "d187ff9d3f4c",
      "dimension": "method_map",
      "change_type": "unmapped_method",
      "permission": "",
      "role": "",
      "service": "dataplex",
      "method": "dataplex.projects.locations.lakes.content.create",
      "severity": "HIGH",
      "tags": [],
      "details": {
        "note": "New method has no permission mapping"
      }
    },
    {
      "id": "2026-04-08-41221",
      "date": "2026-04-08",
      "commit": "d187ff9d3f4c",
      "dimension": "method_map",
      "change_type": "unmapped_method",
      "permission": "",
      "role": "",
      "service": "beyondcorp",
      "method": "beyondcorp.organizations.locations.global.partnerTenants.list",
      "severity": "INFO",
      "tags": [],
      "details": {
        "note": "New method has no permission mapping"
      }
    },
    {
      "id": "2026-04-08-41222",
      "date": "2026-04-08",
      "commit": "d187ff9d3f4c",
      "dimension": "method_map",
      "change_type": "unmapped_method",
      "permission": "",
      "role": "",
      "service": "networkconnectivity",
      "method": "networkconnectivity.projects.locations.serviceConnectionMaps.setIamPolicy",
      "severity": "CRITICAL",
      "tags": [],
      "details": {
        "note": "New method has no permission mapping"
      }
    },
    {
      "id": "2026-04-08-41223",
      "date": "2026-04-08",
      "commit": "d187ff9d3f4c",
      "dimension": "method_map",
      "change_type": "unmapped_method",
      "permission": "",
      "role": "",
      "service": "content",
      "method": "content.returnaddress.insert",
      "severity": "HIGH",
      "tags": [],
      "details": {
        "note": "New method has no permission mapping"
      }
    },
    {
      "id": "2026-04-08-41224",
      "date": "2026-04-08",
      "commit": "d187ff9d3f4c",
      "dimension": "method_map",
      "change_type": "unmapped_method",
      "permission": "",
      "role": "",
      "service": "dataplex",
      "method": "dataplex.projects.locations.lakes.content.setIamPolicy",
      "severity": "CRITICAL",
      "tags": [],
      "details": {
        "note": "New method has no permission mapping"
      }
    },
    {
      "id": "2026-04-08-41225",
      "date": "2026-04-08",
      "commit": "d187ff9d3f4c",
      "dimension": "method_map",
      "change_type": "unmapped_method",
      "permission": "",
      "role": "",
      "service": "dataplex",
      "method": "dataplex.projects.locations.lakes.content.patch",
      "severity": "HIGH",
      "tags": [],
      "details": {
        "note": "New method has no permission mapping"
      }
    },
    {
      "id": "2026-04-08-41226",
      "date": "2026-04-08",
      "commit": "d187ff9d3f4c",
      "dimension": "method_map",
      "change_type": "unmapped_method",
      "permission": "",
      "role": "",
      "service": "displayvideo",
      "method": "displayvideo.advertisers.campaigns.targetingTypes.assignedTargetingOptions.get",
      "severity": "INFO",
      "tags": [],
      "details": {
        "note": "New method has no permission mapping"
      }
    },
    {
      "id": "2026-04-08-41227",
      "date": "2026-04-08",
      "commit": "d187ff9d3f4c",
      "dimension": "method_map",
      "change_type": "unmapped_method",
      "permission": "",
      "role": "",
      "service": "dataplex",
      "method": "dataplex.projects.locations.lakes.environments.sessions.list",
      "severity": "INFO",
      "tags": [],
      "details": {
        "note": "New method has no permission mapping"
      }
    },
    {
      "id": "2026-04-08-41228",
      "date": "2026-04-08",
      "commit": "d187ff9d3f4c",
      "dimension": "method_map",
      "change_type": "unmapped_method",
      "permission": "",
      "role": "",
      "service": "eventarc",
      "method": "eventarc.projects.locations.kafkaSources.setIamPolicy",
      "severity": "CRITICAL",
      "tags": [],
      "details": {
        "note": "New method has no permission mapping"
      }
    },
    {
      "id": "2026-04-08-41229",
      "date": "2026-04-08",
      "commit": "d187ff9d3f4c",
      "dimension": "method_map",
      "change_type": "unmapped_method",
      "permission": "",
      "role": "",
      "service": "displayvideo",
      "method": "displayvideo.advertisers.insertionOrders.listAssignedTargetingOptions",
      "severity": "INFO",
      "tags": [],
      "details": {
        "note": "New method has no permission mapping"
      }
    },
    {
      "id": "2026-04-08-41230",
      "date": "2026-04-08",
      "commit": "d187ff9d3f4c",
      "dimension": "method_map",
      "change_type": "unmapped_method",
      "permission": "",
      "role": "",
      "service": "dataplex",
      "method": "dataplex.projects.locations.lakes.content.testIamPermissions",
      "severity": "INFO",
      "tags": [],
      "details": {
        "note": "New method has no permission mapping"
      }
    },
    {
      "id": "2026-04-08-41231",
      "date": "2026-04-08",
      "commit": "d187ff9d3f4c",
      "dimension": "method_map",
      "change_type": "unmapped_method",
      "permission": "",
      "role": "",
      "service": "networkmanagement",
      "method": "networkmanagement.organizations.locations.operations.get",
      "severity": "INFO",
      "tags": [],
      "details": {
        "note": "New method has no permission mapping"
      }
    },
    {
      "id": "2026-04-08-41232",
      "date": "2026-04-08",
      "commit": "d187ff9d3f4c",
      "dimension": "method_map",
      "change_type": "unmapped_method",
      "permission": "",
      "role": "",
      "service": "eventarc",
      "method": "eventarc.projects.locations.kafkaSources.testIamPermissions",
      "severity": "INFO",
      "tags": [],
      "details": {
        "note": "New method has no permission mapping"
      }
    },
    {
      "id": "2026-04-08-41233",
      "date": "2026-04-08",
      "commit": "d187ff9d3f4c",
      "dimension": "method_map",
      "change_type": "unmapped_method",
      "permission": "",
      "role": "",
      "service": "dataplex",
      "method": "dataplex.projects.locations.lakes.contentitems.create",
      "severity": "HIGH",
      "tags": [],
      "details": {
        "note": "New method has no permission mapping"
      }
    },
    {
      "id": "2026-04-08-41234",
      "date": "2026-04-08",
      "commit": "d187ff9d3f4c",
      "dimension": "method_map",
      "change_type": "unmapped_method",
      "permission": "",
      "role": "",
      "service": "dataplex",
      "method": "dataplex.projects.locations.lakes.environments.delete",
      "severity": "HIGH",
      "tags": [],
      "details": {
        "note": "New method has no permission mapping"
      }
    }
  ],
  "summary": {
    "by_severity": {
      "CRITICAL": 371,
      "HIGH": 8789,
      "MEDIUM": 30890,
      "INFO": 1184
    },
    "by_dimension": {
      "methods": 1088,
      "method_map": 587,
      "predefined_roles": 596,
      "role_permissions": 38963
    },
    "new_services": []
  }
}