{
  "generated_at": "2026-07-11T16:16:49Z",
  "total_entries": 3912,
  "pages": 40,
  "page": 40,
  "page_size": 100,
  "entries": [
    {
      "id": "2026-06-13-3901",
      "date": "2026-06-13",
      "commit": "ae377b996fad",
      "dimension": "method_map",
      "change_type": "unmapped_method",
      "permission": "",
      "role": "",
      "service": "compute",
      "method": "compute.organizationGlobalVmExtensionPolicies.insert",
      "severity": "HIGH",
      "tags": [],
      "details": {
        "note": "New method has no permission mapping"
      }
    },
    {
      "id": "2026-06-13-3902",
      "date": "2026-06-13",
      "commit": "ae377b996fad",
      "dimension": "method_map",
      "change_type": "unmapped_method",
      "permission": "",
      "role": "",
      "service": "compute",
      "method": "compute.organizationGlobalVmExtensionPolicies.delete",
      "severity": "HIGH",
      "tags": [],
      "details": {
        "note": "New method has no permission mapping"
      }
    },
    {
      "id": "2026-06-13-3903",
      "date": "2026-06-13",
      "commit": "ae377b996fad",
      "dimension": "method_map",
      "change_type": "unmapped_method",
      "permission": "",
      "role": "",
      "service": "compute",
      "method": "compute.folderGlobalVmExtensionPolicies.insert",
      "severity": "HIGH",
      "tags": [],
      "details": {
        "note": "New method has no permission mapping"
      }
    },
    {
      "id": "2026-06-13-3904",
      "date": "2026-06-13",
      "commit": "ae377b996fad",
      "dimension": "method_map",
      "change_type": "unmapped_method",
      "permission": "",
      "role": "",
      "service": "compute",
      "method": "compute.folderGlobalVmExtensionPolicies.update",
      "severity": "HIGH",
      "tags": [],
      "details": {
        "note": "New method has no permission mapping"
      }
    },
    {
      "id": "2026-06-13-3905",
      "date": "2026-06-13",
      "commit": "ae377b996fad",
      "dimension": "method_map",
      "change_type": "unmapped_method",
      "permission": "",
      "role": "",
      "service": "compute",
      "method": "compute.folderGlobalVmExtensionPolicies.get",
      "severity": "INFO",
      "tags": [],
      "details": {
        "note": "New method has no permission mapping"
      }
    },
    {
      "id": "2026-06-13-3906",
      "date": "2026-06-13",
      "commit": "ae377b996fad",
      "dimension": "method_map",
      "change_type": "unmapped_method",
      "permission": "",
      "role": "",
      "service": "compute",
      "method": "compute.organizationGlobalVmExtensionPolicies.getVmExtension",
      "severity": "INFO",
      "tags": [],
      "details": {
        "note": "New method has no permission mapping"
      }
    },
    {
      "id": "2026-06-13-3907",
      "date": "2026-06-13",
      "commit": "ae377b996fad",
      "dimension": "method_map",
      "change_type": "unmapped_method",
      "permission": "",
      "role": "",
      "service": "compute",
      "method": "compute.organizationGlobalVmExtensionPolicies.listVmExtensions",
      "severity": "INFO",
      "tags": [],
      "details": {
        "note": "New method has no permission mapping"
      }
    },
    {
      "id": "2026-06-13-3908",
      "date": "2026-06-13",
      "commit": "ae377b996fad",
      "dimension": "method_map",
      "change_type": "unmapped_method",
      "permission": "",
      "role": "",
      "service": "compute",
      "method": "compute.organizationGlobalVmExtensionPolicies.update",
      "severity": "HIGH",
      "tags": [],
      "details": {
        "note": "New method has no permission mapping"
      }
    },
    {
      "id": "2026-06-13-3909",
      "date": "2026-06-13",
      "commit": "ae377b996fad",
      "dimension": "method_map",
      "change_type": "unmapped_method",
      "permission": "",
      "role": "",
      "service": "compute",
      "method": "compute.organizationGlobalVmExtensionPolicies.list",
      "severity": "INFO",
      "tags": [],
      "details": {
        "note": "New method has no permission mapping"
      }
    },
    {
      "id": "2026-06-13-3910",
      "date": "2026-06-13",
      "commit": "ae377b996fad",
      "dimension": "method_map",
      "change_type": "unmapped_method",
      "permission": "",
      "role": "",
      "service": "compute",
      "method": "compute.folderGlobalVmExtensionPolicies.list",
      "severity": "INFO",
      "tags": [],
      "details": {
        "note": "New method has no permission mapping"
      }
    },
    {
      "id": "2026-06-13-3911",
      "date": "2026-06-13",
      "commit": "ae377b996fad",
      "dimension": "method_map",
      "change_type": "unmapped_method",
      "permission": "",
      "role": "",
      "service": "compute",
      "method": "compute.folderGlobalVmExtensionPolicies.aggregatedList",
      "severity": "INFO",
      "tags": [],
      "details": {
        "note": "New method has no permission mapping"
      }
    },
    {
      "id": "2026-06-13-3912",
      "date": "2026-06-13",
      "commit": "ae377b996fad",
      "dimension": "method_map",
      "change_type": "unmapped_method",
      "permission": "",
      "role": "",
      "service": "compute",
      "method": "compute.folderGlobalVmExtensionPolicies.delete",
      "severity": "HIGH",
      "tags": [],
      "details": {
        "note": "New method has no permission mapping"
      }
    }
  ],
  "summary": {
    "by_severity": {
      "CRITICAL": 20,
      "HIGH": 497,
      "MEDIUM": 3155,
      "INFO": 240
    },
    "by_dimension": {
      "role_permissions": 3520,
      "methods": 171,
      "method_map": 163,
      "predefined_roles": 58
    },
    "new_services": []
  }
}