{
  "generated_at": "2026-07-01T16:46:36Z",
  "total_entries": 1935,
  "pages": 20,
  "page": 20,
  "page_size": 100,
  "entries": [
    {
      "id": "2026-06-05-1901",
      "date": "2026-06-05",
      "commit": "078b24f2e99b",
      "dimension": "role_permissions",
      "change_type": "permission_added_to_role",
      "permission": "dataplex.locations.get",
      "role": "roles/iam.databasesAdmin",
      "service": "dataplex",
      "method": "",
      "severity": "MEDIUM",
      "tags": [],
      "details": {
        "undocumented": true
      }
    },
    {
      "id": "2026-06-05-1902",
      "date": "2026-06-05",
      "commit": "078b24f2e99b",
      "dimension": "role_permissions",
      "change_type": "permission_added_to_role",
      "permission": "dataplex.locations.get",
      "role": "roles/alloydb.databaseUser",
      "service": "dataplex",
      "method": "",
      "severity": "MEDIUM",
      "tags": [],
      "details": {
        "undocumented": true
      }
    },
    {
      "id": "2026-06-05-1903",
      "date": "2026-06-05",
      "commit": "078b24f2e99b",
      "dimension": "role_permissions",
      "change_type": "permission_removed_from_role",
      "permission": "chronicle.iocMatches.list",
      "role": "roles/iam.securityAuditor",
      "service": "chronicle",
      "method": "",
      "severity": "MEDIUM",
      "tags": [],
      "details": {
        "was_undocumented": true
      }
    },
    {
      "id": "2026-06-05-1904",
      "date": "2026-06-05",
      "commit": "078b24f2e99b",
      "dimension": "role_permissions",
      "change_type": "permission_added_to_role",
      "permission": "cloudmessaging.topicSubscriptions.update",
      "role": "roles/firebasecloudmessaging.admin",
      "service": "cloudmessaging",
      "method": "",
      "severity": "HIGH",
      "tags": [],
      "details": {
        "undocumented": true
      }
    },
    {
      "id": "2026-06-05-1905",
      "date": "2026-06-05",
      "commit": "078b24f2e99b",
      "dimension": "role_permissions",
      "change_type": "permission_added_to_role",
      "permission": "assuredworkloads.dbFrameworkComplianceSummaries.list",
      "role": "roles/iam.securityAuditor",
      "service": "assuredworkloads",
      "method": "",
      "severity": "MEDIUM",
      "tags": [],
      "details": {
        "undocumented": true
      }
    },
    {
      "id": "2026-06-05-1906",
      "date": "2026-06-05",
      "commit": "078b24f2e99b",
      "dimension": "role_permissions",
      "change_type": "permission_added_to_role",
      "permission": "aiplatform.agentAnomalyDetectionScopes.get",
      "role": "roles/dlp.orgdriver",
      "service": "aiplatform",
      "method": "",
      "severity": "MEDIUM",
      "tags": [],
      "details": {
        "undocumented": true
      }
    },
    {
      "id": "2026-06-05-1907",
      "date": "2026-06-05",
      "commit": "078b24f2e99b",
      "dimension": "role_permissions",
      "change_type": "permission_added_to_role",
      "permission": "contactcenterinsights.diagnostics.create",
      "role": "roles/contactcenterinsights.editor",
      "service": "contactcenterinsights",
      "method": "",
      "severity": "HIGH",
      "tags": [],
      "details": {
        "undocumented": true
      }
    },
    {
      "id": "2026-06-05-1908",
      "date": "2026-06-05",
      "commit": "078b24f2e99b",
      "dimension": "role_permissions",
      "change_type": "permission_added_to_role",
      "permission": "bigquery.propertyGraphs.list",
      "role": "roles/dlp.orgdriver",
      "service": "bigquery",
      "method": "",
      "severity": "MEDIUM",
      "tags": [],
      "details": {
        "undocumented": true
      }
    },
    {
      "id": "2026-06-05-1909",
      "date": "2026-06-05",
      "commit": "078b24f2e99b",
      "dimension": "role_permissions",
      "change_type": "permission_added_to_role",
      "permission": "bigquery.propertyGraphs.list",
      "role": "roles/iam.databasesAdmin",
      "service": "bigquery",
      "method": "",
      "severity": "MEDIUM",
      "tags": [],
      "details": {
        "undocumented": true
      }
    },
    {
      "id": "2026-06-05-1910",
      "date": "2026-06-05",
      "commit": "078b24f2e99b",
      "dimension": "role_permissions",
      "change_type": "permission_added_to_role",
      "permission": "bigquery.propertyGraphs.list",
      "role": "roles/bigquery.admin",
      "service": "bigquery",
      "method": "",
      "severity": "MEDIUM",
      "tags": [],
      "details": {
        "undocumented": true
      }
    },
    {
      "id": "2026-06-05-1911",
      "date": "2026-06-05",
      "commit": "078b24f2e99b",
      "dimension": "role_permissions",
      "change_type": "permission_added_to_role",
      "permission": "bigquery.propertyGraphs.list",
      "role": "roles/iam.securityAuditor",
      "service": "bigquery",
      "method": "",
      "severity": "MEDIUM",
      "tags": [],
      "details": {
        "undocumented": true
      }
    },
    {
      "id": "2026-06-05-1912",
      "date": "2026-06-05",
      "commit": "078b24f2e99b",
      "dimension": "role_permissions",
      "change_type": "permission_added_to_role",
      "permission": "bigquery.propertyGraphs.list",
      "role": "roles/dataprep.serviceAgent",
      "service": "bigquery",
      "method": "",
      "severity": "MEDIUM",
      "tags": [],
      "details": {
        "undocumented": true
      }
    },
    {
      "id": "2026-06-05-1913",
      "date": "2026-06-05",
      "commit": "078b24f2e99b",
      "dimension": "role_permissions",
      "change_type": "permission_added_to_role",
      "permission": "bigquery.propertyGraphs.list",
      "role": "roles/bigquerydatapolicy.editor",
      "service": "bigquery",
      "method": "",
      "severity": "MEDIUM",
      "tags": [],
      "details": {
        "undocumented": true
      }
    },
    {
      "id": "2026-06-05-1914",
      "date": "2026-06-05",
      "commit": "078b24f2e99b",
      "dimension": "role_permissions",
      "change_type": "permission_added_to_role",
      "permission": "bigquery.propertyGraphs.list",
      "role": "roles/bigquery.dataEditor",
      "service": "bigquery",
      "method": "",
      "severity": "MEDIUM",
      "tags": [],
      "details": {
        "undocumented": true
      }
    },
    {
      "id": "2026-06-05-1915",
      "date": "2026-06-05",
      "commit": "078b24f2e99b",
      "dimension": "role_permissions",
      "change_type": "permission_added_to_role",
      "permission": "aiplatform.agentAnomalyDetectionScopes.list",
      "role": "roles/dlp.orgdriver",
      "service": "aiplatform",
      "method": "",
      "severity": "MEDIUM",
      "tags": [],
      "details": {
        "undocumented": true
      }
    },
    {
      "id": "2026-06-05-1916",
      "date": "2026-06-05",
      "commit": "078b24f2e99b",
      "dimension": "role_permissions",
      "change_type": "permission_added_to_role",
      "permission": "aiplatform.agentAnomalyDetectionScopes.list",
      "role": "roles/iam.securityAuditor",
      "service": "aiplatform",
      "method": "",
      "severity": "MEDIUM",
      "tags": [],
      "details": {
        "undocumented": true
      }
    },
    {
      "id": "2026-06-05-1917",
      "date": "2026-06-05",
      "commit": "078b24f2e99b",
      "dimension": "role_permissions",
      "change_type": "permission_added_to_role",
      "permission": "dataplex.operations.get",
      "role": "roles/alloydb.databaseUser",
      "service": "dataplex",
      "method": "",
      "severity": "MEDIUM",
      "tags": [],
      "details": {
        "undocumented": true
      }
    },
    {
      "id": "2026-06-05-1918",
      "date": "2026-06-05",
      "commit": "078b24f2e99b",
      "dimension": "role_permissions",
      "change_type": "permission_added_to_role",
      "permission": "dataplex.locations.list",
      "role": "roles/dlp.orgdriver",
      "service": "dataplex",
      "method": "",
      "severity": "MEDIUM",
      "tags": [],
      "details": {
        "undocumented": true
      }
    },
    {
      "id": "2026-06-05-1919",
      "date": "2026-06-05",
      "commit": "078b24f2e99b",
      "dimension": "role_permissions",
      "change_type": "permission_added_to_role",
      "permission": "dataplex.locations.list",
      "role": "roles/iam.databasesAdmin",
      "service": "dataplex",
      "method": "",
      "severity": "MEDIUM",
      "tags": [],
      "details": {
        "undocumented": true
      }
    },
    {
      "id": "2026-06-05-1920",
      "date": "2026-06-05",
      "commit": "078b24f2e99b",
      "dimension": "role_permissions",
      "change_type": "permission_added_to_role",
      "permission": "dataplex.locations.list",
      "role": "roles/alloydb.databaseUser",
      "service": "dataplex",
      "method": "",
      "severity": "MEDIUM",
      "tags": [],
      "details": {
        "undocumented": true
      }
    },
    {
      "id": "2026-06-05-1921",
      "date": "2026-06-05",
      "commit": "078b24f2e99b",
      "dimension": "role_permissions",
      "change_type": "permission_added_to_role",
      "permission": "cloudmessaging.topicSubscriptions.list",
      "role": "roles/firebasecloudmessaging.admin",
      "service": "cloudmessaging",
      "method": "",
      "severity": "MEDIUM",
      "tags": [],
      "details": {
        "undocumented": true
      }
    },
    {
      "id": "2026-06-05-1922",
      "date": "2026-06-05",
      "commit": "078b24f2e99b",
      "dimension": "role_permissions",
      "change_type": "permission_added_to_role",
      "permission": "cloudmessaging.topicSubscriptions.list",
      "role": "roles/iam.securityAuditor",
      "service": "cloudmessaging",
      "method": "",
      "severity": "MEDIUM",
      "tags": [],
      "details": {
        "undocumented": true
      }
    },
    {
      "id": "2026-06-05-1923",
      "date": "2026-06-05",
      "commit": "078b24f2e99b",
      "dimension": "role_permissions",
      "change_type": "permission_added_to_role",
      "permission": "aiplatform.monitoredAgents.list",
      "role": "roles/dlp.orgdriver",
      "service": "aiplatform",
      "method": "",
      "severity": "MEDIUM",
      "tags": [],
      "details": {
        "undocumented": true
      }
    },
    {
      "id": "2026-06-05-1924",
      "date": "2026-06-05",
      "commit": "078b24f2e99b",
      "dimension": "role_permissions",
      "change_type": "permission_added_to_role",
      "permission": "aiplatform.monitoredAgents.list",
      "role": "roles/iam.securityAuditor",
      "service": "aiplatform",
      "method": "",
      "severity": "MEDIUM",
      "tags": [],
      "details": {
        "undocumented": true
      }
    },
    {
      "id": "2026-06-05-1925",
      "date": "2026-06-05",
      "commit": "078b24f2e99b",
      "dimension": "role_permissions",
      "change_type": "permission_added_to_role",
      "permission": "aiplatform.analyzedSessions.get",
      "role": "roles/dlp.orgdriver",
      "service": "aiplatform",
      "method": "",
      "severity": "MEDIUM",
      "tags": [],
      "details": {
        "undocumented": true
      }
    },
    {
      "id": "2026-06-05-1926",
      "date": "2026-06-05",
      "commit": "078b24f2e99b",
      "dimension": "role_permissions",
      "change_type": "permission_added_to_role",
      "permission": "contactcenterinsights.diagnostics.list",
      "role": "roles/ces.viewer",
      "service": "contactcenterinsights",
      "method": "",
      "severity": "MEDIUM",
      "tags": [],
      "details": {
        "undocumented": true
      }
    },
    {
      "id": "2026-06-05-1927",
      "date": "2026-06-05",
      "commit": "078b24f2e99b",
      "dimension": "role_permissions",
      "change_type": "permission_added_to_role",
      "permission": "contactcenterinsights.diagnostics.list",
      "role": "roles/contactcenterinsights.editor",
      "service": "contactcenterinsights",
      "method": "",
      "severity": "MEDIUM",
      "tags": [],
      "details": {
        "undocumented": true
      }
    },
    {
      "id": "2026-06-05-1928",
      "date": "2026-06-05",
      "commit": "078b24f2e99b",
      "dimension": "role_permissions",
      "change_type": "permission_added_to_role",
      "permission": "contactcenterinsights.diagnostics.list",
      "role": "roles/iam.securityAuditor",
      "service": "contactcenterinsights",
      "method": "",
      "severity": "MEDIUM",
      "tags": [],
      "details": {
        "undocumented": true
      }
    },
    {
      "id": "2026-06-05-1929",
      "date": "2026-06-05",
      "commit": "078b24f2e99b",
      "dimension": "role_permissions",
      "change_type": "permission_added_to_role",
      "permission": "contactcenterinsights.diagnostics.list",
      "role": "roles/ces.toolsEditor",
      "service": "contactcenterinsights",
      "method": "",
      "severity": "MEDIUM",
      "tags": [],
      "details": {
        "undocumented": true
      }
    },
    {
      "id": "2026-06-05-1930",
      "date": "2026-06-05",
      "commit": "078b24f2e99b",
      "dimension": "role_permissions",
      "change_type": "permission_added_to_role",
      "permission": "cloudmessaging.topicSubscriptions.create",
      "role": "roles/firebasecloudmessaging.admin",
      "service": "cloudmessaging",
      "method": "",
      "severity": "HIGH",
      "tags": [],
      "details": {
        "undocumented": true
      }
    },
    {
      "id": "2026-06-04-1931",
      "date": "2026-06-04",
      "commit": "a1f57da33bd5",
      "dimension": "methods",
      "change_type": "removed",
      "permission": "",
      "role": "",
      "service": "youtube",
      "method": "youtube.youtube.v3.updateCommentThreads",
      "severity": "INFO",
      "tags": [],
      "details": {
        "service": "youtube"
      }
    },
    {
      "id": "2026-06-04-1932",
      "date": "2026-06-04",
      "commit": "a1f57da33bd5",
      "dimension": "methods",
      "change_type": "removed",
      "permission": "",
      "role": "",
      "service": "contactcenterinsights",
      "method": "contactcenterinsights.projects.locations.diagnostics.delete",
      "severity": "HIGH",
      "tags": [],
      "details": {
        "service": "contactcenterinsights"
      }
    },
    {
      "id": "2026-06-04-1933",
      "date": "2026-06-04",
      "commit": "a1f57da33bd5",
      "dimension": "methods",
      "change_type": "removed",
      "permission": "",
      "role": "",
      "service": "contactcenterinsights",
      "method": "contactcenterinsights.projects.locations.diagnoseConversations",
      "severity": "INFO",
      "tags": [],
      "details": {
        "service": "contactcenterinsights"
      }
    },
    {
      "id": "2026-06-04-1934",
      "date": "2026-06-04",
      "commit": "a1f57da33bd5",
      "dimension": "methods",
      "change_type": "removed",
      "permission": "",
      "role": "",
      "service": "contactcenterinsights",
      "method": "contactcenterinsights.projects.locations.diagnostics.get",
      "severity": "INFO",
      "tags": [],
      "details": {
        "service": "contactcenterinsights"
      }
    },
    {
      "id": "2026-06-04-1935",
      "date": "2026-06-04",
      "commit": "a1f57da33bd5",
      "dimension": "methods",
      "change_type": "removed",
      "permission": "",
      "role": "",
      "service": "contactcenterinsights",
      "method": "contactcenterinsights.projects.locations.diagnostics.list",
      "severity": "INFO",
      "tags": [],
      "details": {
        "service": "contactcenterinsights"
      }
    }
  ],
  "summary": {
    "by_severity": {
      "CRITICAL": 9,
      "HIGH": 361,
      "MEDIUM": 1382,
      "INFO": 183
    },
    "by_dimension": {
      "methods": 133,
      "method_map": 127,
      "predefined_roles": 54,
      "role_permissions": 1621
    },
    "new_services": []
  }
}