{
  "generated_at": "2026-07-14T16:26:27Z",
  "total_entries": 4001,
  "pages": 41,
  "page": 41,
  "page_size": 100,
  "entries": [
    {
      "id": "2026-06-16-4001",
      "date": "2026-06-16",
      "commit": "76e63684aece",
      "dimension": "role_permissions",
      "change_type": "permission_added_to_role",
      "permission": "dataplex.dataProducts.approve",
      "role": "roles/owner",
      "service": "dataplex",
      "method": "",
      "severity": "MEDIUM",
      "tags": [],
      "details": {
        "undocumented": true
      }
    }
  ],
  "summary": {
    "by_severity": {
      "CRITICAL": 19,
      "HIGH": 514,
      "MEDIUM": 3262,
      "INFO": 206
    },
    "by_dimension": {
      "role_permissions": 3669,
      "methods": 145,
      "method_map": 137,
      "predefined_roles": 50
    },
    "new_services": []
  }
}