{
  "generated_at": "2026-06-27T16:23:04Z",
  "total_entries": 2225,
  "pages": 23,
  "page": 23,
  "page_size": 100,
  "entries": [
    {
      "id": "2026-05-31-2201",
      "date": "2026-05-31",
      "commit": "484627b4f9fb",
      "dimension": "role_permissions",
      "change_type": "permission_added_to_role",
      "permission": "geminidataanalytics.dataAgents.delete",
      "role": "roles/geminidataanalytics.admin",
      "service": "geminidataanalytics",
      "method": "",
      "severity": "HIGH",
      "tags": [],
      "details": {
        "undocumented": true
      }
    },
    {
      "id": "2026-05-31-2202",
      "date": "2026-05-31",
      "commit": "484627b4f9fb",
      "dimension": "role_permissions",
      "change_type": "permission_added_to_role",
      "permission": "auditmanager.controlReports.get",
      "role": "roles/auditmanager.viewer",
      "service": "auditmanager",
      "method": "",
      "severity": "MEDIUM",
      "tags": [],
      "details": {
        "undocumented": true
      }
    },
    {
      "id": "2026-05-31-2203",
      "date": "2026-05-31",
      "commit": "484627b4f9fb",
      "dimension": "role_permissions",
      "change_type": "permission_added_to_role",
      "permission": "networkservices.tlsRoutes.delete",
      "role": "roles/multiclusteringress.serviceAgent",
      "service": "networkservices",
      "method": "",
      "severity": "HIGH",
      "tags": [],
      "details": {
        "undocumented": true
      }
    },
    {
      "id": "2026-05-31-2204",
      "date": "2026-05-31",
      "commit": "484627b4f9fb",
      "dimension": "role_permissions",
      "change_type": "permission_added_to_role",
      "permission": "auditmanager.auditReports.list",
      "role": "roles/auditmanager.viewer",
      "service": "auditmanager",
      "method": "",
      "severity": "MEDIUM",
      "tags": [],
      "details": {
        "undocumented": true
      }
    },
    {
      "id": "2026-05-31-2205",
      "date": "2026-05-31",
      "commit": "484627b4f9fb",
      "dimension": "role_permissions",
      "change_type": "permission_added_to_role",
      "permission": "auditmanager.auditSchedules.list",
      "role": "roles/auditmanager.viewer",
      "service": "auditmanager",
      "method": "",
      "severity": "MEDIUM",
      "tags": [],
      "details": {
        "undocumented": true
      }
    },
    {
      "id": "2026-05-31-2206",
      "date": "2026-05-31",
      "commit": "484627b4f9fb",
      "dimension": "role_permissions",
      "change_type": "permission_added_to_role",
      "permission": "dataplex.locations.list",
      "role": "roles/spanner.databaseReaderWithDataBoost",
      "service": "dataplex",
      "method": "",
      "severity": "MEDIUM",
      "tags": [],
      "details": {
        "undocumented": true
      }
    },
    {
      "id": "2026-05-31-2207",
      "date": "2026-05-31",
      "commit": "484627b4f9fb",
      "dimension": "role_permissions",
      "change_type": "permission_added_to_role",
      "permission": "dataplex.locations.list",
      "role": "roles/datafusion.serviceAgent",
      "service": "dataplex",
      "method": "",
      "severity": "MEDIUM",
      "tags": [],
      "details": {
        "undocumented": true
      }
    },
    {
      "id": "2026-05-31-2208",
      "date": "2026-05-31",
      "commit": "484627b4f9fb",
      "dimension": "role_permissions",
      "change_type": "permission_added_to_role",
      "permission": "dataplex.locations.list",
      "role": "roles/spanner.databaseReader",
      "service": "dataplex",
      "method": "",
      "severity": "MEDIUM",
      "tags": [],
      "details": {
        "undocumented": true
      }
    },
    {
      "id": "2026-05-31-2209",
      "date": "2026-05-31",
      "commit": "484627b4f9fb",
      "dimension": "role_permissions",
      "change_type": "permission_added_to_role",
      "permission": "dataplex.locations.list",
      "role": "roles/iam.dataScientist",
      "service": "dataplex",
      "method": "",
      "severity": "MEDIUM",
      "tags": [],
      "details": {
        "undocumented": true
      }
    },
    {
      "id": "2026-05-31-2210",
      "date": "2026-05-31",
      "commit": "484627b4f9fb",
      "dimension": "role_permissions",
      "change_type": "permission_added_to_role",
      "permission": "dataplex.locations.list",
      "role": "roles/spanner.databaseUser",
      "service": "dataplex",
      "method": "",
      "severity": "MEDIUM",
      "tags": [],
      "details": {
        "undocumented": true
      }
    },
    {
      "id": "2026-05-31-2211",
      "date": "2026-05-31",
      "commit": "484627b4f9fb",
      "dimension": "role_permissions",
      "change_type": "permission_added_to_role",
      "permission": "netapp.storagePools.listBackupConfigs",
      "role": "roles/netapp.admin",
      "service": "netapp",
      "method": "",
      "severity": "MEDIUM",
      "tags": [],
      "details": {
        "undocumented": true
      }
    },
    {
      "id": "2026-05-31-2212",
      "date": "2026-05-31",
      "commit": "484627b4f9fb",
      "dimension": "role_permissions",
      "change_type": "permission_added_to_role",
      "permission": "netapp.storagePools.listBackupConfigs",
      "role": "roles/owner",
      "service": "netapp",
      "method": "",
      "severity": "MEDIUM",
      "tags": [],
      "details": {
        "undocumented": true
      }
    },
    {
      "id": "2026-05-31-2213",
      "date": "2026-05-31",
      "commit": "484627b4f9fb",
      "dimension": "role_permissions",
      "change_type": "permission_added_to_role",
      "permission": "geminidataanalytics.operations.list",
      "role": "roles/geminidataanalytics.admin",
      "service": "geminidataanalytics",
      "method": "",
      "severity": "MEDIUM",
      "tags": [],
      "details": {
        "undocumented": true
      }
    },
    {
      "id": "2026-05-31-2214",
      "date": "2026-05-31",
      "commit": "484627b4f9fb",
      "dimension": "role_permissions",
      "change_type": "permission_added_to_role",
      "permission": "geminidataanalytics.operations.list",
      "role": "roles/geminidataanalytics.viewer",
      "service": "geminidataanalytics",
      "method": "",
      "severity": "MEDIUM",
      "tags": [],
      "details": {
        "undocumented": true
      }
    },
    {
      "id": "2026-05-31-2215",
      "date": "2026-05-31",
      "commit": "484627b4f9fb",
      "dimension": "role_permissions",
      "change_type": "permission_added_to_role",
      "permission": "auditmanager.operations.list",
      "role": "roles/auditmanager.viewer",
      "service": "auditmanager",
      "method": "",
      "severity": "MEDIUM",
      "tags": [],
      "details": {
        "undocumented": true
      }
    },
    {
      "id": "2026-05-31-2216",
      "date": "2026-05-31",
      "commit": "484627b4f9fb",
      "dimension": "role_permissions",
      "change_type": "permission_added_to_role",
      "permission": "geminidataanalytics.locations.list",
      "role": "roles/geminidataanalytics.admin",
      "service": "geminidataanalytics",
      "method": "",
      "severity": "MEDIUM",
      "tags": [],
      "details": {
        "undocumented": true
      }
    },
    {
      "id": "2026-05-31-2217",
      "date": "2026-05-31",
      "commit": "484627b4f9fb",
      "dimension": "role_permissions",
      "change_type": "permission_added_to_role",
      "permission": "geminidataanalytics.locations.list",
      "role": "roles/geminidataanalytics.viewer",
      "service": "geminidataanalytics",
      "method": "",
      "severity": "MEDIUM",
      "tags": [],
      "details": {
        "undocumented": true
      }
    },
    {
      "id": "2026-05-31-2218",
      "date": "2026-05-31",
      "commit": "484627b4f9fb",
      "dimension": "role_permissions",
      "change_type": "permission_added_to_role",
      "permission": "networkservices.tlsRoutes.update",
      "role": "roles/multiclusteringress.serviceAgent",
      "service": "networkservices",
      "method": "",
      "severity": "HIGH",
      "tags": [],
      "details": {
        "undocumented": true
      }
    },
    {
      "id": "2026-05-31-2219",
      "date": "2026-05-31",
      "commit": "484627b4f9fb",
      "dimension": "role_permissions",
      "change_type": "permission_added_to_role",
      "permission": "networkservices.tlsRoutes.get",
      "role": "roles/multiclusteringress.serviceAgent",
      "service": "networkservices",
      "method": "",
      "severity": "MEDIUM",
      "tags": [],
      "details": {
        "undocumented": true
      }
    },
    {
      "id": "2026-05-31-2220",
      "date": "2026-05-31",
      "commit": "484627b4f9fb",
      "dimension": "role_permissions",
      "change_type": "permission_added_to_role",
      "permission": "geminidataanalytics.operations.cancel",
      "role": "roles/geminidataanalytics.admin",
      "service": "geminidataanalytics",
      "method": "",
      "severity": "MEDIUM",
      "tags": [],
      "details": {
        "undocumented": true
      }
    },
    {
      "id": "2026-05-31-2221",
      "date": "2026-05-31",
      "commit": "484627b4f9fb",
      "dimension": "role_permissions",
      "change_type": "permission_added_to_role",
      "permission": "dataplex.operations.cancel",
      "role": "roles/datafusion.serviceAgent",
      "service": "dataplex",
      "method": "",
      "severity": "MEDIUM",
      "tags": [],
      "details": {
        "undocumented": true
      }
    },
    {
      "id": "2026-05-31-2222",
      "date": "2026-05-31",
      "commit": "484627b4f9fb",
      "dimension": "role_permissions",
      "change_type": "permission_added_to_role",
      "permission": "dataplex.operations.cancel",
      "role": "roles/spanner.databaseUser",
      "service": "dataplex",
      "method": "",
      "severity": "MEDIUM",
      "tags": [],
      "details": {
        "undocumented": true
      }
    },
    {
      "id": "2026-05-31-2223",
      "date": "2026-05-31",
      "commit": "484627b4f9fb",
      "dimension": "role_permissions",
      "change_type": "permission_added_to_role",
      "permission": "auditmanager.controlReports.list",
      "role": "roles/auditmanager.viewer",
      "service": "auditmanager",
      "method": "",
      "severity": "MEDIUM",
      "tags": [],
      "details": {
        "undocumented": true
      }
    },
    {
      "id": "2026-05-31-2224",
      "date": "2026-05-31",
      "commit": "484627b4f9fb",
      "dimension": "role_permissions",
      "change_type": "permission_added_to_role",
      "permission": "auditmanager.customComplianceFrameworks.list",
      "role": "roles/auditmanager.viewer",
      "service": "auditmanager",
      "method": "",
      "severity": "MEDIUM",
      "tags": [],
      "details": {
        "undocumented": true
      }
    },
    {
      "id": "2026-05-31-2225",
      "date": "2026-05-31",
      "commit": "484627b4f9fb",
      "dimension": "role_permissions",
      "change_type": "permission_added_to_role",
      "permission": "fleetengine.tasktrackinginfo.get",
      "role": "roles/fleetengine.viewer",
      "service": "fleetengine",
      "method": "",
      "severity": "MEDIUM",
      "tags": [],
      "details": {
        "undocumented": true
      }
    }
  ],
  "summary": {
    "by_severity": {
      "CRITICAL": 10,
      "HIGH": 421,
      "MEDIUM": 1594,
      "INFO": 200
    },
    "by_dimension": {
      "predefined_roles": 65,
      "role_permissions": 1877,
      "methods": 144,
      "method_map": 139
    },
    "new_services": []
  }
}