{
  "generated_at": "2026-04-26T16:32:51Z",
  "total_entries": 50360,
  "pages": 504,
  "page": 504,
  "page_size": 100,
  "entries": [
    {
      "id": "2026-03-29-50301",
      "date": "2026-03-29",
      "commit": "b909835e3a53",
      "dimension": "role_permissions",
      "change_type": "permission_added_to_role",
      "permission": "ces.securitySettings.update",
      "role": "roles/owner",
      "service": "ces",
      "method": "",
      "severity": "HIGH",
      "tags": [],
      "details": {
        "undocumented": true
      }
    },
    {
      "id": "2026-03-29-50302",
      "date": "2026-03-29",
      "commit": "b909835e3a53",
      "dimension": "role_permissions",
      "change_type": "permission_added_to_role",
      "permission": "roads.selectedRoutes.create",
      "role": "roles/owner",
      "service": "roads",
      "method": "",
      "severity": "HIGH",
      "tags": [],
      "details": {
        "undocumented": true
      }
    },
    {
      "id": "2026-03-29-50303",
      "date": "2026-03-29",
      "commit": "b909835e3a53",
      "dimension": "role_permissions",
      "change_type": "permission_added_to_role",
      "permission": "telemetry.metrics.write",
      "role": "roles/hypercomputecluster.serviceAgent",
      "service": "telemetry",
      "method": "",
      "severity": "MEDIUM",
      "tags": [],
      "details": {
        "undocumented": true
      }
    },
    {
      "id": "2026-03-29-50304",
      "date": "2026-03-29",
      "commit": "b909835e3a53",
      "dimension": "role_permissions",
      "change_type": "permission_added_to_role",
      "permission": "storage.folders.get",
      "role": "roles/visionai.serviceAgent",
      "service": "storage",
      "method": "",
      "severity": "MEDIUM",
      "tags": [],
      "details": {
        "undocumented": true
      }
    },
    {
      "id": "2026-03-29-50305",
      "date": "2026-03-29",
      "commit": "b909835e3a53",
      "dimension": "role_permissions",
      "change_type": "permission_added_to_role",
      "permission": "networkmanagement.monitoringpoints.list",
      "role": "roles/owner",
      "service": "networkmanagement",
      "method": "",
      "severity": "MEDIUM",
      "tags": [],
      "details": {
        "undocumented": true
      }
    },
    {
      "id": "2026-03-29-50306",
      "date": "2026-03-29",
      "commit": "b909835e3a53",
      "dimension": "role_permissions",
      "change_type": "permission_added_to_role",
      "permission": "networkmanagement.monitoringpoints.list",
      "role": "roles/iam.securityAdmin",
      "service": "networkmanagement",
      "method": "",
      "severity": "MEDIUM",
      "tags": [],
      "details": {
        "undocumented": true
      }
    },
    {
      "id": "2026-03-29-50307",
      "date": "2026-03-29",
      "commit": "b909835e3a53",
      "dimension": "role_permissions",
      "change_type": "permission_added_to_role",
      "permission": "networkmanagement.monitoringpoints.list",
      "role": "roles/iam.networkAdmin",
      "service": "networkmanagement",
      "method": "",
      "severity": "MEDIUM",
      "tags": [],
      "details": {
        "undocumented": true
      }
    },
    {
      "id": "2026-03-29-50308",
      "date": "2026-03-29",
      "commit": "b909835e3a53",
      "dimension": "role_permissions",
      "change_type": "permission_added_to_role",
      "permission": "networkmanagement.monitoringpoints.list",
      "role": "roles/iam.securityAuditor",
      "service": "networkmanagement",
      "method": "",
      "severity": "MEDIUM",
      "tags": [],
      "details": {
        "undocumented": true
      }
    },
    {
      "id": "2026-03-29-50309",
      "date": "2026-03-29",
      "commit": "b909835e3a53",
      "dimension": "role_permissions",
      "change_type": "permission_added_to_role",
      "permission": "networkmanagement.monitoringpoints.list",
      "role": "roles/networkmanagement.CloudNetworkInsightsViewer",
      "service": "networkmanagement",
      "method": "",
      "severity": "MEDIUM",
      "tags": [],
      "details": {
        "undocumented": true
      }
    },
    {
      "id": "2026-03-29-50310",
      "date": "2026-03-29",
      "commit": "b909835e3a53",
      "dimension": "role_permissions",
      "change_type": "permission_added_to_role",
      "permission": "storage.folders.rename",
      "role": "roles/visionai.serviceAgent",
      "service": "storage",
      "method": "",
      "severity": "MEDIUM",
      "tags": [],
      "details": {
        "undocumented": true
      }
    },
    {
      "id": "2026-03-29-50311",
      "date": "2026-03-29",
      "commit": "b909835e3a53",
      "dimension": "role_permissions",
      "change_type": "permission_added_to_role",
      "permission": "networkmanagement.monitoringpoints.get",
      "role": "roles/owner",
      "service": "networkmanagement",
      "method": "",
      "severity": "MEDIUM",
      "tags": [],
      "details": {
        "undocumented": true
      }
    },
    {
      "id": "2026-03-29-50312",
      "date": "2026-03-29",
      "commit": "b909835e3a53",
      "dimension": "role_permissions",
      "change_type": "permission_added_to_role",
      "permission": "networkmanagement.monitoringpoints.get",
      "role": "roles/iam.networkAdmin",
      "service": "networkmanagement",
      "method": "",
      "severity": "MEDIUM",
      "tags": [],
      "details": {
        "undocumented": true
      }
    },
    {
      "id": "2026-03-29-50313",
      "date": "2026-03-29",
      "commit": "b909835e3a53",
      "dimension": "role_permissions",
      "change_type": "permission_added_to_role",
      "permission": "networkmanagement.monitoringpoints.get",
      "role": "roles/networkmanagement.CloudNetworkInsightsViewer",
      "service": "networkmanagement",
      "method": "",
      "severity": "MEDIUM",
      "tags": [],
      "details": {
        "undocumented": true
      }
    },
    {
      "id": "2026-03-29-50314",
      "date": "2026-03-29",
      "commit": "b909835e3a53",
      "dimension": "role_permissions",
      "change_type": "permission_added_to_role",
      "permission": "networkmanagement.providers.create",
      "role": "roles/owner",
      "service": "networkmanagement",
      "method": "",
      "severity": "HIGH",
      "tags": [],
      "details": {
        "undocumented": true
      }
    },
    {
      "id": "2026-03-29-50315",
      "date": "2026-03-29",
      "commit": "b909835e3a53",
      "dimension": "role_permissions",
      "change_type": "permission_added_to_role",
      "permission": "networkmanagement.providers.create",
      "role": "roles/iam.networkAdmin",
      "service": "networkmanagement",
      "method": "",
      "severity": "HIGH",
      "tags": [],
      "details": {
        "undocumented": true
      }
    },
    {
      "id": "2026-03-29-50316",
      "date": "2026-03-29",
      "commit": "b909835e3a53",
      "dimension": "role_permissions",
      "change_type": "permission_added_to_role",
      "permission": "networkmanagement.webpaths.list",
      "role": "roles/owner",
      "service": "networkmanagement",
      "method": "",
      "severity": "MEDIUM",
      "tags": [],
      "details": {
        "undocumented": true
      }
    },
    {
      "id": "2026-03-29-50317",
      "date": "2026-03-29",
      "commit": "b909835e3a53",
      "dimension": "role_permissions",
      "change_type": "permission_added_to_role",
      "permission": "networkmanagement.webpaths.list",
      "role": "roles/iam.securityAdmin",
      "service": "networkmanagement",
      "method": "",
      "severity": "MEDIUM",
      "tags": [],
      "details": {
        "undocumented": true
      }
    },
    {
      "id": "2026-03-29-50318",
      "date": "2026-03-29",
      "commit": "b909835e3a53",
      "dimension": "role_permissions",
      "change_type": "permission_added_to_role",
      "permission": "networkmanagement.webpaths.list",
      "role": "roles/iam.networkAdmin",
      "service": "networkmanagement",
      "method": "",
      "severity": "MEDIUM",
      "tags": [],
      "details": {
        "undocumented": true
      }
    },
    {
      "id": "2026-03-29-50319",
      "date": "2026-03-29",
      "commit": "b909835e3a53",
      "dimension": "role_permissions",
      "change_type": "permission_added_to_role",
      "permission": "networkmanagement.webpaths.list",
      "role": "roles/iam.securityAuditor",
      "service": "networkmanagement",
      "method": "",
      "severity": "MEDIUM",
      "tags": [],
      "details": {
        "undocumented": true
      }
    },
    {
      "id": "2026-03-29-50320",
      "date": "2026-03-29",
      "commit": "b909835e3a53",
      "dimension": "role_permissions",
      "change_type": "permission_added_to_role",
      "permission": "networkmanagement.webpaths.list",
      "role": "roles/networkmanagement.CloudNetworkInsightsViewer",
      "service": "networkmanagement",
      "method": "",
      "severity": "MEDIUM",
      "tags": [],
      "details": {
        "undocumented": true
      }
    },
    {
      "id": "2026-03-29-50321",
      "date": "2026-03-29",
      "commit": "b909835e3a53",
      "dimension": "role_permissions",
      "change_type": "permission_added_to_role",
      "permission": "networkmanagement.providers.get",
      "role": "roles/owner",
      "service": "networkmanagement",
      "method": "",
      "severity": "MEDIUM",
      "tags": [],
      "details": {
        "undocumented": true
      }
    },
    {
      "id": "2026-03-29-50322",
      "date": "2026-03-29",
      "commit": "b909835e3a53",
      "dimension": "role_permissions",
      "change_type": "permission_added_to_role",
      "permission": "networkmanagement.providers.get",
      "role": "roles/iam.networkAdmin",
      "service": "networkmanagement",
      "method": "",
      "severity": "MEDIUM",
      "tags": [],
      "details": {
        "undocumented": true
      }
    },
    {
      "id": "2026-03-29-50323",
      "date": "2026-03-29",
      "commit": "b909835e3a53",
      "dimension": "role_permissions",
      "change_type": "permission_added_to_role",
      "permission": "networkmanagement.providers.get",
      "role": "roles/networkmanagement.CloudNetworkInsightsViewer",
      "service": "networkmanagement",
      "method": "",
      "severity": "MEDIUM",
      "tags": [],
      "details": {
        "undocumented": true
      }
    },
    {
      "id": "2026-03-29-50324",
      "date": "2026-03-29",
      "commit": "b909835e3a53",
      "dimension": "role_permissions",
      "change_type": "permission_added_to_role",
      "permission": "spanner.instances.get",
      "role": "roles/spanner.graphIntelligenceUser",
      "service": "spanner",
      "method": "",
      "severity": "MEDIUM",
      "tags": [],
      "details": {
        "undocumented": true
      }
    },
    {
      "id": "2026-03-29-50325",
      "date": "2026-03-29",
      "commit": "b909835e3a53",
      "dimension": "role_permissions",
      "change_type": "permission_added_to_role",
      "permission": "databaseinsights.systemMetrics.fetch",
      "role": "roles/owner",
      "service": "databaseinsights",
      "method": "",
      "severity": "MEDIUM",
      "tags": [],
      "details": {
        "undocumented": true
      }
    },
    {
      "id": "2026-03-29-50326",
      "date": "2026-03-29",
      "commit": "b909835e3a53",
      "dimension": "role_permissions",
      "change_type": "permission_added_to_role",
      "permission": "databaseinsights.systemMetrics.fetch",
      "role": "roles/databaseinsights.intelligenceViewer",
      "service": "databaseinsights",
      "method": "",
      "severity": "MEDIUM",
      "tags": [],
      "details": {
        "undocumented": true
      }
    },
    {
      "id": "2026-03-29-50327",
      "date": "2026-03-29",
      "commit": "b909835e3a53",
      "dimension": "role_permissions",
      "change_type": "permission_added_to_role",
      "permission": "auditmanager.billingSettings.get",
      "role": "roles/iam.securityAuditor",
      "service": "auditmanager",
      "method": "",
      "severity": "MEDIUM",
      "tags": [],
      "details": {
        "undocumented": true
      }
    },
    {
      "id": "2026-03-29-50328",
      "date": "2026-03-29",
      "commit": "b909835e3a53",
      "dimension": "role_permissions",
      "change_type": "permission_added_to_role",
      "permission": "biglake.catalogs.update",
      "role": "roles/owner",
      "service": "biglake",
      "method": "",
      "severity": "HIGH",
      "tags": [],
      "details": {
        "undocumented": true
      }
    },
    {
      "id": "2026-03-29-50329",
      "date": "2026-03-29",
      "commit": "b909835e3a53",
      "dimension": "role_permissions",
      "change_type": "permission_added_to_role",
      "permission": "config.deploymentgrouprevisions.list",
      "role": "roles/designcenter.applicationAdmin",
      "service": "config",
      "method": "",
      "severity": "MEDIUM",
      "tags": [],
      "details": {
        "undocumented": true
      }
    },
    {
      "id": "2026-03-29-50330",
      "date": "2026-03-29",
      "commit": "b909835e3a53",
      "dimension": "role_permissions",
      "change_type": "permission_added_to_role",
      "permission": "config.deploymentgrouprevisions.list",
      "role": "roles/owner",
      "service": "config",
      "method": "",
      "severity": "MEDIUM",
      "tags": [],
      "details": {
        "undocumented": true
      }
    },
    {
      "id": "2026-03-29-50331",
      "date": "2026-03-29",
      "commit": "b909835e3a53",
      "dimension": "role_permissions",
      "change_type": "permission_added_to_role",
      "permission": "config.deploymentgrouprevisions.list",
      "role": "roles/iam.securityAdmin",
      "service": "config",
      "method": "",
      "severity": "MEDIUM",
      "tags": [],
      "details": {
        "undocumented": true
      }
    },
    {
      "id": "2026-03-29-50332",
      "date": "2026-03-29",
      "commit": "b909835e3a53",
      "dimension": "role_permissions",
      "change_type": "permission_added_to_role",
      "permission": "config.deploymentgrouprevisions.list",
      "role": "roles/iam.securityAuditor",
      "service": "config",
      "method": "",
      "severity": "MEDIUM",
      "tags": [],
      "details": {
        "undocumented": true
      }
    },
    {
      "id": "2026-03-29-50333",
      "date": "2026-03-29",
      "commit": "b909835e3a53",
      "dimension": "role_permissions",
      "change_type": "permission_added_to_role",
      "permission": "config.deploymentgrouprevisions.list",
      "role": "roles/designcenter.applicationEditor",
      "service": "config",
      "method": "",
      "severity": "MEDIUM",
      "tags": [],
      "details": {
        "undocumented": true
      }
    },
    {
      "id": "2026-03-29-50334",
      "date": "2026-03-29",
      "commit": "b909835e3a53",
      "dimension": "role_permissions",
      "change_type": "permission_added_to_role",
      "permission": "config.deploymentgrouprevisions.list",
      "role": "roles/designcenter.serviceAgent",
      "service": "config",
      "method": "",
      "severity": "MEDIUM",
      "tags": [],
      "details": {
        "undocumented": true
      }
    },
    {
      "id": "2026-03-29-50335",
      "date": "2026-03-29",
      "commit": "b909835e3a53",
      "dimension": "role_permissions",
      "change_type": "permission_added_to_role",
      "permission": "databaseinsights.databaseIssues.troubleshoot",
      "role": "roles/owner",
      "service": "databaseinsights",
      "method": "",
      "severity": "MEDIUM",
      "tags": [],
      "details": {
        "undocumented": true
      }
    },
    {
      "id": "2026-03-29-50336",
      "date": "2026-03-29",
      "commit": "b909835e3a53",
      "dimension": "role_permissions",
      "change_type": "permission_added_to_role",
      "permission": "databaseinsights.databaseIssues.troubleshoot",
      "role": "roles/databaseinsights.intelligenceViewer",
      "service": "databaseinsights",
      "method": "",
      "severity": "MEDIUM",
      "tags": [],
      "details": {
        "undocumented": true
      }
    },
    {
      "id": "2026-03-29-50337",
      "date": "2026-03-29",
      "commit": "b909835e3a53",
      "dimension": "role_permissions",
      "change_type": "permission_added_to_role",
      "permission": "apptopology.operations.get",
      "role": "roles/iam.securityAuditor",
      "service": "apptopology",
      "method": "",
      "severity": "MEDIUM",
      "tags": [],
      "details": {
        "undocumented": true
      }
    },
    {
      "id": "2026-03-29-50338",
      "date": "2026-03-29",
      "commit": "b909835e3a53",
      "dimension": "role_permissions",
      "change_type": "permission_added_to_role",
      "permission": "networkmanagement.networkpaths.list",
      "role": "roles/owner",
      "service": "networkmanagement",
      "method": "",
      "severity": "MEDIUM",
      "tags": [],
      "details": {
        "undocumented": true
      }
    },
    {
      "id": "2026-03-29-50339",
      "date": "2026-03-29",
      "commit": "b909835e3a53",
      "dimension": "role_permissions",
      "change_type": "permission_added_to_role",
      "permission": "networkmanagement.networkpaths.list",
      "role": "roles/iam.securityAdmin",
      "service": "networkmanagement",
      "method": "",
      "severity": "MEDIUM",
      "tags": [],
      "details": {
        "undocumented": true
      }
    },
    {
      "id": "2026-03-29-50340",
      "date": "2026-03-29",
      "commit": "b909835e3a53",
      "dimension": "role_permissions",
      "change_type": "permission_added_to_role",
      "permission": "networkmanagement.networkpaths.list",
      "role": "roles/iam.networkAdmin",
      "service": "networkmanagement",
      "method": "",
      "severity": "MEDIUM",
      "tags": [],
      "details": {
        "undocumented": true
      }
    },
    {
      "id": "2026-03-29-50341",
      "date": "2026-03-29",
      "commit": "b909835e3a53",
      "dimension": "role_permissions",
      "change_type": "permission_added_to_role",
      "permission": "networkmanagement.networkpaths.list",
      "role": "roles/iam.securityAuditor",
      "service": "networkmanagement",
      "method": "",
      "severity": "MEDIUM",
      "tags": [],
      "details": {
        "undocumented": true
      }
    },
    {
      "id": "2026-03-29-50342",
      "date": "2026-03-29",
      "commit": "b909835e3a53",
      "dimension": "role_permissions",
      "change_type": "permission_added_to_role",
      "permission": "networkmanagement.networkpaths.list",
      "role": "roles/networkmanagement.CloudNetworkInsightsViewer",
      "service": "networkmanagement",
      "method": "",
      "severity": "MEDIUM",
      "tags": [],
      "details": {
        "undocumented": true
      }
    },
    {
      "id": "2026-03-29-50343",
      "date": "2026-03-29",
      "commit": "b909835e3a53",
      "dimension": "role_permissions",
      "change_type": "permission_added_to_role",
      "permission": "networkmanagement.providers.generateProviderAccessToken",
      "role": "roles/owner",
      "service": "networkmanagement",
      "method": "",
      "severity": "MEDIUM",
      "tags": [],
      "details": {
        "undocumented": true
      }
    },
    {
      "id": "2026-03-29-50344",
      "date": "2026-03-29",
      "commit": "b909835e3a53",
      "dimension": "role_permissions",
      "change_type": "permission_added_to_role",
      "permission": "networkmanagement.providers.generateProviderAccessToken",
      "role": "roles/iam.networkAdmin",
      "service": "networkmanagement",
      "method": "",
      "severity": "MEDIUM",
      "tags": [],
      "details": {
        "undocumented": true
      }
    },
    {
      "id": "2026-03-29-50345",
      "date": "2026-03-29",
      "commit": "b909835e3a53",
      "dimension": "role_permissions",
      "change_type": "permission_added_to_role",
      "permission": "networkmanagement.providers.generateProviderAccessToken",
      "role": "roles/networkmanagement.CloudNetworkInsightsViewer",
      "service": "networkmanagement",
      "method": "",
      "severity": "MEDIUM",
      "tags": [],
      "details": {
        "undocumented": true
      }
    },
    {
      "id": "2026-03-29-50346",
      "date": "2026-03-29",
      "commit": "b909835e3a53",
      "dimension": "role_permissions",
      "change_type": "permission_added_to_role",
      "permission": "storage.objects.get",
      "role": "roles/storage.annotationGeneratorService",
      "service": "storage",
      "method": "",
      "severity": "HIGH",
      "tags": [
        "DataAccess"
      ],
      "details": {
        "undocumented": true
      }
    },
    {
      "id": "2026-03-29-50347",
      "date": "2026-03-29",
      "commit": "b909835e3a53",
      "dimension": "role_permissions",
      "change_type": "permission_added_to_role",
      "permission": "spanner.databases.select",
      "role": "roles/spanner.graphIntelligenceUser",
      "service": "spanner",
      "method": "",
      "severity": "MEDIUM",
      "tags": [],
      "details": {
        "undocumented": true
      }
    },
    {
      "id": "2026-03-29-50348",
      "date": "2026-03-29",
      "commit": "b909835e3a53",
      "dimension": "role_permissions",
      "change_type": "permission_added_to_role",
      "permission": "config.deploymentgroups.list",
      "role": "roles/designcenter.applicationAdmin",
      "service": "config",
      "method": "",
      "severity": "MEDIUM",
      "tags": [],
      "details": {
        "undocumented": true
      }
    },
    {
      "id": "2026-03-29-50349",
      "date": "2026-03-29",
      "commit": "b909835e3a53",
      "dimension": "role_permissions",
      "change_type": "permission_added_to_role",
      "permission": "config.deploymentgroups.list",
      "role": "roles/owner",
      "service": "config",
      "method": "",
      "severity": "MEDIUM",
      "tags": [],
      "details": {
        "undocumented": true
      }
    },
    {
      "id": "2026-03-29-50350",
      "date": "2026-03-29",
      "commit": "b909835e3a53",
      "dimension": "role_permissions",
      "change_type": "permission_added_to_role",
      "permission": "config.deploymentgroups.list",
      "role": "roles/iam.securityAdmin",
      "service": "config",
      "method": "",
      "severity": "MEDIUM",
      "tags": [],
      "details": {
        "undocumented": true
      }
    },
    {
      "id": "2026-03-29-50351",
      "date": "2026-03-29",
      "commit": "b909835e3a53",
      "dimension": "role_permissions",
      "change_type": "permission_added_to_role",
      "permission": "config.deploymentgroups.list",
      "role": "roles/iam.securityAuditor",
      "service": "config",
      "method": "",
      "severity": "MEDIUM",
      "tags": [],
      "details": {
        "undocumented": true
      }
    },
    {
      "id": "2026-03-29-50352",
      "date": "2026-03-29",
      "commit": "b909835e3a53",
      "dimension": "role_permissions",
      "change_type": "permission_added_to_role",
      "permission": "config.deploymentgroups.list",
      "role": "roles/designcenter.applicationEditor",
      "service": "config",
      "method": "",
      "severity": "MEDIUM",
      "tags": [],
      "details": {
        "undocumented": true
      }
    },
    {
      "id": "2026-03-29-50353",
      "date": "2026-03-29",
      "commit": "b909835e3a53",
      "dimension": "role_permissions",
      "change_type": "permission_added_to_role",
      "permission": "config.deploymentgroups.list",
      "role": "roles/designcenter.serviceAgent",
      "service": "config",
      "method": "",
      "severity": "MEDIUM",
      "tags": [],
      "details": {
        "undocumented": true
      }
    },
    {
      "id": "2026-03-29-50354",
      "date": "2026-03-29",
      "commit": "b909835e3a53",
      "dimension": "role_permissions",
      "change_type": "permission_added_to_role",
      "permission": "apphub.boundaries.update",
      "role": "roles/designcenter.serviceAgent",
      "service": "apphub",
      "method": "",
      "severity": "HIGH",
      "tags": [],
      "details": {
        "undocumented": true
      }
    },
    {
      "id": "2026-03-29-50355",
      "date": "2026-03-29",
      "commit": "b909835e3a53",
      "dimension": "role_permissions",
      "change_type": "permission_added_to_role",
      "permission": "storage.objects.list",
      "role": "roles/storage.annotationGeneratorService",
      "service": "storage",
      "method": "",
      "severity": "MEDIUM",
      "tags": [],
      "details": {
        "undocumented": true
      }
    },
    {
      "id": "2026-03-29-50356",
      "date": "2026-03-29",
      "commit": "b909835e3a53",
      "dimension": "role_permissions",
      "change_type": "permission_added_to_role",
      "permission": "chronicle.instances.runThreatHunt",
      "role": "roles/owner",
      "service": "chronicle",
      "method": "",
      "severity": "MEDIUM",
      "tags": [],
      "details": {
        "undocumented": true
      }
    },
    {
      "id": "2026-03-29-50357",
      "date": "2026-03-29",
      "commit": "b909835e3a53",
      "dimension": "role_permissions",
      "change_type": "permission_added_to_role",
      "permission": "chronicle.instances.runThreatHunt",
      "role": "roles/chronicle.editor",
      "service": "chronicle",
      "method": "",
      "severity": "MEDIUM",
      "tags": [],
      "details": {
        "undocumented": true
      }
    },
    {
      "id": "2026-03-29-50358",
      "date": "2026-03-29",
      "commit": "b909835e3a53",
      "dimension": "role_permissions",
      "change_type": "permission_added_to_role",
      "permission": "chronicle.instances.runThreatHunt",
      "role": "roles/chronicle.admin",
      "service": "chronicle",
      "method": "",
      "severity": "MEDIUM",
      "tags": [],
      "details": {
        "undocumented": true
      }
    },
    {
      "id": "2026-03-29-50359",
      "date": "2026-03-29",
      "commit": "b909835e3a53",
      "dimension": "role_permissions",
      "change_type": "permission_added_to_role",
      "permission": "storage.objects.updateContext",
      "role": "roles/storage.annotationGeneratorService",
      "service": "storage",
      "method": "",
      "severity": "MEDIUM",
      "tags": [],
      "details": {
        "undocumented": true
      }
    },
    {
      "id": "2026-03-29-50360",
      "date": "2026-03-29",
      "commit": "b909835e3a53",
      "dimension": "role_permissions",
      "change_type": "permission_added_to_role",
      "permission": "auditmanager.controlReports.get",
      "role": "roles/iam.securityAuditor",
      "service": "auditmanager",
      "method": "",
      "severity": "MEDIUM",
      "tags": [],
      "details": {
        "undocumented": true
      }
    }
  ],
  "summary": {
    "by_severity": {
      "CRITICAL": 433,
      "HIGH": 11168,
      "MEDIUM": 37523,
      "INFO": 1236
    },
    "by_dimension": {
      "methods": 1130,
      "method_map": 619,
      "predefined_roles": 759,
      "role_permissions": 47852
    },
    "new_services": []
  }
}