{
  "generated_at": "2026-07-06T16:59:13Z",
  "total_entries": 3533,
  "pages": 36,
  "page": 36,
  "page_size": 100,
  "entries": [
    {
      "id": "2026-06-12-3501",
      "date": "2026-06-12",
      "commit": "88035e35580d",
      "dimension": "role_permissions",
      "change_type": "permission_added_to_role",
      "permission": "dataplex.dataProducts.approve",
      "role": "roles/dataplex.editor",
      "service": "dataplex",
      "method": "",
      "severity": "MEDIUM",
      "tags": [],
      "details": {
        "undocumented": true
      }
    },
    {
      "id": "2026-06-11-3502",
      "date": "2026-06-11",
      "commit": "04844ad70025",
      "dimension": "methods",
      "change_type": "added",
      "permission": "",
      "role": "",
      "service": "sqladmin",
      "method": "sql.connect.resolve",
      "severity": "INFO",
      "tags": [],
      "details": {
        "service": "sqladmin"
      }
    },
    {
      "id": "2026-06-11-3503",
      "date": "2026-06-11",
      "commit": "04844ad70025",
      "dimension": "method_map",
      "change_type": "unmapped_method",
      "permission": "",
      "role": "",
      "service": "sqladmin",
      "method": "sqladmin.sql.connect.resolve",
      "severity": "INFO",
      "tags": [],
      "details": {
        "note": "New method has no permission mapping"
      }
    },
    {
      "id": "2026-06-08-3504",
      "date": "2026-06-08",
      "commit": "dc5d4b84a63a",
      "dimension": "methods",
      "change_type": "added",
      "permission": "",
      "role": "",
      "service": "gkehub",
      "method": "gkehub.projects.locations.rollouts.resume",
      "severity": "INFO",
      "tags": [],
      "details": {
        "service": "gkehub"
      }
    },
    {
      "id": "2026-06-08-3505",
      "date": "2026-06-08",
      "commit": "dc5d4b84a63a",
      "dimension": "methods",
      "change_type": "added",
      "permission": "",
      "role": "",
      "service": "gkehub",
      "method": "gkehub.projects.locations.rollouts.cancel",
      "severity": "INFO",
      "tags": [],
      "details": {
        "service": "gkehub"
      }
    },
    {
      "id": "2026-06-08-3506",
      "date": "2026-06-08",
      "commit": "dc5d4b84a63a",
      "dimension": "methods",
      "change_type": "added",
      "permission": "",
      "role": "",
      "service": "gkehub",
      "method": "gkehub.projects.locations.rollouts.pause",
      "severity": "INFO",
      "tags": [],
      "details": {
        "service": "gkehub"
      }
    },
    {
      "id": "2026-06-08-3507",
      "date": "2026-06-08",
      "commit": "dc5d4b84a63a",
      "dimension": "methods",
      "change_type": "added",
      "permission": "",
      "role": "",
      "service": "youtube",
      "method": "youtube.videos.batchGetStats",
      "severity": "INFO",
      "tags": [],
      "details": {
        "service": "youtube"
      }
    },
    {
      "id": "2026-06-08-3508",
      "date": "2026-06-08",
      "commit": "dc5d4b84a63a",
      "dimension": "methods",
      "change_type": "added",
      "permission": "",
      "role": "",
      "service": "networkservices",
      "method": "networkservices.projects.locations.multicastGroupConsumerActivations.list",
      "severity": "INFO",
      "tags": [],
      "details": {
        "service": "networkservices"
      }
    },
    {
      "id": "2026-06-08-3509",
      "date": "2026-06-08",
      "commit": "dc5d4b84a63a",
      "dimension": "methods",
      "change_type": "added",
      "permission": "",
      "role": "",
      "service": "networkservices",
      "method": "networkservices.projects.locations.multicastConsumerAssociations.get",
      "severity": "INFO",
      "tags": [],
      "details": {
        "service": "networkservices"
      }
    },
    {
      "id": "2026-06-08-3510",
      "date": "2026-06-08",
      "commit": "dc5d4b84a63a",
      "dimension": "methods",
      "change_type": "added",
      "permission": "",
      "role": "",
      "service": "networkservices",
      "method": "networkservices.projects.locations.multicastConsumerAssociations.list",
      "severity": "INFO",
      "tags": [],
      "details": {
        "service": "networkservices"
      }
    },
    {
      "id": "2026-06-08-3511",
      "date": "2026-06-08",
      "commit": "dc5d4b84a63a",
      "dimension": "methods",
      "change_type": "added",
      "permission": "",
      "role": "",
      "service": "networkservices",
      "method": "networkservices.projects.locations.multicastGroupConsumerActivations.get",
      "severity": "INFO",
      "tags": [],
      "details": {
        "service": "networkservices"
      }
    },
    {
      "id": "2026-06-08-3512",
      "date": "2026-06-08",
      "commit": "dc5d4b84a63a",
      "dimension": "methods",
      "change_type": "added",
      "permission": "",
      "role": "",
      "service": "networkservices",
      "method": "networkservices.projects.locations.multicastGroupConsumerActivations.create",
      "severity": "HIGH",
      "tags": [],
      "details": {
        "service": "networkservices"
      }
    },
    {
      "id": "2026-06-08-3513",
      "date": "2026-06-08",
      "commit": "dc5d4b84a63a",
      "dimension": "methods",
      "change_type": "added",
      "permission": "",
      "role": "",
      "service": "networkservices",
      "method": "networkservices.projects.locations.multicastGroupConsumerActivations.delete",
      "severity": "HIGH",
      "tags": [],
      "details": {
        "service": "networkservices"
      }
    },
    {
      "id": "2026-06-08-3514",
      "date": "2026-06-08",
      "commit": "dc5d4b84a63a",
      "dimension": "methods",
      "change_type": "added",
      "permission": "",
      "role": "",
      "service": "networkservices",
      "method": "networkservices.projects.locations.multicastConsumerAssociations.delete",
      "severity": "HIGH",
      "tags": [],
      "details": {
        "service": "networkservices"
      }
    },
    {
      "id": "2026-06-08-3515",
      "date": "2026-06-08",
      "commit": "dc5d4b84a63a",
      "dimension": "methods",
      "change_type": "added",
      "permission": "",
      "role": "",
      "service": "networkservices",
      "method": "networkservices.projects.locations.multicastGroupConsumerActivations.patch",
      "severity": "HIGH",
      "tags": [],
      "details": {
        "service": "networkservices"
      }
    },
    {
      "id": "2026-06-08-3516",
      "date": "2026-06-08",
      "commit": "dc5d4b84a63a",
      "dimension": "methods",
      "change_type": "added",
      "permission": "",
      "role": "",
      "service": "networkservices",
      "method": "networkservices.projects.locations.multicastConsumerAssociations.patch",
      "severity": "HIGH",
      "tags": [],
      "details": {
        "service": "networkservices"
      }
    },
    {
      "id": "2026-06-08-3517",
      "date": "2026-06-08",
      "commit": "dc5d4b84a63a",
      "dimension": "methods",
      "change_type": "added",
      "permission": "",
      "role": "",
      "service": "networkservices",
      "method": "networkservices.projects.locations.multicastConsumerAssociations.create",
      "severity": "HIGH",
      "tags": [],
      "details": {
        "service": "networkservices"
      }
    },
    {
      "id": "2026-06-08-3518",
      "date": "2026-06-08",
      "commit": "dc5d4b84a63a",
      "dimension": "methods",
      "change_type": "added",
      "permission": "",
      "role": "",
      "service": "assuredworkloads",
      "method": "assuredworkloads.organizations.locations.workloads.violations.batchAcknowledgeViolations",
      "severity": "INFO",
      "tags": [],
      "details": {
        "service": "assuredworkloads"
      }
    },
    {
      "id": "2026-06-08-3519",
      "date": "2026-06-08",
      "commit": "dc5d4b84a63a",
      "dimension": "method_map",
      "change_type": "unmapped_method",
      "permission": "",
      "role": "",
      "service": "networkservices",
      "method": "networkservices.projects.locations.multicastGroupConsumerActivations.list",
      "severity": "INFO",
      "tags": [],
      "details": {
        "note": "New method has no permission mapping"
      }
    },
    {
      "id": "2026-06-08-3520",
      "date": "2026-06-08",
      "commit": "dc5d4b84a63a",
      "dimension": "method_map",
      "change_type": "unmapped_method",
      "permission": "",
      "role": "",
      "service": "networkservices",
      "method": "networkservices.projects.locations.multicastConsumerAssociations.get",
      "severity": "INFO",
      "tags": [],
      "details": {
        "note": "New method has no permission mapping"
      }
    },
    {
      "id": "2026-06-08-3521",
      "date": "2026-06-08",
      "commit": "dc5d4b84a63a",
      "dimension": "method_map",
      "change_type": "unmapped_method",
      "permission": "",
      "role": "",
      "service": "networkservices",
      "method": "networkservices.projects.locations.multicastConsumerAssociations.list",
      "severity": "INFO",
      "tags": [],
      "details": {
        "note": "New method has no permission mapping"
      }
    },
    {
      "id": "2026-06-08-3522",
      "date": "2026-06-08",
      "commit": "dc5d4b84a63a",
      "dimension": "method_map",
      "change_type": "unmapped_method",
      "permission": "",
      "role": "",
      "service": "youtube",
      "method": "youtube.videos.batchGetStats",
      "severity": "INFO",
      "tags": [],
      "details": {
        "note": "New method has no permission mapping"
      }
    },
    {
      "id": "2026-06-08-3523",
      "date": "2026-06-08",
      "commit": "dc5d4b84a63a",
      "dimension": "method_map",
      "change_type": "unmapped_method",
      "permission": "",
      "role": "",
      "service": "networkservices",
      "method": "networkservices.projects.locations.multicastGroupConsumerActivations.create",
      "severity": "HIGH",
      "tags": [],
      "details": {
        "note": "New method has no permission mapping"
      }
    },
    {
      "id": "2026-06-08-3524",
      "date": "2026-06-08",
      "commit": "dc5d4b84a63a",
      "dimension": "method_map",
      "change_type": "unmapped_method",
      "permission": "",
      "role": "",
      "service": "networkservices",
      "method": "networkservices.projects.locations.multicastGroupConsumerActivations.get",
      "severity": "INFO",
      "tags": [],
      "details": {
        "note": "New method has no permission mapping"
      }
    },
    {
      "id": "2026-06-08-3525",
      "date": "2026-06-08",
      "commit": "dc5d4b84a63a",
      "dimension": "method_map",
      "change_type": "unmapped_method",
      "permission": "",
      "role": "",
      "service": "gkehub",
      "method": "gkehub.projects.locations.rollouts.cancel",
      "severity": "INFO",
      "tags": [],
      "details": {
        "note": "New method has no permission mapping"
      }
    },
    {
      "id": "2026-06-08-3526",
      "date": "2026-06-08",
      "commit": "dc5d4b84a63a",
      "dimension": "method_map",
      "change_type": "unmapped_method",
      "permission": "",
      "role": "",
      "service": "gkehub",
      "method": "gkehub.projects.locations.rollouts.pause",
      "severity": "INFO",
      "tags": [],
      "details": {
        "note": "New method has no permission mapping"
      }
    },
    {
      "id": "2026-06-08-3527",
      "date": "2026-06-08",
      "commit": "dc5d4b84a63a",
      "dimension": "method_map",
      "change_type": "unmapped_method",
      "permission": "",
      "role": "",
      "service": "networkservices",
      "method": "networkservices.projects.locations.multicastGroupConsumerActivations.delete",
      "severity": "HIGH",
      "tags": [],
      "details": {
        "note": "New method has no permission mapping"
      }
    },
    {
      "id": "2026-06-08-3528",
      "date": "2026-06-08",
      "commit": "dc5d4b84a63a",
      "dimension": "method_map",
      "change_type": "unmapped_method",
      "permission": "",
      "role": "",
      "service": "networkservices",
      "method": "networkservices.projects.locations.multicastConsumerAssociations.delete",
      "severity": "HIGH",
      "tags": [],
      "details": {
        "note": "New method has no permission mapping"
      }
    },
    {
      "id": "2026-06-08-3529",
      "date": "2026-06-08",
      "commit": "dc5d4b84a63a",
      "dimension": "method_map",
      "change_type": "unmapped_method",
      "permission": "",
      "role": "",
      "service": "networkservices",
      "method": "networkservices.projects.locations.multicastGroupConsumerActivations.patch",
      "severity": "HIGH",
      "tags": [],
      "details": {
        "note": "New method has no permission mapping"
      }
    },
    {
      "id": "2026-06-08-3530",
      "date": "2026-06-08",
      "commit": "dc5d4b84a63a",
      "dimension": "method_map",
      "change_type": "unmapped_method",
      "permission": "",
      "role": "",
      "service": "gkehub",
      "method": "gkehub.projects.locations.rollouts.resume",
      "severity": "INFO",
      "tags": [],
      "details": {
        "note": "New method has no permission mapping"
      }
    },
    {
      "id": "2026-06-08-3531",
      "date": "2026-06-08",
      "commit": "dc5d4b84a63a",
      "dimension": "method_map",
      "change_type": "unmapped_method",
      "permission": "",
      "role": "",
      "service": "networkservices",
      "method": "networkservices.projects.locations.multicastConsumerAssociations.patch",
      "severity": "HIGH",
      "tags": [],
      "details": {
        "note": "New method has no permission mapping"
      }
    },
    {
      "id": "2026-06-08-3532",
      "date": "2026-06-08",
      "commit": "dc5d4b84a63a",
      "dimension": "method_map",
      "change_type": "unmapped_method",
      "permission": "",
      "role": "",
      "service": "assuredworkloads",
      "method": "assuredworkloads.organizations.locations.workloads.violations.batchAcknowledgeViolations",
      "severity": "INFO",
      "tags": [],
      "details": {
        "note": "New method has no permission mapping"
      }
    },
    {
      "id": "2026-06-08-3533",
      "date": "2026-06-08",
      "commit": "dc5d4b84a63a",
      "dimension": "method_map",
      "change_type": "unmapped_method",
      "permission": "",
      "role": "",
      "service": "networkservices",
      "method": "networkservices.projects.locations.multicastConsumerAssociations.create",
      "severity": "HIGH",
      "tags": [],
      "details": {
        "note": "New method has no permission mapping"
      }
    }
  ],
  "summary": {
    "by_severity": {
      "CRITICAL": 15,
      "HIGH": 405,
      "MEDIUM": 2934,
      "INFO": 179
    },
    "by_dimension": {
      "predefined_roles": 66,
      "role_permissions": 3212,
      "methods": 128,
      "method_map": 127
    },
    "new_services": []
  }
}