{
  "generated_at": "2026-05-01T16:45:38Z",
  "total_entries": 50033,
  "pages": 501,
  "page": 501,
  "page_size": 100,
  "entries": [
    {
      "id": "2026-04-04-50001",
      "date": "2026-04-04",
      "commit": "89630f2ede38",
      "dimension": "role_permissions",
      "change_type": "permission_added_to_role",
      "permission": "domains.registrations.create",
      "role": "roles/domains.editor",
      "service": "domains",
      "method": "",
      "severity": "HIGH",
      "tags": [],
      "details": {
        "undocumented": true
      }
    },
    {
      "id": "2026-04-04-50002",
      "date": "2026-04-04",
      "commit": "89630f2ede38",
      "dimension": "role_permissions",
      "change_type": "permission_added_to_role",
      "permission": "securesourcemanager.instances.get",
      "role": "roles/securesourcemanager.editor",
      "service": "securesourcemanager",
      "method": "",
      "severity": "MEDIUM",
      "tags": [],
      "details": {
        "undocumented": true
      }
    },
    {
      "id": "2026-04-04-50003",
      "date": "2026-04-04",
      "commit": "89630f2ede38",
      "dimension": "role_permissions",
      "change_type": "permission_added_to_role",
      "permission": "securesourcemanager.instances.get",
      "role": "roles/securesourcemanager.viewer",
      "service": "securesourcemanager",
      "method": "",
      "severity": "MEDIUM",
      "tags": [],
      "details": {
        "undocumented": true
      }
    },
    {
      "id": "2026-04-04-50004",
      "date": "2026-04-04",
      "commit": "89630f2ede38",
      "dimension": "role_permissions",
      "change_type": "permission_added_to_role",
      "permission": "compute.packetMirrorings.listTagBindings",
      "role": "roles/notebooks.editor",
      "service": "compute",
      "method": "",
      "severity": "MEDIUM",
      "tags": [],
      "details": {
        "undocumented": true
      }
    },
    {
      "id": "2026-04-04-50005",
      "date": "2026-04-04",
      "commit": "89630f2ede38",
      "dimension": "role_permissions",
      "change_type": "permission_added_to_role",
      "permission": "compute.packetMirrorings.listTagBindings",
      "role": "roles/compute.editor",
      "service": "compute",
      "method": "",
      "severity": "MEDIUM",
      "tags": [],
      "details": {
        "undocumented": true
      }
    },
    {
      "id": "2026-04-04-50006",
      "date": "2026-04-04",
      "commit": "89630f2ede38",
      "dimension": "role_permissions",
      "change_type": "permission_added_to_role",
      "permission": "cloudbuild.locations.list",
      "role": "roles/cloudfunctions.editor",
      "service": "cloudbuild",
      "method": "",
      "severity": "MEDIUM",
      "tags": [],
      "details": {
        "undocumented": true
      }
    },
    {
      "id": "2026-04-04-50007",
      "date": "2026-04-04",
      "commit": "89630f2ede38",
      "dimension": "role_permissions",
      "change_type": "permission_added_to_role",
      "permission": "networksecurity.interceptDeploymentGroups.create",
      "role": "roles/networksecurity.admin",
      "service": "networksecurity",
      "method": "",
      "severity": "HIGH",
      "tags": [],
      "details": {
        "undocumented": true
      }
    },
    {
      "id": "2026-04-04-50008",
      "date": "2026-04-04",
      "commit": "89630f2ede38",
      "dimension": "role_permissions",
      "change_type": "permission_added_to_role",
      "permission": "networksecurity.interceptDeploymentGroups.create",
      "role": "roles/networksecurity.editor",
      "service": "networksecurity",
      "method": "",
      "severity": "HIGH",
      "tags": [],
      "details": {
        "undocumented": true
      }
    },
    {
      "id": "2026-04-04-50009",
      "date": "2026-04-04",
      "commit": "89630f2ede38",
      "dimension": "role_permissions",
      "change_type": "permission_added_to_role",
      "permission": "compute.globalOperations.delete",
      "role": "roles/compute.editor",
      "service": "compute",
      "method": "",
      "severity": "HIGH",
      "tags": [],
      "details": {
        "undocumented": true
      }
    },
    {
      "id": "2026-04-04-50010",
      "date": "2026-04-04",
      "commit": "89630f2ede38",
      "dimension": "role_permissions",
      "change_type": "permission_added_to_role",
      "permission": "dialogflow.sessionEntityTypes.get",
      "role": "roles/dialogflow.viewer",
      "service": "dialogflow",
      "method": "",
      "severity": "MEDIUM",
      "tags": [],
      "details": {
        "undocumented": true
      }
    },
    {
      "id": "2026-04-04-50011",
      "date": "2026-04-04",
      "commit": "89630f2ede38",
      "dimension": "role_permissions",
      "change_type": "permission_added_to_role",
      "permission": "networksecurity.authzPolicies.update",
      "role": "roles/networksecurity.admin",
      "service": "networksecurity",
      "method": "",
      "severity": "HIGH",
      "tags": [],
      "details": {
        "undocumented": true
      }
    },
    {
      "id": "2026-04-04-50012",
      "date": "2026-04-04",
      "commit": "89630f2ede38",
      "dimension": "role_permissions",
      "change_type": "permission_added_to_role",
      "permission": "networksecurity.authzPolicies.update",
      "role": "roles/networksecurity.editor",
      "service": "networksecurity",
      "method": "",
      "severity": "HIGH",
      "tags": [],
      "details": {
        "undocumented": true
      }
    },
    {
      "id": "2026-04-04-50013",
      "date": "2026-04-04",
      "commit": "89630f2ede38",
      "dimension": "role_permissions",
      "change_type": "permission_added_to_role",
      "permission": "compute.targetSslProxies.create",
      "role": "roles/compute.editor",
      "service": "compute",
      "method": "",
      "severity": "HIGH",
      "tags": [],
      "details": {
        "undocumented": true
      }
    },
    {
      "id": "2026-04-04-50014",
      "date": "2026-04-04",
      "commit": "89630f2ede38",
      "dimension": "role_permissions",
      "change_type": "permission_added_to_role",
      "permission": "compute.globalOperations.getIamPolicy",
      "role": "roles/notebooks.editor",
      "service": "compute",
      "method": "",
      "severity": "MEDIUM",
      "tags": [],
      "details": {
        "undocumented": true
      }
    },
    {
      "id": "2026-04-04-50015",
      "date": "2026-04-04",
      "commit": "89630f2ede38",
      "dimension": "role_permissions",
      "change_type": "permission_added_to_role",
      "permission": "compute.globalOperations.getIamPolicy",
      "role": "roles/compute.editor",
      "service": "compute",
      "method": "",
      "severity": "MEDIUM",
      "tags": [],
      "details": {
        "undocumented": true
      }
    },
    {
      "id": "2026-04-04-50016",
      "date": "2026-04-04",
      "commit": "89630f2ede38",
      "dimension": "role_permissions",
      "change_type": "permission_added_to_role",
      "permission": "eventarc.channelConnections.create",
      "role": "roles/cloudfunctions.editor",
      "service": "eventarc",
      "method": "",
      "severity": "HIGH",
      "tags": [],
      "details": {
        "undocumented": true
      }
    },
    {
      "id": "2026-04-04-50017",
      "date": "2026-04-04",
      "commit": "89630f2ede38",
      "dimension": "role_permissions",
      "change_type": "permission_added_to_role",
      "permission": "compute.subnetworks.get",
      "role": "roles/notebooks.editor",
      "service": "compute",
      "method": "",
      "severity": "MEDIUM",
      "tags": [],
      "details": {
        "undocumented": true
      }
    },
    {
      "id": "2026-04-04-50018",
      "date": "2026-04-04",
      "commit": "89630f2ede38",
      "dimension": "role_permissions",
      "change_type": "permission_added_to_role",
      "permission": "compute.subnetworks.get",
      "role": "roles/compute.editor",
      "service": "compute",
      "method": "",
      "severity": "MEDIUM",
      "tags": [],
      "details": {
        "undocumented": true
      }
    },
    {
      "id": "2026-04-04-50019",
      "date": "2026-04-04",
      "commit": "89630f2ede38",
      "dimension": "role_permissions",
      "change_type": "permission_added_to_role",
      "permission": "networksecurity.dnsThreatDetectors.delete",
      "role": "roles/networksecurity.admin",
      "service": "networksecurity",
      "method": "",
      "severity": "HIGH",
      "tags": [],
      "details": {
        "undocumented": true
      }
    },
    {
      "id": "2026-04-04-50020",
      "date": "2026-04-04",
      "commit": "89630f2ede38",
      "dimension": "role_permissions",
      "change_type": "permission_added_to_role",
      "permission": "networksecurity.dnsThreatDetectors.delete",
      "role": "roles/networksecurity.editor",
      "service": "networksecurity",
      "method": "",
      "severity": "HIGH",
      "tags": [],
      "details": {
        "undocumented": true
      }
    },
    {
      "id": "2026-04-04-50021",
      "date": "2026-04-04",
      "commit": "89630f2ede38",
      "dimension": "role_permissions",
      "change_type": "permission_added_to_role",
      "permission": "compute.regionUrlMaps.list",
      "role": "roles/notebooks.editor",
      "service": "compute",
      "method": "",
      "severity": "MEDIUM",
      "tags": [],
      "details": {
        "undocumented": true
      }
    },
    {
      "id": "2026-04-04-50022",
      "date": "2026-04-04",
      "commit": "89630f2ede38",
      "dimension": "role_permissions",
      "change_type": "permission_added_to_role",
      "permission": "compute.regionUrlMaps.list",
      "role": "roles/compute.editor",
      "service": "compute",
      "method": "",
      "severity": "MEDIUM",
      "tags": [],
      "details": {
        "undocumented": true
      }
    },
    {
      "id": "2026-04-04-50023",
      "date": "2026-04-04",
      "commit": "89630f2ede38",
      "dimension": "role_permissions",
      "change_type": "permission_added_to_role",
      "permission": "compute.regionFirewallPolicies.update",
      "role": "roles/compute.editor",
      "service": "compute",
      "method": "",
      "severity": "HIGH",
      "tags": [],
      "details": {
        "undocumented": true
      }
    },
    {
      "id": "2026-04-04-50024",
      "date": "2026-04-04",
      "commit": "89630f2ede38",
      "dimension": "role_permissions",
      "change_type": "permission_added_to_role",
      "permission": "eventarc.pipelines.create",
      "role": "roles/cloudfunctions.editor",
      "service": "eventarc",
      "method": "",
      "severity": "HIGH",
      "tags": [],
      "details": {
        "undocumented": true
      }
    },
    {
      "id": "2026-04-04-50025",
      "date": "2026-04-04",
      "commit": "89630f2ede38",
      "dimension": "role_permissions",
      "change_type": "permission_added_to_role",
      "permission": "networkservices.lbRouteExtensions.list",
      "role": "roles/networkservices.editor",
      "service": "networkservices",
      "method": "",
      "severity": "MEDIUM",
      "tags": [],
      "details": {
        "undocumented": true
      }
    },
    {
      "id": "2026-04-04-50026",
      "date": "2026-04-04",
      "commit": "89630f2ede38",
      "dimension": "role_permissions",
      "change_type": "permission_added_to_role",
      "permission": "networkservices.lbRouteExtensions.list",
      "role": "roles/networkservices.admin",
      "service": "networkservices",
      "method": "",
      "severity": "MEDIUM",
      "tags": [],
      "details": {
        "undocumented": true
      }
    },
    {
      "id": "2026-04-04-50027",
      "date": "2026-04-04",
      "commit": "89630f2ede38",
      "dimension": "role_permissions",
      "change_type": "permission_added_to_role",
      "permission": "networkservices.lbRouteExtensions.list",
      "role": "roles/networkservices.viewer",
      "service": "networkservices",
      "method": "",
      "severity": "MEDIUM",
      "tags": [],
      "details": {
        "undocumented": true
      }
    },
    {
      "id": "2026-04-04-50028",
      "date": "2026-04-04",
      "commit": "89630f2ede38",
      "dimension": "role_permissions",
      "change_type": "permission_added_to_role",
      "permission": "paymentsresellersubscription.subscriptions.suspend",
      "role": "roles/paymentsresellersubscription.admin",
      "service": "paymentsresellersubscription",
      "method": "",
      "severity": "MEDIUM",
      "tags": [],
      "details": {
        "undocumented": true
      }
    },
    {
      "id": "2026-04-04-50029",
      "date": "2026-04-04",
      "commit": "89630f2ede38",
      "dimension": "role_permissions",
      "change_type": "permission_added_to_role",
      "permission": "securitycentermanagement.securityHealthAnalyticsCustomModules.list",
      "role": "roles/securitycentermanagement.editor",
      "service": "securitycentermanagement",
      "method": "",
      "severity": "MEDIUM",
      "tags": [],
      "details": {
        "undocumented": true
      }
    },
    {
      "id": "2026-04-04-50030",
      "date": "2026-04-04",
      "commit": "89630f2ede38",
      "dimension": "role_permissions",
      "change_type": "permission_added_to_role",
      "permission": "composer.userworkloadssecrets.create",
      "role": "roles/composer.editor",
      "service": "composer",
      "method": "",
      "severity": "HIGH",
      "tags": [],
      "details": {
        "undocumented": true
      }
    },
    {
      "id": "2026-04-04-50031",
      "date": "2026-04-04",
      "commit": "89630f2ede38",
      "dimension": "role_permissions",
      "change_type": "permission_added_to_role",
      "permission": "compute.regionTargetHttpProxies.use",
      "role": "roles/compute.editor",
      "service": "compute",
      "method": "",
      "severity": "MEDIUM",
      "tags": [],
      "details": {
        "undocumented": true
      }
    },
    {
      "id": "2026-04-04-50032",
      "date": "2026-04-04",
      "commit": "89630f2ede38",
      "dimension": "role_permissions",
      "change_type": "permission_added_to_role",
      "permission": "datastore.backups.delete",
      "role": "roles/datastore.admin",
      "service": "datastore",
      "method": "",
      "severity": "HIGH",
      "tags": [],
      "details": {
        "undocumented": true
      }
    },
    {
      "id": "2026-04-04-50033",
      "date": "2026-04-04",
      "commit": "89630f2ede38",
      "dimension": "role_permissions",
      "change_type": "permission_added_to_role",
      "permission": "datastore.backups.delete",
      "role": "roles/datastore.editor",
      "service": "datastore",
      "method": "",
      "severity": "HIGH",
      "tags": [],
      "details": {
        "undocumented": true
      }
    }
  ],
  "summary": {
    "by_severity": {
      "CRITICAL": 428,
      "HIGH": 11115,
      "MEDIUM": 37352,
      "INFO": 1138
    },
    "by_dimension": {
      "methods": 1054,
      "method_map": 562,
      "predefined_roles": 754,
      "role_permissions": 47663
    },
    "new_services": []
  }
}