{
  "generated_at": "2026-06-14T16:30:22Z",
  "total_entries": 1513,
  "pages": 16,
  "page": 16,
  "page_size": 100,
  "entries": [
    {
      "id": "2026-05-17-1501",
      "date": "2026-05-17",
      "commit": "0b63cf1d945b",
      "dimension": "role_permissions",
      "change_type": "permission_added_to_role",
      "permission": "chronicle.investigations.transitionReviewState",
      "role": "roles/chronicle.editor",
      "service": "chronicle",
      "method": "",
      "severity": "MEDIUM",
      "tags": [],
      "details": {
        "undocumented": true
      }
    },
    {
      "id": "2026-05-17-1502",
      "date": "2026-05-17",
      "commit": "0b63cf1d945b",
      "dimension": "methods",
      "change_type": "added",
      "permission": "",
      "role": "",
      "service": "dataplex",
      "method": "dataplex.projects.locations.dataProducts.requestAccess",
      "severity": "INFO",
      "tags": [],
      "details": {
        "service": "dataplex"
      }
    },
    {
      "id": "2026-05-17-1503",
      "date": "2026-05-17",
      "commit": "0b63cf1d945b",
      "dimension": "methods",
      "change_type": "added",
      "permission": "",
      "role": "",
      "service": "networkconnectivity",
      "method": "networkconnectivity.projects.locations.spokes.gatewayAdvertisedRoutes.get",
      "severity": "INFO",
      "tags": [],
      "details": {
        "service": "networkconnectivity"
      }
    },
    {
      "id": "2026-05-17-1504",
      "date": "2026-05-17",
      "commit": "0b63cf1d945b",
      "dimension": "methods",
      "change_type": "added",
      "permission": "",
      "role": "",
      "service": "networkconnectivity",
      "method": "networkconnectivity.projects.locations.spokes.gatewayAdvertisedRoutes.create",
      "severity": "HIGH",
      "tags": [],
      "details": {
        "service": "networkconnectivity"
      }
    },
    {
      "id": "2026-05-17-1505",
      "date": "2026-05-17",
      "commit": "0b63cf1d945b",
      "dimension": "methods",
      "change_type": "added",
      "permission": "",
      "role": "",
      "service": "networkconnectivity",
      "method": "networkconnectivity.projects.locations.spokes.gatewayAdvertisedRoutes.list",
      "severity": "INFO",
      "tags": [],
      "details": {
        "service": "networkconnectivity"
      }
    },
    {
      "id": "2026-05-17-1506",
      "date": "2026-05-17",
      "commit": "0b63cf1d945b",
      "dimension": "methods",
      "change_type": "added",
      "permission": "",
      "role": "",
      "service": "networkconnectivity",
      "method": "networkconnectivity.projects.locations.spokes.gatewayAdvertisedRoutes.delete",
      "severity": "HIGH",
      "tags": [],
      "details": {
        "service": "networkconnectivity"
      }
    },
    {
      "id": "2026-05-17-1507",
      "date": "2026-05-17",
      "commit": "0b63cf1d945b",
      "dimension": "methods",
      "change_type": "added",
      "permission": "",
      "role": "",
      "service": "networkconnectivity",
      "method": "networkconnectivity.projects.locations.spokes.gatewayAdvertisedRoutes.patch",
      "severity": "HIGH",
      "tags": [],
      "details": {
        "service": "networkconnectivity"
      }
    },
    {
      "id": "2026-05-17-1508",
      "date": "2026-05-17",
      "commit": "0b63cf1d945b",
      "dimension": "method_map",
      "change_type": "unmapped_method",
      "permission": "",
      "role": "",
      "service": "networkconnectivity",
      "method": "networkconnectivity.projects.locations.spokes.gatewayAdvertisedRoutes.get",
      "severity": "INFO",
      "tags": [],
      "details": {
        "note": "New method has no permission mapping"
      }
    },
    {
      "id": "2026-05-17-1509",
      "date": "2026-05-17",
      "commit": "0b63cf1d945b",
      "dimension": "method_map",
      "change_type": "unmapped_method",
      "permission": "",
      "role": "",
      "service": "networkconnectivity",
      "method": "networkconnectivity.projects.locations.spokes.gatewayAdvertisedRoutes.create",
      "severity": "HIGH",
      "tags": [],
      "details": {
        "note": "New method has no permission mapping"
      }
    },
    {
      "id": "2026-05-17-1510",
      "date": "2026-05-17",
      "commit": "0b63cf1d945b",
      "dimension": "method_map",
      "change_type": "unmapped_method",
      "permission": "",
      "role": "",
      "service": "networkconnectivity",
      "method": "networkconnectivity.projects.locations.spokes.gatewayAdvertisedRoutes.list",
      "severity": "INFO",
      "tags": [],
      "details": {
        "note": "New method has no permission mapping"
      }
    },
    {
      "id": "2026-05-17-1511",
      "date": "2026-05-17",
      "commit": "0b63cf1d945b",
      "dimension": "method_map",
      "change_type": "unmapped_method",
      "permission": "",
      "role": "",
      "service": "dataplex",
      "method": "dataplex.projects.locations.dataProducts.requestAccess",
      "severity": "INFO",
      "tags": [],
      "details": {
        "note": "New method has no permission mapping"
      }
    },
    {
      "id": "2026-05-17-1512",
      "date": "2026-05-17",
      "commit": "0b63cf1d945b",
      "dimension": "method_map",
      "change_type": "unmapped_method",
      "permission": "",
      "role": "",
      "service": "networkconnectivity",
      "method": "networkconnectivity.projects.locations.spokes.gatewayAdvertisedRoutes.delete",
      "severity": "HIGH",
      "tags": [],
      "details": {
        "note": "New method has no permission mapping"
      }
    },
    {
      "id": "2026-05-17-1513",
      "date": "2026-05-17",
      "commit": "0b63cf1d945b",
      "dimension": "method_map",
      "change_type": "unmapped_method",
      "permission": "",
      "role": "",
      "service": "networkconnectivity",
      "method": "networkconnectivity.projects.locations.spokes.gatewayAdvertisedRoutes.patch",
      "severity": "HIGH",
      "tags": [],
      "details": {
        "note": "New method has no permission mapping"
      }
    }
  ],
  "summary": {
    "by_severity": {
      "CRITICAL": 3,
      "HIGH": 338,
      "MEDIUM": 1014,
      "INFO": 158
    },
    "by_dimension": {
      "methods": 112,
      "method_map": 107,
      "predefined_roles": 36,
      "role_permissions": 1258
    },
    "new_services": []
  }
}