{
  "generated_at": "2026-05-08T17:02:47Z",
  "total_entries": 24764,
  "pages": 248,
  "page": 248,
  "page_size": 100,
  "entries": [
    {
      "id": "2026-04-08-24701",
      "date": "2026-04-08",
      "commit": "d2a5d01961d6",
      "dimension": "method_map",
      "change_type": "unmapped_method",
      "permission": "",
      "role": "",
      "service": "displayvideo",
      "method": "displayvideo.advertisers.adGroupAds.delete",
      "severity": "HIGH",
      "tags": [],
      "details": {
        "note": "New method has no permission mapping"
      }
    },
    {
      "id": "2026-04-08-24702",
      "date": "2026-04-08",
      "commit": "d2a5d01961d6",
      "dimension": "method_map",
      "change_type": "unmapped_method",
      "permission": "",
      "role": "",
      "service": "cloudkms",
      "method": "cloudkms.projects.locations.singleTenantHsmInstances.get",
      "severity": "INFO",
      "tags": [],
      "details": {
        "note": "New method has no permission mapping"
      }
    },
    {
      "id": "2026-04-08-24703",
      "date": "2026-04-08",
      "commit": "d2a5d01961d6",
      "dimension": "method_map",
      "change_type": "unmapped_method",
      "permission": "",
      "role": "",
      "service": "apphub",
      "method": "apphub.projects.locations.extendedMetadataSchemas.get",
      "severity": "INFO",
      "tags": [],
      "details": {
        "note": "New method has no permission mapping"
      }
    },
    {
      "id": "2026-04-08-24704",
      "date": "2026-04-08",
      "commit": "d2a5d01961d6",
      "dimension": "method_map",
      "change_type": "unmapped_method",
      "permission": "",
      "role": "",
      "service": "compute",
      "method": "compute.regionRecoverableSnapshots.get",
      "severity": "INFO",
      "tags": [],
      "details": {
        "note": "New method has no permission mapping"
      }
    },
    {
      "id": "2026-04-08-24705",
      "date": "2026-04-08",
      "commit": "d2a5d01961d6",
      "dimension": "method_map",
      "change_type": "unmapped_method",
      "permission": "",
      "role": "",
      "service": "workspaceevents",
      "method": "workspaceevents.tasks.pushNotificationConfigs.get",
      "severity": "INFO",
      "tags": [],
      "details": {
        "note": "New method has no permission mapping"
      }
    },
    {
      "id": "2026-04-08-24706",
      "date": "2026-04-08",
      "commit": "d2a5d01961d6",
      "dimension": "method_map",
      "change_type": "unmapped_method",
      "permission": "",
      "role": "",
      "service": "gkebackup",
      "method": "gkebackup.projects.locations.restorePlans.setTags",
      "severity": "INFO",
      "tags": [],
      "details": {
        "note": "New method has no permission mapping"
      }
    },
    {
      "id": "2026-04-08-24707",
      "date": "2026-04-08",
      "commit": "d2a5d01961d6",
      "dimension": "method_map",
      "change_type": "unmapped_method",
      "permission": "",
      "role": "",
      "service": "chat",
      "method": "chat.users.sections.list",
      "severity": "INFO",
      "tags": [],
      "details": {
        "note": "New method has no permission mapping"
      }
    },
    {
      "id": "2026-04-08-24708",
      "date": "2026-04-08",
      "commit": "d2a5d01961d6",
      "dimension": "method_map",
      "change_type": "unmapped_method",
      "permission": "",
      "role": "",
      "service": "classroom",
      "method": "classroom.courses.studentGroups.list",
      "severity": "INFO",
      "tags": [],
      "details": {
        "note": "New method has no permission mapping"
      }
    },
    {
      "id": "2026-04-08-24709",
      "date": "2026-04-08",
      "commit": "d2a5d01961d6",
      "dimension": "method_map",
      "change_type": "unmapped_method",
      "permission": "",
      "role": "",
      "service": "discoveryengine",
      "method": "discoveryengine.projects.locations.collections.engines.assistants.agents.a2a.v1.tasks.pushNotificationConfigs.list",
      "severity": "INFO",
      "tags": [],
      "details": {
        "note": "New method has no permission mapping"
      }
    },
    {
      "id": "2026-04-08-24710",
      "date": "2026-04-08",
      "commit": "d2a5d01961d6",
      "dimension": "method_map",
      "change_type": "unmapped_method",
      "permission": "",
      "role": "",
      "service": "discoveryengine",
      "method": "discoveryengine.projects.locations.collections.engines.assistants.delete",
      "severity": "HIGH",
      "tags": [],
      "details": {
        "note": "New method has no permission mapping"
      }
    },
    {
      "id": "2026-04-08-24711",
      "date": "2026-04-08",
      "commit": "d2a5d01961d6",
      "dimension": "method_map",
      "change_type": "unmapped_method",
      "permission": "",
      "role": "",
      "service": "dataplex",
      "method": "dataplex.projects.locations.metadataFeeds.get",
      "severity": "INFO",
      "tags": [],
      "details": {
        "note": "New method has no permission mapping"
      }
    },
    {
      "id": "2026-04-08-24712",
      "date": "2026-04-08",
      "commit": "d2a5d01961d6",
      "dimension": "method_map",
      "change_type": "unmapped_method",
      "permission": "",
      "role": "",
      "service": "config",
      "method": "config.projects.locations.deploymentGroups.delete",
      "severity": "HIGH",
      "tags": [],
      "details": {
        "note": "New method has no permission mapping"
      }
    },
    {
      "id": "2026-04-08-24713",
      "date": "2026-04-08",
      "commit": "d2a5d01961d6",
      "dimension": "method_map",
      "change_type": "unmapped_method",
      "permission": "",
      "role": "",
      "service": "workloadmanager",
      "method": "workloadmanager.projects.locations.deployments.actuations.delete",
      "severity": "HIGH",
      "tags": [],
      "details": {
        "note": "New method has no permission mapping"
      }
    },
    {
      "id": "2026-04-08-24714",
      "date": "2026-04-08",
      "commit": "d2a5d01961d6",
      "dimension": "method_map",
      "change_type": "unmapped_method",
      "permission": "",
      "role": "",
      "service": "contactcenterinsights",
      "method": "contactcenterinsights.projects.locations.datasets.conversations.generateSignedAudio",
      "severity": "INFO",
      "tags": [],
      "details": {
        "note": "New method has no permission mapping"
      }
    },
    {
      "id": "2026-04-08-24715",
      "date": "2026-04-08",
      "commit": "d2a5d01961d6",
      "dimension": "method_map",
      "change_type": "unmapped_method",
      "permission": "",
      "role": "",
      "service": "contactcenterinsights",
      "method": "contactcenterinsights.projects.locations.autoLabelingRules.list",
      "severity": "INFO",
      "tags": [],
      "details": {
        "note": "New method has no permission mapping"
      }
    },
    {
      "id": "2026-04-08-24716",
      "date": "2026-04-08",
      "commit": "d2a5d01961d6",
      "dimension": "method_map",
      "change_type": "unmapped_method",
      "permission": "",
      "role": "",
      "service": "osconfig",
      "method": "osconfig.projects.locations.operations.get",
      "severity": "INFO",
      "tags": [],
      "details": {
        "note": "New method has no permission mapping"
      }
    },
    {
      "id": "2026-04-08-24717",
      "date": "2026-04-08",
      "commit": "d2a5d01961d6",
      "dimension": "method_map",
      "change_type": "unmapped_method",
      "permission": "",
      "role": "",
      "service": "apigee",
      "method": "apigee.organizations.appgroups.balance.credit",
      "severity": "INFO",
      "tags": [],
      "details": {
        "note": "New method has no permission mapping"
      }
    },
    {
      "id": "2026-04-08-24718",
      "date": "2026-04-08",
      "commit": "d2a5d01961d6",
      "dimension": "method_map",
      "change_type": "unmapped_method",
      "permission": "",
      "role": "",
      "service": "aiplatform",
      "method": "aiplatform.reasoningEngines.memories.operations.list",
      "severity": "INFO",
      "tags": [],
      "details": {
        "note": "New method has no permission mapping"
      }
    },
    {
      "id": "2026-04-08-24719",
      "date": "2026-04-08",
      "commit": "d2a5d01961d6",
      "dimension": "method_map",
      "change_type": "unmapped_method",
      "permission": "",
      "role": "",
      "service": "redis",
      "method": "redis.projects.locations.aclPolicies.create",
      "severity": "HIGH",
      "tags": [],
      "details": {
        "note": "New method has no permission mapping"
      }
    },
    {
      "id": "2026-04-08-24720",
      "date": "2026-04-08",
      "commit": "d2a5d01961d6",
      "dimension": "method_map",
      "change_type": "unmapped_method",
      "permission": "",
      "role": "",
      "service": "tagmanager",
      "method": "tagmanager.accounts.containers.workspaces.bulk_update",
      "severity": "INFO",
      "tags": [],
      "details": {
        "note": "New method has no permission mapping"
      }
    },
    {
      "id": "2026-04-08-24721",
      "date": "2026-04-08",
      "commit": "d2a5d01961d6",
      "dimension": "method_map",
      "change_type": "unmapped_method",
      "permission": "",
      "role": "",
      "service": "workspaceevents",
      "method": "workspaceevents.tasks.pushNotificationConfigs.delete",
      "severity": "HIGH",
      "tags": [],
      "details": {
        "note": "New method has no permission mapping"
      }
    },
    {
      "id": "2026-04-08-24722",
      "date": "2026-04-08",
      "commit": "d2a5d01961d6",
      "dimension": "method_map",
      "change_type": "unmapped_method",
      "permission": "",
      "role": "",
      "service": "run",
      "method": "run.projects.locations.instances.getIamPolicy",
      "severity": "INFO",
      "tags": [],
      "details": {
        "note": "New method has no permission mapping"
      }
    },
    {
      "id": "2026-04-08-24723",
      "date": "2026-04-08",
      "commit": "d2a5d01961d6",
      "dimension": "method_map",
      "change_type": "unmapped_method",
      "permission": "",
      "role": "",
      "service": "dataplex",
      "method": "dataplex.projects.locations.dataDomains.getIamPolicy",
      "severity": "INFO",
      "tags": [],
      "details": {
        "note": "New method has no permission mapping"
      }
    },
    {
      "id": "2026-04-08-24724",
      "date": "2026-04-08",
      "commit": "d2a5d01961d6",
      "dimension": "method_map",
      "change_type": "unmapped_method",
      "permission": "",
      "role": "",
      "service": "discoveryengine",
      "method": "discoveryengine.projects.locations.completeExternalIdentities",
      "severity": "INFO",
      "tags": [],
      "details": {
        "note": "New method has no permission mapping"
      }
    },
    {
      "id": "2026-04-08-24725",
      "date": "2026-04-08",
      "commit": "d2a5d01961d6",
      "dimension": "method_map",
      "change_type": "unmapped_method",
      "permission": "",
      "role": "",
      "service": "compute",
      "method": "compute.regionInstanceGroupManagers.adoptInstances",
      "severity": "INFO",
      "tags": [],
      "details": {
        "note": "New method has no permission mapping"
      }
    },
    {
      "id": "2026-04-08-24726",
      "date": "2026-04-08",
      "commit": "d2a5d01961d6",
      "dimension": "method_map",
      "change_type": "unmapped_method",
      "permission": "",
      "role": "",
      "service": "run",
      "method": "run.namespaces.instances.stop",
      "severity": "INFO",
      "tags": [],
      "details": {
        "note": "New method has no permission mapping"
      }
    },
    {
      "id": "2026-04-08-24727",
      "date": "2026-04-08",
      "commit": "d2a5d01961d6",
      "dimension": "method_map",
      "change_type": "unmapped_method",
      "permission": "",
      "role": "",
      "service": "iamcredentials",
      "method": "iamcredentials.projects.locations.workloadIdentityPools.getAllowedLocations",
      "severity": "INFO",
      "tags": [],
      "details": {
        "note": "New method has no permission mapping"
      }
    },
    {
      "id": "2026-04-08-24728",
      "date": "2026-04-08",
      "commit": "d2a5d01961d6",
      "dimension": "method_map",
      "change_type": "unmapped_method",
      "permission": "",
      "role": "",
      "service": "aiplatform",
      "method": "aiplatform.reasoningEngines.sandboxEnvironments.get",
      "severity": "INFO",
      "tags": [],
      "details": {
        "note": "New method has no permission mapping"
      }
    },
    {
      "id": "2026-04-08-24729",
      "date": "2026-04-08",
      "commit": "d2a5d01961d6",
      "dimension": "method_map",
      "change_type": "unmapped_method",
      "permission": "",
      "role": "",
      "service": "workspaceevents",
      "method": "workspaceevents.tasks.pushNotificationConfigs.list",
      "severity": "INFO",
      "tags": [],
      "details": {
        "note": "New method has no permission mapping"
      }
    },
    {
      "id": "2026-04-08-24730",
      "date": "2026-04-08",
      "commit": "d2a5d01961d6",
      "dimension": "method_map",
      "change_type": "unmapped_method",
      "permission": "",
      "role": "",
      "service": "gkebackup",
      "method": "gkebackup.projects.locations.restorePlans.getTags",
      "severity": "INFO",
      "tags": [],
      "details": {
        "note": "New method has no permission mapping"
      }
    },
    {
      "id": "2026-04-08-24731",
      "date": "2026-04-08",
      "commit": "d2a5d01961d6",
      "dimension": "method_map",
      "change_type": "unmapped_method",
      "permission": "",
      "role": "",
      "service": "run",
      "method": "run.projects.locations.instances.list",
      "severity": "INFO",
      "tags": [],
      "details": {
        "note": "New method has no permission mapping"
      }
    },
    {
      "id": "2026-04-08-24732",
      "date": "2026-04-08",
      "commit": "d2a5d01961d6",
      "dimension": "method_map",
      "change_type": "unmapped_method",
      "permission": "",
      "role": "",
      "service": "workloadmanager",
      "method": "workloadmanager.projects.locations.deployments.list",
      "severity": "INFO",
      "tags": [],
      "details": {
        "note": "New method has no permission mapping"
      }
    },
    {
      "id": "2026-04-08-24733",
      "date": "2026-04-08",
      "commit": "d2a5d01961d6",
      "dimension": "method_map",
      "change_type": "unmapped_method",
      "permission": "",
      "role": "",
      "service": "dataplex",
      "method": "dataplex.projects.locations.dataProducts.dataAssets.get",
      "severity": "INFO",
      "tags": [],
      "details": {
        "note": "New method has no permission mapping"
      }
    },
    {
      "id": "2026-04-08-24734",
      "date": "2026-04-08",
      "commit": "d2a5d01961d6",
      "dimension": "method_map",
      "change_type": "unmapped_method",
      "permission": "",
      "role": "",
      "service": "contactcenterinsights",
      "method": "contactcenterinsights.projects.locations.autoLabelingRules.get",
      "severity": "INFO",
      "tags": [],
      "details": {
        "note": "New method has no permission mapping"
      }
    },
    {
      "id": "2026-04-08-24735",
      "date": "2026-04-08",
      "commit": "d2a5d01961d6",
      "dimension": "method_map",
      "change_type": "unmapped_method",
      "permission": "",
      "role": "",
      "service": "meet",
      "method": "meet.conferenceRecords.smartNotes.get",
      "severity": "INFO",
      "tags": [],
      "details": {
        "note": "New method has no permission mapping"
      }
    },
    {
      "id": "2026-04-08-24736",
      "date": "2026-04-08",
      "commit": "d2a5d01961d6",
      "dimension": "method_map",
      "change_type": "unmapped_method",
      "permission": "",
      "role": "",
      "service": "aiplatform",
      "method": "aiplatform.projects.locations.reasoningEngines.getIamPolicy",
      "severity": "INFO",
      "tags": [],
      "details": {
        "note": "New method has no permission mapping"
      }
    },
    {
      "id": "2026-04-08-24737",
      "date": "2026-04-08",
      "commit": "d2a5d01961d6",
      "dimension": "method_map",
      "change_type": "unmapped_method",
      "permission": "",
      "role": "",
      "service": "displayvideo",
      "method": "displayvideo.advertisers.adGroups.targetingTypes.assignedTargetingOptions.create",
      "severity": "HIGH",
      "tags": [],
      "details": {
        "note": "New method has no permission mapping"
      }
    },
    {
      "id": "2026-04-08-24738",
      "date": "2026-04-08",
      "commit": "d2a5d01961d6",
      "dimension": "method_map",
      "change_type": "unmapped_method",
      "permission": "",
      "role": "",
      "service": "appengine",
      "method": "appengine.projects.locations.applications.services.versions.exportAppImage",
      "severity": "INFO",
      "tags": [],
      "details": {
        "note": "New method has no permission mapping"
      }
    },
    {
      "id": "2026-04-08-24739",
      "date": "2026-04-08",
      "commit": "d2a5d01961d6",
      "dimension": "method_map",
      "change_type": "unmapped_method",
      "permission": "",
      "role": "",
      "service": "compute",
      "method": "compute.zoneVmExtensionPolicies.listVmExtensions",
      "severity": "INFO",
      "tags": [],
      "details": {
        "note": "New method has no permission mapping"
      }
    },
    {
      "id": "2026-04-08-24740",
      "date": "2026-04-08",
      "commit": "d2a5d01961d6",
      "dimension": "method_map",
      "change_type": "unmapped_method",
      "permission": "",
      "role": "",
      "service": "dataplex",
      "method": "dataplex.projects.locations.dataProducts.get",
      "severity": "INFO",
      "tags": [],
      "details": {
        "note": "New method has no permission mapping"
      }
    },
    {
      "id": "2026-04-08-24741",
      "date": "2026-04-08",
      "commit": "d2a5d01961d6",
      "dimension": "method_map",
      "change_type": "unmapped_method",
      "permission": "",
      "role": "",
      "service": "chat",
      "method": "chat.users.sections.delete",
      "severity": "HIGH",
      "tags": [],
      "details": {
        "note": "New method has no permission mapping"
      }
    },
    {
      "id": "2026-04-08-24742",
      "date": "2026-04-08",
      "commit": "d2a5d01961d6",
      "dimension": "method_map",
      "change_type": "unmapped_method",
      "permission": "",
      "role": "",
      "service": "contactcenterinsights",
      "method": "contactcenterinsights.projects.locations.dashboards.charts.delete",
      "severity": "HIGH",
      "tags": [],
      "details": {
        "note": "New method has no permission mapping"
      }
    },
    {
      "id": "2026-04-08-24743",
      "date": "2026-04-08",
      "commit": "d2a5d01961d6",
      "dimension": "method_map",
      "change_type": "unmapped_method",
      "permission": "",
      "role": "",
      "service": "dataform",
      "method": "dataform.projects.locations.queryUserRootContents",
      "severity": "INFO",
      "tags": [],
      "details": {
        "note": "New method has no permission mapping"
      }
    },
    {
      "id": "2026-04-08-24744",
      "date": "2026-04-08",
      "commit": "d2a5d01961d6",
      "dimension": "method_map",
      "change_type": "unmapped_method",
      "permission": "",
      "role": "",
      "service": "migrationcenter",
      "method": "migrationcenter.projects.locations.reportConfigs.reports.reportExportJobs.create",
      "severity": "HIGH",
      "tags": [],
      "details": {
        "note": "New method has no permission mapping"
      }
    },
    {
      "id": "2026-04-08-24745",
      "date": "2026-04-08",
      "commit": "d2a5d01961d6",
      "dimension": "method_map",
      "change_type": "unmapped_method",
      "permission": "",
      "role": "",
      "service": "gkehub",
      "method": "gkehub.projects.locations.rolloutSequences.get",
      "severity": "INFO",
      "tags": [],
      "details": {
        "note": "New method has no permission mapping"
      }
    },
    {
      "id": "2026-04-08-24746",
      "date": "2026-04-08",
      "commit": "d2a5d01961d6",
      "dimension": "method_map",
      "change_type": "unmapped_method",
      "permission": "",
      "role": "",
      "service": "workspaceevents",
      "method": "workspaceevents.tasks.cancel",
      "severity": "INFO",
      "tags": [],
      "details": {
        "note": "New method has no permission mapping"
      }
    },
    {
      "id": "2026-04-08-24747",
      "date": "2026-04-08",
      "commit": "d2a5d01961d6",
      "dimension": "method_map",
      "change_type": "unmapped_method",
      "permission": "",
      "role": "",
      "service": "cloudtasks",
      "method": "cloudtasks.projects.locations.operations.get",
      "severity": "INFO",
      "tags": [],
      "details": {
        "note": "New method has no permission mapping"
      }
    },
    {
      "id": "2026-04-08-24748",
      "date": "2026-04-08",
      "commit": "d2a5d01961d6",
      "dimension": "method_map",
      "change_type": "unmapped_method",
      "permission": "",
      "role": "",
      "service": "run",
      "method": "run.namespaces.instances.start",
      "severity": "INFO",
      "tags": [],
      "details": {
        "note": "New method has no permission mapping"
      }
    },
    {
      "id": "2026-04-08-24749",
      "date": "2026-04-08",
      "commit": "d2a5d01961d6",
      "dimension": "method_map",
      "change_type": "unmapped_method",
      "permission": "",
      "role": "",
      "service": "aiplatform",
      "method": "aiplatform.projects.locations.endpoints.google.science.inference",
      "severity": "INFO",
      "tags": [],
      "details": {
        "note": "New method has no permission mapping"
      }
    },
    {
      "id": "2026-04-08-24750",
      "date": "2026-04-08",
      "commit": "d2a5d01961d6",
      "dimension": "method_map",
      "change_type": "unmapped_method",
      "permission": "",
      "role": "",
      "service": "contactcenterinsights",
      "method": "contactcenterinsights.projects.locations.testCorrelationConfig",
      "severity": "INFO",
      "tags": [],
      "details": {
        "note": "New method has no permission mapping"
      }
    },
    {
      "id": "2026-04-08-24751",
      "date": "2026-04-08",
      "commit": "d2a5d01961d6",
      "dimension": "method_map",
      "change_type": "unmapped_method",
      "permission": "",
      "role": "",
      "service": "chromemanagement",
      "method": "chromemanagement.customers.reports.countDevicesPerReleaseChannel",
      "severity": "INFO",
      "tags": [],
      "details": {
        "note": "New method has no permission mapping"
      }
    },
    {
      "id": "2026-04-08-24752",
      "date": "2026-04-08",
      "commit": "d2a5d01961d6",
      "dimension": "method_map",
      "change_type": "unmapped_method",
      "permission": "",
      "role": "",
      "service": "sqladmin",
      "method": "sqladmin.sql.instances.ListEntraIdCertificates",
      "severity": "INFO",
      "tags": [],
      "details": {
        "note": "New method has no permission mapping"
      }
    },
    {
      "id": "2026-04-08-24753",
      "date": "2026-04-08",
      "commit": "d2a5d01961d6",
      "dimension": "method_map",
      "change_type": "unmapped_method",
      "permission": "",
      "role": "",
      "service": "run",
      "method": "run.projects.locations.instances.delete",
      "severity": "HIGH",
      "tags": [],
      "details": {
        "note": "New method has no permission mapping"
      }
    },
    {
      "id": "2026-04-08-24754",
      "date": "2026-04-08",
      "commit": "d2a5d01961d6",
      "dimension": "method_map",
      "change_type": "unmapped_method",
      "permission": "",
      "role": "",
      "service": "dataform",
      "method": "dataform.projects.locations.folders.patch",
      "severity": "HIGH",
      "tags": [],
      "details": {
        "note": "New method has no permission mapping"
      }
    },
    {
      "id": "2026-04-08-24755",
      "date": "2026-04-08",
      "commit": "d2a5d01961d6",
      "dimension": "method_map",
      "change_type": "unmapped_method",
      "permission": "",
      "role": "",
      "service": "dataform",
      "method": "dataform.projects.locations.repositories.move",
      "severity": "INFO",
      "tags": [],
      "details": {
        "note": "New method has no permission mapping"
      }
    },
    {
      "id": "2026-04-08-24756",
      "date": "2026-04-08",
      "commit": "d2a5d01961d6",
      "dimension": "method_map",
      "change_type": "unmapped_method",
      "permission": "",
      "role": "",
      "service": "dataplex",
      "method": "dataplex.projects.locations.dataProducts.getIamPolicy",
      "severity": "INFO",
      "tags": [],
      "details": {
        "note": "New method has no permission mapping"
      }
    },
    {
      "id": "2026-04-08-24757",
      "date": "2026-04-08",
      "commit": "d2a5d01961d6",
      "dimension": "method_map",
      "change_type": "unmapped_method",
      "permission": "",
      "role": "",
      "service": "aiplatform",
      "method": "aiplatform.projects.locations.reasoningEngines.memories.revisions.get",
      "severity": "INFO",
      "tags": [],
      "details": {
        "note": "New method has no permission mapping"
      }
    },
    {
      "id": "2026-04-08-24758",
      "date": "2026-04-08",
      "commit": "d2a5d01961d6",
      "dimension": "method_map",
      "change_type": "unmapped_method",
      "permission": "",
      "role": "",
      "service": "redis",
      "method": "redis.projects.locations.clusters.tokenAuthUsers.get",
      "severity": "INFO",
      "tags": [],
      "details": {
        "note": "New method has no permission mapping"
      }
    },
    {
      "id": "2026-04-08-24759",
      "date": "2026-04-08",
      "commit": "d2a5d01961d6",
      "dimension": "method_map",
      "change_type": "unmapped_method",
      "permission": "",
      "role": "",
      "service": "contactcenterinsights",
      "method": "contactcenterinsights.projects.locations.authorizedViewSets.authorizedViews.generativeInsights",
      "severity": "INFO",
      "tags": [],
      "details": {
        "note": "New method has no permission mapping"
      }
    },
    {
      "id": "2026-04-08-24760",
      "date": "2026-04-08",
      "commit": "d2a5d01961d6",
      "dimension": "method_map",
      "change_type": "unmapped_method",
      "permission": "",
      "role": "",
      "service": "gkehub",
      "method": "gkehub.projects.locations.rolloutSequences.delete",
      "severity": "HIGH",
      "tags": [],
      "details": {
        "note": "New method has no permission mapping"
      }
    },
    {
      "id": "2026-04-08-24761",
      "date": "2026-04-08",
      "commit": "d2a5d01961d6",
      "dimension": "method_map",
      "change_type": "unmapped_method",
      "permission": "",
      "role": "",
      "service": "config",
      "method": "config.projects.locations.deploymentGroups.revisions.get",
      "severity": "INFO",
      "tags": [],
      "details": {
        "note": "New method has no permission mapping"
      }
    },
    {
      "id": "2026-04-08-24762",
      "date": "2026-04-08",
      "commit": "d2a5d01961d6",
      "dimension": "method_map",
      "change_type": "unmapped_method",
      "permission": "",
      "role": "",
      "service": "contactcenterinsights",
      "method": "contactcenterinsights.projects.locations.dashboards.charts.create",
      "severity": "HIGH",
      "tags": [],
      "details": {
        "note": "New method has no permission mapping"
      }
    },
    {
      "id": "2026-04-08-24763",
      "date": "2026-04-08",
      "commit": "d2a5d01961d6",
      "dimension": "method_map",
      "change_type": "unmapped_method",
      "permission": "",
      "role": "",
      "service": "dataform",
      "method": "dataform.projects.locations.folders.deleteTree",
      "severity": "INFO",
      "tags": [],
      "details": {
        "note": "New method has no permission mapping"
      }
    },
    {
      "id": "2026-04-08-24764",
      "date": "2026-04-08",
      "commit": "d2a5d01961d6",
      "dimension": "method_map",
      "change_type": "unmapped_method",
      "permission": "",
      "role": "",
      "service": "translate",
      "method": "translate.projects.locations.refineText",
      "severity": "INFO",
      "tags": [],
      "details": {
        "note": "New method has no permission mapping"
      }
    }
  ],
  "summary": {
    "by_severity": {
      "CRITICAL": 201,
      "HIGH": 5169,
      "MEDIUM": 18592,
      "INFO": 802
    },
    "by_dimension": {
      "predefined_roles": 352,
      "role_permissions": 23290,
      "methods": 608,
      "method_map": 514
    },
    "new_services": []
  }
}