{
  "generated_at": "2026-05-19T17:57:39Z",
  "total_entries": 2636,
  "pages": 27,
  "page": 27,
  "page_size": 100,
  "entries": [
    {
      "id": "2026-05-06-2601",
      "date": "2026-05-06",
      "commit": "174fd0c0eef8",
      "dimension": "method_map",
      "change_type": "unmapped_method",
      "permission": "",
      "role": "",
      "service": "networksecurity",
      "method": "networksecurity.projects.locations.firewallEndpoints.get",
      "severity": "INFO",
      "tags": [],
      "details": {
        "note": "New method has no permission mapping"
      }
    },
    {
      "id": "2026-05-06-2602",
      "date": "2026-05-06",
      "commit": "174fd0c0eef8",
      "dimension": "method_map",
      "change_type": "unmapped_method",
      "permission": "",
      "role": "",
      "service": "networksecurity",
      "method": "networksecurity.projects.locations.securityProfiles.patch",
      "severity": "HIGH",
      "tags": [],
      "details": {
        "note": "New method has no permission mapping"
      }
    },
    {
      "id": "2026-05-06-2603",
      "date": "2026-05-06",
      "commit": "174fd0c0eef8",
      "dimension": "method_map",
      "change_type": "unmapped_method",
      "permission": "",
      "role": "",
      "service": "aiplatform",
      "method": "aiplatform.skills.operations.cancel",
      "severity": "INFO",
      "tags": [],
      "details": {
        "note": "New method has no permission mapping"
      }
    },
    {
      "id": "2026-05-06-2604",
      "date": "2026-05-06",
      "commit": "174fd0c0eef8",
      "dimension": "method_map",
      "change_type": "unmapped_method",
      "permission": "",
      "role": "",
      "service": "drive",
      "method": "drive.approvals.comment",
      "severity": "INFO",
      "tags": [],
      "details": {
        "note": "New method has no permission mapping"
      }
    },
    {
      "id": "2026-05-06-2605",
      "date": "2026-05-06",
      "commit": "174fd0c0eef8",
      "dimension": "method_map",
      "change_type": "unmapped_method",
      "permission": "",
      "role": "",
      "service": "networksecurity",
      "method": "networksecurity.projects.locations.securityProfileGroups.get",
      "severity": "INFO",
      "tags": [],
      "details": {
        "note": "New method has no permission mapping"
      }
    },
    {
      "id": "2026-05-06-2606",
      "date": "2026-05-06",
      "commit": "174fd0c0eef8",
      "dimension": "method_map",
      "change_type": "unmapped_method",
      "permission": "",
      "role": "",
      "service": "compute",
      "method": "compute.projectViews.get",
      "severity": "INFO",
      "tags": [],
      "details": {
        "note": "New method has no permission mapping"
      }
    },
    {
      "id": "2026-05-06-2607",
      "date": "2026-05-06",
      "commit": "174fd0c0eef8",
      "dimension": "method_map",
      "change_type": "unmapped_method",
      "permission": "",
      "role": "",
      "service": "networksecurity",
      "method": "networksecurity.projects.locations.firewallEndpoints.delete",
      "severity": "HIGH",
      "tags": [],
      "details": {
        "note": "New method has no permission mapping"
      }
    },
    {
      "id": "2026-05-06-2608",
      "date": "2026-05-06",
      "commit": "174fd0c0eef8",
      "dimension": "method_map",
      "change_type": "unmapped_method",
      "permission": "",
      "role": "",
      "service": "drive",
      "method": "drive.approvals.cancel",
      "severity": "INFO",
      "tags": [],
      "details": {
        "note": "New method has no permission mapping"
      }
    },
    {
      "id": "2026-05-06-2609",
      "date": "2026-05-06",
      "commit": "174fd0c0eef8",
      "dimension": "method_map",
      "change_type": "unmapped_method",
      "permission": "",
      "role": "",
      "service": "aiplatform",
      "method": "aiplatform.projects.locations.skills.operations.get",
      "severity": "INFO",
      "tags": [],
      "details": {
        "note": "New method has no permission mapping"
      }
    },
    {
      "id": "2026-05-06-2610",
      "date": "2026-05-06",
      "commit": "174fd0c0eef8",
      "dimension": "method_map",
      "change_type": "unmapped_method",
      "permission": "",
      "role": "",
      "service": "backupdr",
      "method": "backupdr.organizations.locations.resourceBackupConfigs.fetch",
      "severity": "INFO",
      "tags": [],
      "details": {
        "note": "New method has no permission mapping"
      }
    },
    {
      "id": "2026-05-06-2611",
      "date": "2026-05-06",
      "commit": "174fd0c0eef8",
      "dimension": "method_map",
      "change_type": "unmapped_method",
      "permission": "",
      "role": "",
      "service": "networksecurity",
      "method": "networksecurity.projects.locations.securityProfileGroups.create",
      "severity": "HIGH",
      "tags": [],
      "details": {
        "note": "New method has no permission mapping"
      }
    },
    {
      "id": "2026-05-06-2612",
      "date": "2026-05-06",
      "commit": "174fd0c0eef8",
      "dimension": "method_map",
      "change_type": "unmapped_method",
      "permission": "",
      "role": "",
      "service": "aiplatform",
      "method": "aiplatform.skills.operations.delete",
      "severity": "HIGH",
      "tags": [],
      "details": {
        "note": "New method has no permission mapping"
      }
    },
    {
      "id": "2026-05-06-2613",
      "date": "2026-05-06",
      "commit": "174fd0c0eef8",
      "dimension": "method_map",
      "change_type": "unmapped_method",
      "permission": "",
      "role": "",
      "service": "networksecurity",
      "method": "networksecurity.projects.locations.firewallEndpoints.patch",
      "severity": "HIGH",
      "tags": [],
      "details": {
        "note": "New method has no permission mapping"
      }
    },
    {
      "id": "2026-05-06-2614",
      "date": "2026-05-06",
      "commit": "174fd0c0eef8",
      "dimension": "method_map",
      "change_type": "unmapped_method",
      "permission": "",
      "role": "",
      "service": "drive",
      "method": "drive.approvals.reassign",
      "severity": "INFO",
      "tags": [],
      "details": {
        "note": "New method has no permission mapping"
      }
    },
    {
      "id": "2026-05-06-2615",
      "date": "2026-05-06",
      "commit": "174fd0c0eef8",
      "dimension": "method_map",
      "change_type": "unmapped_method",
      "permission": "",
      "role": "",
      "service": "drive",
      "method": "drive.approvals.start",
      "severity": "INFO",
      "tags": [],
      "details": {
        "note": "New method has no permission mapping"
      }
    },
    {
      "id": "2026-05-06-2616",
      "date": "2026-05-06",
      "commit": "174fd0c0eef8",
      "dimension": "method_map",
      "change_type": "unmapped_method",
      "permission": "",
      "role": "",
      "service": "networksecurity",
      "method": "networksecurity.projects.locations.securityProfiles.create",
      "severity": "HIGH",
      "tags": [],
      "details": {
        "note": "New method has no permission mapping"
      }
    },
    {
      "id": "2026-05-06-2617",
      "date": "2026-05-06",
      "commit": "174fd0c0eef8",
      "dimension": "method_map",
      "change_type": "unmapped_method",
      "permission": "",
      "role": "",
      "service": "backupdr",
      "method": "backupdr.folders.locations.resourceBackupConfigs.fetch",
      "severity": "INFO",
      "tags": [],
      "details": {
        "note": "New method has no permission mapping"
      }
    },
    {
      "id": "2026-05-06-2618",
      "date": "2026-05-06",
      "commit": "174fd0c0eef8",
      "dimension": "method_map",
      "change_type": "unmapped_method",
      "permission": "",
      "role": "",
      "service": "networksecurity",
      "method": "networksecurity.projects.locations.securityProfiles.delete",
      "severity": "HIGH",
      "tags": [],
      "details": {
        "note": "New method has no permission mapping"
      }
    },
    {
      "id": "2026-05-06-2619",
      "date": "2026-05-06",
      "commit": "174fd0c0eef8",
      "dimension": "method_map",
      "change_type": "unmapped_method",
      "permission": "",
      "role": "",
      "service": "networksecurity",
      "method": "networksecurity.projects.locations.securityProfileGroups.patch",
      "severity": "HIGH",
      "tags": [],
      "details": {
        "note": "New method has no permission mapping"
      }
    },
    {
      "id": "2026-05-06-2620",
      "date": "2026-05-06",
      "commit": "174fd0c0eef8",
      "dimension": "method_map",
      "change_type": "unmapped_method",
      "permission": "",
      "role": "",
      "service": "networksecurity",
      "method": "networksecurity.projects.locations.securityProfiles.list",
      "severity": "INFO",
      "tags": [],
      "details": {
        "note": "New method has no permission mapping"
      }
    },
    {
      "id": "2026-04-29-2621",
      "date": "2026-04-29",
      "commit": "728114dae678",
      "dimension": "methods",
      "change_type": "added",
      "permission": "",
      "role": "",
      "service": "youtube",
      "method": "youtube.media.upload",
      "severity": "INFO",
      "tags": [],
      "details": {
        "service": "youtube"
      }
    },
    {
      "id": "2026-04-29-2622",
      "date": "2026-04-29",
      "commit": "728114dae678",
      "dimension": "methods",
      "change_type": "added",
      "permission": "",
      "role": "",
      "service": "youtube",
      "method": "youtube.youtube.v3.audiotracks.list",
      "severity": "INFO",
      "tags": [],
      "details": {
        "service": "youtube"
      }
    },
    {
      "id": "2026-04-29-2623",
      "date": "2026-04-29",
      "commit": "728114dae678",
      "dimension": "methods",
      "change_type": "added",
      "permission": "",
      "role": "",
      "service": "youtube",
      "method": "youtube.youtube.v3.deleteAudiotracks",
      "severity": "INFO",
      "tags": [],
      "details": {
        "service": "youtube"
      }
    },
    {
      "id": "2026-04-29-2624",
      "date": "2026-04-29",
      "commit": "728114dae678",
      "dimension": "methods",
      "change_type": "added",
      "permission": "",
      "role": "",
      "service": "workstations",
      "method": "workstations.projects.locations.workstationClusters.workstationConfigs.workstations.pushCredentials",
      "severity": "INFO",
      "tags": [],
      "details": {
        "service": "workstations"
      }
    },
    {
      "id": "2026-04-29-2625",
      "date": "2026-04-29",
      "commit": "728114dae678",
      "dimension": "method_map",
      "change_type": "unmapped_method",
      "permission": "",
      "role": "",
      "service": "workstations",
      "method": "workstations.projects.locations.workstationClusters.workstationConfigs.workstations.pushCredentials",
      "severity": "INFO",
      "tags": [],
      "details": {
        "note": "New method has no permission mapping"
      }
    },
    {
      "id": "2026-04-29-2626",
      "date": "2026-04-29",
      "commit": "728114dae678",
      "dimension": "method_map",
      "change_type": "unmapped_method",
      "permission": "",
      "role": "",
      "service": "youtube",
      "method": "youtube.media.upload",
      "severity": "INFO",
      "tags": [],
      "details": {
        "note": "New method has no permission mapping"
      }
    },
    {
      "id": "2026-04-29-2627",
      "date": "2026-04-29",
      "commit": "728114dae678",
      "dimension": "method_map",
      "change_type": "unmapped_method",
      "permission": "",
      "role": "",
      "service": "youtube",
      "method": "youtube.youtube.v3.audiotracks.list",
      "severity": "INFO",
      "tags": [],
      "details": {
        "note": "New method has no permission mapping"
      }
    },
    {
      "id": "2026-04-29-2628",
      "date": "2026-04-29",
      "commit": "728114dae678",
      "dimension": "method_map",
      "change_type": "unmapped_method",
      "permission": "",
      "role": "",
      "service": "youtube",
      "method": "youtube.youtube.v3.deleteAudiotracks",
      "severity": "INFO",
      "tags": [],
      "details": {
        "note": "New method has no permission mapping"
      }
    },
    {
      "id": "2026-04-26-2629",
      "date": "2026-04-26",
      "commit": "54a4d8f61f0b",
      "dimension": "methods",
      "change_type": "added",
      "permission": "",
      "role": "",
      "service": "chromemanagement",
      "method": "chromemanagement.customers.connectorConfigs.patch",
      "severity": "HIGH",
      "tags": [],
      "details": {
        "service": "chromemanagement"
      }
    },
    {
      "id": "2026-04-26-2630",
      "date": "2026-04-26",
      "commit": "54a4d8f61f0b",
      "dimension": "method_map",
      "change_type": "unmapped_method",
      "permission": "",
      "role": "",
      "service": "chromemanagement",
      "method": "chromemanagement.customers.connectorConfigs.patch",
      "severity": "HIGH",
      "tags": [],
      "details": {
        "note": "New method has no permission mapping"
      }
    },
    {
      "id": "2026-04-24-2631",
      "date": "2026-04-24",
      "commit": "7441a7b70cc7",
      "dimension": "methods",
      "change_type": "removed",
      "permission": "",
      "role": "",
      "service": "playdeveloperreporting",
      "method": "playdeveloperreporting.ratings.get",
      "severity": "INFO",
      "tags": [],
      "details": {
        "service": "playdeveloperreporting"
      }
    },
    {
      "id": "2026-04-24-2632",
      "date": "2026-04-24",
      "commit": "7441a7b70cc7",
      "dimension": "methods",
      "change_type": "removed",
      "permission": "",
      "role": "",
      "service": "playdeveloperreporting",
      "method": "playdeveloperreporting.ratings.query",
      "severity": "INFO",
      "tags": [],
      "details": {
        "service": "playdeveloperreporting"
      }
    },
    {
      "id": "2026-04-23-2633",
      "date": "2026-04-23",
      "commit": "250af8a2fe03",
      "dimension": "methods",
      "change_type": "added",
      "permission": "",
      "role": "",
      "service": "playdeveloperreporting",
      "method": "playdeveloperreporting.ratings.get",
      "severity": "INFO",
      "tags": [],
      "details": {
        "service": "playdeveloperreporting"
      }
    },
    {
      "id": "2026-04-23-2634",
      "date": "2026-04-23",
      "commit": "250af8a2fe03",
      "dimension": "methods",
      "change_type": "added",
      "permission": "",
      "role": "",
      "service": "playdeveloperreporting",
      "method": "playdeveloperreporting.ratings.query",
      "severity": "INFO",
      "tags": [],
      "details": {
        "service": "playdeveloperreporting"
      }
    },
    {
      "id": "2026-04-23-2635",
      "date": "2026-04-23",
      "commit": "250af8a2fe03",
      "dimension": "method_map",
      "change_type": "unmapped_method",
      "permission": "",
      "role": "",
      "service": "playdeveloperreporting",
      "method": "playdeveloperreporting.ratings.get",
      "severity": "INFO",
      "tags": [],
      "details": {
        "note": "New method has no permission mapping"
      }
    },
    {
      "id": "2026-04-23-2636",
      "date": "2026-04-23",
      "commit": "250af8a2fe03",
      "dimension": "method_map",
      "change_type": "unmapped_method",
      "permission": "",
      "role": "",
      "service": "playdeveloperreporting",
      "method": "playdeveloperreporting.ratings.query",
      "severity": "INFO",
      "tags": [],
      "details": {
        "note": "New method has no permission mapping"
      }
    }
  ],
  "summary": {
    "by_severity": {
      "CRITICAL": 12,
      "HIGH": 582,
      "MEDIUM": 1939,
      "INFO": 103
    },
    "by_dimension": {
      "predefined_roles": 29,
      "role_permissions": 2472,
      "methods": 75,
      "method_map": 60
    },
    "new_services": []
  }
}