{
  "generated_at": "2026-05-16T16:46:12Z",
  "total_entries": 2510,
  "pages": 26,
  "page": 26,
  "page_size": 100,
  "entries": [
    {
      "id": "2026-04-19-2501",
      "date": "2026-04-19",
      "commit": "3eda6499c9de",
      "dimension": "methods",
      "change_type": "added",
      "permission": "",
      "role": "",
      "service": "chromemanagement",
      "method": "chromemanagement.customers.connectorConfigs.delete",
      "severity": "HIGH",
      "tags": [],
      "details": {
        "service": "chromemanagement"
      }
    },
    {
      "id": "2026-04-19-2502",
      "date": "2026-04-19",
      "commit": "3eda6499c9de",
      "dimension": "methods",
      "change_type": "added",
      "permission": "",
      "role": "",
      "service": "chromemanagement",
      "method": "chromemanagement.customers.connectorConfigs.list",
      "severity": "INFO",
      "tags": [],
      "details": {
        "service": "chromemanagement"
      }
    },
    {
      "id": "2026-04-19-2503",
      "date": "2026-04-19",
      "commit": "3eda6499c9de",
      "dimension": "method_map",
      "change_type": "unmapped_method",
      "permission": "",
      "role": "",
      "service": "contactcenterinsights",
      "method": "contactcenterinsights.projects.locations.diagnostics.list",
      "severity": "INFO",
      "tags": [],
      "details": {
        "note": "New method has no permission mapping"
      }
    },
    {
      "id": "2026-04-19-2504",
      "date": "2026-04-19",
      "commit": "3eda6499c9de",
      "dimension": "method_map",
      "change_type": "unmapped_method",
      "permission": "",
      "role": "",
      "service": "chromemanagement",
      "method": "chromemanagement.customers.connectorConfigs.get",
      "severity": "INFO",
      "tags": [],
      "details": {
        "note": "New method has no permission mapping"
      }
    },
    {
      "id": "2026-04-19-2505",
      "date": "2026-04-19",
      "commit": "3eda6499c9de",
      "dimension": "method_map",
      "change_type": "unmapped_method",
      "permission": "",
      "role": "",
      "service": "chromemanagement",
      "method": "chromemanagement.customers.connectorConfigs.list",
      "severity": "INFO",
      "tags": [],
      "details": {
        "note": "New method has no permission mapping"
      }
    },
    {
      "id": "2026-04-19-2506",
      "date": "2026-04-19",
      "commit": "3eda6499c9de",
      "dimension": "method_map",
      "change_type": "unmapped_method",
      "permission": "",
      "role": "",
      "service": "chromemanagement",
      "method": "chromemanagement.customers.connectorConfigs.delete",
      "severity": "HIGH",
      "tags": [],
      "details": {
        "note": "New method has no permission mapping"
      }
    },
    {
      "id": "2026-04-19-2507",
      "date": "2026-04-19",
      "commit": "3eda6499c9de",
      "dimension": "method_map",
      "change_type": "unmapped_method",
      "permission": "",
      "role": "",
      "service": "contactcenterinsights",
      "method": "contactcenterinsights.projects.locations.diagnostics.delete",
      "severity": "HIGH",
      "tags": [],
      "details": {
        "note": "New method has no permission mapping"
      }
    },
    {
      "id": "2026-04-19-2508",
      "date": "2026-04-19",
      "commit": "3eda6499c9de",
      "dimension": "method_map",
      "change_type": "unmapped_method",
      "permission": "",
      "role": "",
      "service": "contactcenterinsights",
      "method": "contactcenterinsights.projects.locations.diagnoseConversations",
      "severity": "INFO",
      "tags": [],
      "details": {
        "note": "New method has no permission mapping"
      }
    },
    {
      "id": "2026-04-19-2509",
      "date": "2026-04-19",
      "commit": "3eda6499c9de",
      "dimension": "method_map",
      "change_type": "unmapped_method",
      "permission": "",
      "role": "",
      "service": "chromemanagement",
      "method": "chromemanagement.customers.connectorConfigs.create",
      "severity": "HIGH",
      "tags": [],
      "details": {
        "note": "New method has no permission mapping"
      }
    },
    {
      "id": "2026-04-19-2510",
      "date": "2026-04-19",
      "commit": "3eda6499c9de",
      "dimension": "method_map",
      "change_type": "unmapped_method",
      "permission": "",
      "role": "",
      "service": "contactcenterinsights",
      "method": "contactcenterinsights.projects.locations.diagnostics.get",
      "severity": "INFO",
      "tags": [],
      "details": {
        "note": "New method has no permission mapping"
      }
    }
  ],
  "summary": {
    "by_severity": {
      "CRITICAL": 12,
      "HIGH": 546,
      "MEDIUM": 1845,
      "INFO": 107
    },
    "by_dimension": {
      "predefined_roles": 27,
      "role_permissions": 2344,
      "methods": 77,
      "method_map": 62
    },
    "new_services": []
  }
}