{
  "generated_at": "2026-03-26T13:56:00Z",
  "total_entries": 722,
  "pages": 8,
  "page": 8,
  "page_size": 100,
  "entries": [
    {
      "id": "2026-02-27-0701",
      "date": "2026-02-27",
      "commit": "c8b2f3903878",
      "dimension": "role_permissions",
      "change_type": "permission_added_to_role",
      "permission": "datastore.schemas.get",
      "role": "roles/datastore.viewer",
      "service": "datastore",
      "method": "",
      "severity": "MEDIUM",
      "tags": [],
      "details": {
        "undocumented": true
      }
    },
    {
      "id": "2026-02-27-0702",
      "date": "2026-02-27",
      "commit": "c8b2f3903878",
      "dimension": "role_permissions",
      "change_type": "permission_added_to_role",
      "permission": "resourcemanager.projects.get",
      "role": "roles/securesourcemanager.developerConnectLinker",
      "service": "resourcemanager",
      "method": "",
      "severity": "MEDIUM",
      "tags": [],
      "details": {
        "undocumented": true
      }
    },
    {
      "id": "2026-02-27-0703",
      "date": "2026-02-27",
      "commit": "c8b2f3903878",
      "dimension": "role_permissions",
      "change_type": "permission_added_to_role",
      "permission": "datastore.schemas.list",
      "role": "roles/iam.dataScientist",
      "service": "datastore",
      "method": "",
      "severity": "MEDIUM",
      "tags": [],
      "details": {
        "undocumented": true
      }
    },
    {
      "id": "2026-02-27-0704",
      "date": "2026-02-27",
      "commit": "c8b2f3903878",
      "dimension": "role_permissions",
      "change_type": "permission_added_to_role",
      "permission": "datastore.schemas.list",
      "role": "roles/datastore.owner",
      "service": "datastore",
      "method": "",
      "severity": "MEDIUM",
      "tags": [],
      "details": {
        "undocumented": true
      }
    },
    {
      "id": "2026-02-27-0705",
      "date": "2026-02-27",
      "commit": "c8b2f3903878",
      "dimension": "role_permissions",
      "change_type": "permission_added_to_role",
      "permission": "datastore.schemas.list",
      "role": "roles/iam.securityAdmin",
      "service": "datastore",
      "method": "",
      "severity": "MEDIUM",
      "tags": [],
      "details": {
        "undocumented": true
      }
    },
    {
      "id": "2026-02-27-0706",
      "date": "2026-02-27",
      "commit": "c8b2f3903878",
      "dimension": "role_permissions",
      "change_type": "permission_added_to_role",
      "permission": "datastore.schemas.list",
      "role": "roles/viewer",
      "service": "datastore",
      "method": "",
      "severity": "MEDIUM",
      "tags": [],
      "details": {
        "undocumented": true
      }
    },
    {
      "id": "2026-02-27-0707",
      "date": "2026-02-27",
      "commit": "c8b2f3903878",
      "dimension": "role_permissions",
      "change_type": "permission_added_to_role",
      "permission": "datastore.schemas.list",
      "role": "roles/appengine.serviceAgent",
      "service": "datastore",
      "method": "",
      "severity": "MEDIUM",
      "tags": [],
      "details": {
        "undocumented": true
      }
    },
    {
      "id": "2026-02-27-0708",
      "date": "2026-02-27",
      "commit": "c8b2f3903878",
      "dimension": "role_permissions",
      "change_type": "permission_added_to_role",
      "permission": "datastore.schemas.list",
      "role": "roles/datastore.viewer",
      "service": "datastore",
      "method": "",
      "severity": "MEDIUM",
      "tags": [],
      "details": {
        "undocumented": true
      }
    },
    {
      "id": "2026-02-27-0709",
      "date": "2026-02-27",
      "commit": "c8b2f3903878",
      "dimension": "role_permissions",
      "change_type": "permission_added_to_role",
      "permission": "datamigration.privateConnections.listEffectiveTags",
      "role": "roles/viewer",
      "service": "datamigration",
      "method": "",
      "severity": "MEDIUM",
      "tags": [],
      "details": {
        "undocumented": true
      }
    },
    {
      "id": "2026-02-27-0710",
      "date": "2026-02-27",
      "commit": "c8b2f3903878",
      "dimension": "role_permissions",
      "change_type": "permission_removed_from_role",
      "permission": "datastore.indexes.delete",
      "role": "roles/datastore.owner",
      "service": "datastore",
      "method": "",
      "severity": "HIGH",
      "tags": [],
      "details": {
        "was_undocumented": false
      }
    },
    {
      "id": "2026-02-27-0711",
      "date": "2026-02-27",
      "commit": "c8b2f3903878",
      "dimension": "role_permissions",
      "change_type": "permission_removed_from_role",
      "permission": "datastore.indexes.create",
      "role": "roles/datastore.owner",
      "service": "datastore",
      "method": "",
      "severity": "HIGH",
      "tags": [],
      "details": {
        "was_undocumented": false
      }
    },
    {
      "id": "2026-02-27-0712",
      "date": "2026-02-27",
      "commit": "c8b2f3903878",
      "dimension": "role_permissions",
      "change_type": "permission_added_to_role",
      "permission": "securesourcemanager.repositories.get",
      "role": "roles/securesourcemanager.developerConnectLinker",
      "service": "securesourcemanager",
      "method": "",
      "severity": "MEDIUM",
      "tags": [],
      "details": {
        "undocumented": true
      }
    },
    {
      "id": "2026-02-27-0713",
      "date": "2026-02-27",
      "commit": "c8b2f3903878",
      "dimension": "role_permissions",
      "change_type": "permission_added_to_role",
      "permission": "datamigration.migrationJobs.listEffectiveTags",
      "role": "roles/viewer",
      "service": "datamigration",
      "method": "",
      "severity": "MEDIUM",
      "tags": [],
      "details": {
        "undocumented": true
      }
    },
    {
      "id": "2026-02-27-0714",
      "date": "2026-02-27",
      "commit": "c8b2f3903878",
      "dimension": "methods",
      "change_type": "removed",
      "permission": "",
      "role": "",
      "service": "secretmanager",
      "method": "secretmanager.projects.locations.operations.list",
      "severity": "INFO",
      "tags": [],
      "details": {
        "service": "secretmanager"
      }
    },
    {
      "id": "2026-02-27-0715",
      "date": "2026-02-27",
      "commit": "c8b2f3903878",
      "dimension": "methods",
      "change_type": "removed",
      "permission": "",
      "role": "",
      "service": "secretmanager",
      "method": "secretmanager.projects.locations.operations.cancel",
      "severity": "INFO",
      "tags": [],
      "details": {
        "service": "secretmanager"
      }
    },
    {
      "id": "2026-02-27-0716",
      "date": "2026-02-27",
      "commit": "c8b2f3903878",
      "dimension": "methods",
      "change_type": "removed",
      "permission": "",
      "role": "",
      "service": "secretmanager",
      "method": "secretmanager.projects.locations.operations.delete",
      "severity": "HIGH",
      "tags": [],
      "details": {
        "service": "secretmanager"
      }
    },
    {
      "id": "2026-02-27-0717",
      "date": "2026-02-27",
      "commit": "c8b2f3903878",
      "dimension": "methods",
      "change_type": "removed",
      "permission": "",
      "role": "",
      "service": "secretmanager",
      "method": "secretmanager.projects.locations.operations.get",
      "severity": "INFO",
      "tags": [],
      "details": {
        "service": "secretmanager"
      }
    },
    {
      "id": "2026-02-25-0718",
      "date": "2026-02-25",
      "commit": "8dd895ff221f",
      "dimension": "methods",
      "change_type": "added",
      "permission": "",
      "role": "",
      "service": "aiplatform",
      "method": "aiplatform.projects.locations.publishers.models.invoke.invoke",
      "severity": "HIGH",
      "tags": [],
      "details": {
        "service": "aiplatform"
      }
    },
    {
      "id": "2026-02-25-0719",
      "date": "2026-02-25",
      "commit": "8dd895ff221f",
      "dimension": "methods",
      "change_type": "removed",
      "permission": "",
      "role": "",
      "service": "looker",
      "method": "looker.projects.locations.instances.undelete",
      "severity": "INFO",
      "tags": [],
      "details": {
        "service": "looker"
      }
    },
    {
      "id": "2026-02-25-0720",
      "date": "2026-02-25",
      "commit": "8dd895ff221f",
      "dimension": "methods",
      "change_type": "added",
      "permission": "",
      "role": "",
      "service": "accesscontextmanager",
      "method": "accesscontextmanager.permissions.list",
      "severity": "INFO",
      "tags": [],
      "details": {
        "service": "accesscontextmanager"
      }
    },
    {
      "id": "2026-02-25-0721",
      "date": "2026-02-25",
      "commit": "8dd895ff221f",
      "dimension": "method_map",
      "change_type": "unmapped_method",
      "permission": "",
      "role": "",
      "service": "accesscontextmanager",
      "method": "accesscontextmanager.permissions.list",
      "severity": "INFO",
      "tags": [],
      "details": {
        "note": "New method has no permission mapping"
      }
    },
    {
      "id": "2026-02-25-0722",
      "date": "2026-02-25",
      "commit": "8dd895ff221f",
      "dimension": "method_map",
      "change_type": "unmapped_method",
      "permission": "",
      "role": "",
      "service": "aiplatform",
      "method": "aiplatform.projects.locations.publishers.models.invoke.invoke",
      "severity": "HIGH",
      "tags": [],
      "details": {
        "note": "New method has no permission mapping"
      }
    }
  ],
  "summary": {
    "by_severity": {
      "CRITICAL": 2,
      "HIGH": 155,
      "MEDIUM": 523,
      "INFO": 42
    },
    "by_dimension": {
      "methods": 57,
      "method_map": 22,
      "role_permissions": 642,
      "predefined_roles": 1
    },
    "new_services": []
  }
}