{
  "generated_at": "2026-05-30T16:52:20Z",
  "total_entries": 3017,
  "pages": 31,
  "page": 31,
  "page_size": 100,
  "entries": [
    {
      "id": "2026-05-06-3001",
      "date": "2026-05-06",
      "commit": "174fd0c0eef8",
      "dimension": "method_map",
      "change_type": "unmapped_method",
      "permission": "",
      "role": "",
      "service": "drive",
      "method": "drive.approvals.comment",
      "severity": "INFO",
      "tags": [],
      "details": {
        "note": "New method has no permission mapping"
      }
    },
    {
      "id": "2026-05-06-3002",
      "date": "2026-05-06",
      "commit": "174fd0c0eef8",
      "dimension": "method_map",
      "change_type": "unmapped_method",
      "permission": "",
      "role": "",
      "service": "aiplatform",
      "method": "aiplatform.projects.locations.skills.operations.wait",
      "severity": "INFO",
      "tags": [],
      "details": {
        "note": "New method has no permission mapping"
      }
    },
    {
      "id": "2026-05-06-3003",
      "date": "2026-05-06",
      "commit": "174fd0c0eef8",
      "dimension": "method_map",
      "change_type": "unmapped_method",
      "permission": "",
      "role": "",
      "service": "compute",
      "method": "compute.projectViews.get",
      "severity": "INFO",
      "tags": [],
      "details": {
        "note": "New method has no permission mapping"
      }
    },
    {
      "id": "2026-05-06-3004",
      "date": "2026-05-06",
      "commit": "174fd0c0eef8",
      "dimension": "method_map",
      "change_type": "unmapped_method",
      "permission": "",
      "role": "",
      "service": "networksecurity",
      "method": "networksecurity.projects.locations.firewallEndpoints.delete",
      "severity": "HIGH",
      "tags": [],
      "details": {
        "note": "New method has no permission mapping"
      }
    },
    {
      "id": "2026-05-06-3005",
      "date": "2026-05-06",
      "commit": "174fd0c0eef8",
      "dimension": "method_map",
      "change_type": "unmapped_method",
      "permission": "",
      "role": "",
      "service": "aiplatform",
      "method": "aiplatform.skills.operations.list",
      "severity": "INFO",
      "tags": [],
      "details": {
        "note": "New method has no permission mapping"
      }
    },
    {
      "id": "2026-05-06-3006",
      "date": "2026-05-06",
      "commit": "174fd0c0eef8",
      "dimension": "method_map",
      "change_type": "unmapped_method",
      "permission": "",
      "role": "",
      "service": "aiplatform",
      "method": "aiplatform.projects.locations.skills.operations.list",
      "severity": "INFO",
      "tags": [],
      "details": {
        "note": "New method has no permission mapping"
      }
    },
    {
      "id": "2026-05-06-3007",
      "date": "2026-05-06",
      "commit": "174fd0c0eef8",
      "dimension": "method_map",
      "change_type": "unmapped_method",
      "permission": "",
      "role": "",
      "service": "drive",
      "method": "drive.approvals.decline",
      "severity": "INFO",
      "tags": [],
      "details": {
        "note": "New method has no permission mapping"
      }
    },
    {
      "id": "2026-05-06-3008",
      "date": "2026-05-06",
      "commit": "174fd0c0eef8",
      "dimension": "method_map",
      "change_type": "unmapped_method",
      "permission": "",
      "role": "",
      "service": "compute",
      "method": "compute.rollouts.advance",
      "severity": "INFO",
      "tags": [],
      "details": {
        "note": "New method has no permission mapping"
      }
    },
    {
      "id": "2026-05-06-3009",
      "date": "2026-05-06",
      "commit": "174fd0c0eef8",
      "dimension": "method_map",
      "change_type": "unmapped_method",
      "permission": "",
      "role": "",
      "service": "aiplatform",
      "method": "aiplatform.projects.locations.skills.operations.get",
      "severity": "INFO",
      "tags": [],
      "details": {
        "note": "New method has no permission mapping"
      }
    },
    {
      "id": "2026-05-06-3010",
      "date": "2026-05-06",
      "commit": "174fd0c0eef8",
      "dimension": "method_map",
      "change_type": "unmapped_method",
      "permission": "",
      "role": "",
      "service": "networksecurity",
      "method": "networksecurity.projects.locations.securityProfileGroups.list",
      "severity": "INFO",
      "tags": [],
      "details": {
        "note": "New method has no permission mapping"
      }
    },
    {
      "id": "2026-05-06-3011",
      "date": "2026-05-06",
      "commit": "174fd0c0eef8",
      "dimension": "method_map",
      "change_type": "unmapped_method",
      "permission": "",
      "role": "",
      "service": "networksecurity",
      "method": "networksecurity.projects.locations.firewallEndpoints.patch",
      "severity": "HIGH",
      "tags": [],
      "details": {
        "note": "New method has no permission mapping"
      }
    },
    {
      "id": "2026-05-06-3012",
      "date": "2026-05-06",
      "commit": "174fd0c0eef8",
      "dimension": "method_map",
      "change_type": "unmapped_method",
      "permission": "",
      "role": "",
      "service": "networksecurity",
      "method": "networksecurity.projects.locations.firewallEndpoints.create",
      "severity": "HIGH",
      "tags": [],
      "details": {
        "note": "New method has no permission mapping"
      }
    },
    {
      "id": "2026-05-06-3013",
      "date": "2026-05-06",
      "commit": "174fd0c0eef8",
      "dimension": "method_map",
      "change_type": "unmapped_method",
      "permission": "",
      "role": "",
      "service": "backupdr",
      "method": "backupdr.organizations.locations.resourceBackupConfigs.fetch",
      "severity": "INFO",
      "tags": [],
      "details": {
        "note": "New method has no permission mapping"
      }
    },
    {
      "id": "2026-05-06-3014",
      "date": "2026-05-06",
      "commit": "174fd0c0eef8",
      "dimension": "method_map",
      "change_type": "unmapped_method",
      "permission": "",
      "role": "",
      "service": "networksecurity",
      "method": "networksecurity.projects.locations.firewallEndpoints.get",
      "severity": "INFO",
      "tags": [],
      "details": {
        "note": "New method has no permission mapping"
      }
    },
    {
      "id": "2026-05-06-3015",
      "date": "2026-05-06",
      "commit": "174fd0c0eef8",
      "dimension": "method_map",
      "change_type": "unmapped_method",
      "permission": "",
      "role": "",
      "service": "aiplatform",
      "method": "aiplatform.skills.operations.wait",
      "severity": "INFO",
      "tags": [],
      "details": {
        "note": "New method has no permission mapping"
      }
    },
    {
      "id": "2026-05-06-3016",
      "date": "2026-05-06",
      "commit": "174fd0c0eef8",
      "dimension": "method_map",
      "change_type": "unmapped_method",
      "permission": "",
      "role": "",
      "service": "assuredworkloads",
      "method": "assuredworkloads.assuredworkloads.archiveResourceEvents",
      "severity": "INFO",
      "tags": [],
      "details": {
        "note": "New method has no permission mapping"
      }
    },
    {
      "id": "2026-05-06-3017",
      "date": "2026-05-06",
      "commit": "174fd0c0eef8",
      "dimension": "method_map",
      "change_type": "unmapped_method",
      "permission": "",
      "role": "",
      "service": "drive",
      "method": "drive.approvals.approve",
      "severity": "INFO",
      "tags": [],
      "details": {
        "note": "New method has no permission mapping"
      }
    }
  ],
  "summary": {
    "by_severity": {
      "CRITICAL": 12,
      "HIGH": 657,
      "MEDIUM": 2209,
      "INFO": 139
    },
    "by_dimension": {
      "methods": 95,
      "method_map": 82,
      "predefined_roles": 35,
      "role_permissions": 2805
    },
    "new_services": []
  }
}