{
  "generated_at": "2026-04-10T16:41:57Z",
  "total_entries": 47444,
  "pages": 475,
  "page": 475,
  "page_size": 100,
  "entries": [
    {
      "id": "2026-03-13-47401",
      "date": "2026-03-13",
      "commit": "a7c62d8e37d8",
      "dimension": "role_permissions",
      "change_type": "permission_added_to_role",
      "permission": "securitycenter.assets.listAssetPropertyNames",
      "role": "roles/cloudhub.operator",
      "service": "securitycenter",
      "method": "",
      "severity": "MEDIUM",
      "tags": [],
      "details": {
        "undocumented": true
      }
    },
    {
      "id": "2026-03-13-47402",
      "date": "2026-03-13",
      "commit": "a7c62d8e37d8",
      "dimension": "role_permissions",
      "change_type": "permission_added_to_role",
      "permission": "securitycenter.compliancesnapshots.list",
      "role": "roles/cloudhub.operator",
      "service": "securitycenter",
      "method": "",
      "severity": "MEDIUM",
      "tags": [],
      "details": {
        "undocumented": true
      }
    },
    {
      "id": "2026-03-13-47403",
      "date": "2026-03-13",
      "commit": "a7c62d8e37d8",
      "dimension": "role_permissions",
      "change_type": "permission_added_to_role",
      "permission": "compute.subnetworks.use",
      "role": "roles/memorystore.serviceAgent",
      "service": "compute",
      "method": "",
      "severity": "MEDIUM",
      "tags": [],
      "details": {
        "undocumented": true
      }
    },
    {
      "id": "2026-03-13-47404",
      "date": "2026-03-13",
      "commit": "a7c62d8e37d8",
      "dimension": "role_permissions",
      "change_type": "permission_added_to_role",
      "permission": "securitycenter.graphs.get",
      "role": "roles/cloudhub.operator",
      "service": "securitycenter",
      "method": "",
      "severity": "MEDIUM",
      "tags": [],
      "details": {
        "undocumented": true
      }
    },
    {
      "id": "2026-03-13-47405",
      "date": "2026-03-13",
      "commit": "a7c62d8e37d8",
      "dimension": "role_permissions",
      "change_type": "permission_added_to_role",
      "permission": "cloudsecuritycompliance.controlComplianceSummaries.list",
      "role": "roles/cloudhub.operator",
      "service": "cloudsecuritycompliance",
      "method": "",
      "severity": "MEDIUM",
      "tags": [],
      "details": {
        "undocumented": true
      }
    },
    {
      "id": "2026-03-13-47406",
      "date": "2026-03-13",
      "commit": "a7c62d8e37d8",
      "dimension": "role_permissions",
      "change_type": "permission_added_to_role",
      "permission": "cloudasset.assets.searchEnrichmentResourceOwners",
      "role": "roles/cloudhub.operator",
      "service": "cloudasset",
      "method": "",
      "severity": "MEDIUM",
      "tags": [],
      "details": {
        "undocumented": true
      }
    },
    {
      "id": "2026-03-13-47407",
      "date": "2026-03-13",
      "commit": "a7c62d8e37d8",
      "dimension": "role_permissions",
      "change_type": "permission_added_to_role",
      "permission": "cloudsecuritycompliance.cloudControls.get",
      "role": "roles/cloudhub.operator",
      "service": "cloudsecuritycompliance",
      "method": "",
      "severity": "MEDIUM",
      "tags": [],
      "details": {
        "undocumented": true
      }
    },
    {
      "id": "2026-03-13-47408",
      "date": "2026-03-13",
      "commit": "a7c62d8e37d8",
      "dimension": "role_permissions",
      "change_type": "permission_added_to_role",
      "permission": "compute.multiMigMembers.list",
      "role": "roles/container.serviceAgent",
      "service": "compute",
      "method": "",
      "severity": "MEDIUM",
      "tags": [],
      "details": {
        "undocumented": true
      }
    },
    {
      "id": "2026-03-13-47409",
      "date": "2026-03-13",
      "commit": "a7c62d8e37d8",
      "dimension": "role_permissions",
      "change_type": "permission_added_to_role",
      "permission": "compute.multiMigMembers.list",
      "role": "roles/compute.instanceAdmin",
      "service": "compute",
      "method": "",
      "severity": "MEDIUM",
      "tags": [],
      "details": {
        "undocumented": true
      }
    },
    {
      "id": "2026-03-13-47410",
      "date": "2026-03-13",
      "commit": "a7c62d8e37d8",
      "dimension": "role_permissions",
      "change_type": "permission_added_to_role",
      "permission": "compute.multiMigMembers.list",
      "role": "roles/composer.serviceAgent",
      "service": "compute",
      "method": "",
      "severity": "MEDIUM",
      "tags": [],
      "details": {
        "undocumented": true
      }
    },
    {
      "id": "2026-03-13-47411",
      "date": "2026-03-13",
      "commit": "a7c62d8e37d8",
      "dimension": "role_permissions",
      "change_type": "permission_added_to_role",
      "permission": "cloudsecuritycompliance.cloudControlDeployments.list",
      "role": "roles/cloudhub.operator",
      "service": "cloudsecuritycompliance",
      "method": "",
      "severity": "MEDIUM",
      "tags": [],
      "details": {
        "undocumented": true
      }
    },
    {
      "id": "2026-03-13-47412",
      "date": "2026-03-13",
      "commit": "a7c62d8e37d8",
      "dimension": "role_permissions",
      "change_type": "permission_added_to_role",
      "permission": "cloudsecuritycompliance.controls.list",
      "role": "roles/cloudhub.operator",
      "service": "cloudsecuritycompliance",
      "method": "",
      "severity": "MEDIUM",
      "tags": [],
      "details": {
        "undocumented": true
      }
    },
    {
      "id": "2026-03-13-47413",
      "date": "2026-03-13",
      "commit": "a7c62d8e37d8",
      "dimension": "role_permissions",
      "change_type": "permission_added_to_role",
      "permission": "cloudsecuritycompliance.controls.get",
      "role": "roles/cloudhub.operator",
      "service": "cloudsecuritycompliance",
      "method": "",
      "severity": "MEDIUM",
      "tags": [],
      "details": {
        "undocumented": true
      }
    },
    {
      "id": "2026-03-13-47414",
      "date": "2026-03-13",
      "commit": "a7c62d8e37d8",
      "dimension": "role_permissions",
      "change_type": "permission_added_to_role",
      "permission": "netapp.volumes.get",
      "role": "roles/vmwareengine.serviceAgent",
      "service": "netapp",
      "method": "",
      "severity": "MEDIUM",
      "tags": [],
      "details": {
        "undocumented": true
      }
    },
    {
      "id": "2026-03-13-47415",
      "date": "2026-03-13",
      "commit": "a7c62d8e37d8",
      "dimension": "role_permissions",
      "change_type": "permission_added_to_role",
      "permission": "securitycenter.exposurepathexplan.get",
      "role": "roles/cloudhub.operator",
      "service": "securitycenter",
      "method": "",
      "severity": "MEDIUM",
      "tags": [],
      "details": {
        "undocumented": true
      }
    },
    {
      "id": "2026-03-13-47416",
      "date": "2026-03-13",
      "commit": "a7c62d8e37d8",
      "dimension": "role_permissions",
      "change_type": "permission_added_to_role",
      "permission": "cloudsecuritycompliance.billingSettings.get",
      "role": "roles/cloudhub.operator",
      "service": "cloudsecuritycompliance",
      "method": "",
      "severity": "MEDIUM",
      "tags": [],
      "details": {
        "undocumented": true
      }
    },
    {
      "id": "2026-03-13-47417",
      "date": "2026-03-13",
      "commit": "a7c62d8e37d8",
      "dimension": "role_permissions",
      "change_type": "permission_added_to_role",
      "permission": "cloudsecuritycompliance.frameworks.list",
      "role": "roles/cloudhub.operator",
      "service": "cloudsecuritycompliance",
      "method": "",
      "severity": "MEDIUM",
      "tags": [],
      "details": {
        "undocumented": true
      }
    },
    {
      "id": "2026-03-13-47418",
      "date": "2026-03-13",
      "commit": "a7c62d8e37d8",
      "dimension": "role_permissions",
      "change_type": "permission_added_to_role",
      "permission": "cloudsecuritycompliance.resourceEnrollmentStatuses.get",
      "role": "roles/cloudhub.operator",
      "service": "cloudsecuritycompliance",
      "method": "",
      "severity": "MEDIUM",
      "tags": [],
      "details": {
        "undocumented": true
      }
    },
    {
      "id": "2026-03-13-47419",
      "date": "2026-03-13",
      "commit": "a7c62d8e37d8",
      "dimension": "role_permissions",
      "change_type": "permission_added_to_role",
      "permission": "cloudsecuritycompliance.locations.list",
      "role": "roles/cloudhub.operator",
      "service": "cloudsecuritycompliance",
      "method": "",
      "severity": "MEDIUM",
      "tags": [],
      "details": {
        "undocumented": true
      }
    },
    {
      "id": "2026-03-13-47420",
      "date": "2026-03-13",
      "commit": "a7c62d8e37d8",
      "dimension": "role_permissions",
      "change_type": "permission_added_to_role",
      "permission": "cloudsecuritycompliance.frameworks.get",
      "role": "roles/cloudhub.operator",
      "service": "cloudsecuritycompliance",
      "method": "",
      "severity": "MEDIUM",
      "tags": [],
      "details": {
        "undocumented": true
      }
    },
    {
      "id": "2026-03-13-47421",
      "date": "2026-03-13",
      "commit": "a7c62d8e37d8",
      "dimension": "methods",
      "change_type": "removed",
      "permission": "",
      "role": "",
      "service": "dataplex",
      "method": "dataplex.projects.locations.lakes.content.testIamPermissions",
      "severity": "INFO",
      "tags": [],
      "details": {
        "service": "dataplex"
      }
    },
    {
      "id": "2026-03-13-47422",
      "date": "2026-03-13",
      "commit": "a7c62d8e37d8",
      "dimension": "methods",
      "change_type": "removed",
      "permission": "",
      "role": "",
      "service": "dataplex",
      "method": "dataplex.projects.locations.lakes.environments.sessions.list",
      "severity": "INFO",
      "tags": [],
      "details": {
        "service": "dataplex"
      }
    },
    {
      "id": "2026-03-13-47423",
      "date": "2026-03-13",
      "commit": "a7c62d8e37d8",
      "dimension": "methods",
      "change_type": "removed",
      "permission": "",
      "role": "",
      "service": "dataplex",
      "method": "dataplex.projects.locations.lakes.content.list",
      "severity": "INFO",
      "tags": [],
      "details": {
        "service": "dataplex"
      }
    },
    {
      "id": "2026-03-13-47424",
      "date": "2026-03-13",
      "commit": "a7c62d8e37d8",
      "dimension": "methods",
      "change_type": "removed",
      "permission": "",
      "role": "",
      "service": "dataplex",
      "method": "dataplex.projects.locations.lakes.contentitems.list",
      "severity": "INFO",
      "tags": [],
      "details": {
        "service": "dataplex"
      }
    },
    {
      "id": "2026-03-13-47425",
      "date": "2026-03-13",
      "commit": "a7c62d8e37d8",
      "dimension": "methods",
      "change_type": "removed",
      "permission": "",
      "role": "",
      "service": "dataplex",
      "method": "dataplex.projects.locations.lakes.contentitems.delete",
      "severity": "HIGH",
      "tags": [],
      "details": {
        "service": "dataplex"
      }
    },
    {
      "id": "2026-03-13-47426",
      "date": "2026-03-13",
      "commit": "a7c62d8e37d8",
      "dimension": "methods",
      "change_type": "removed",
      "permission": "",
      "role": "",
      "service": "dataplex",
      "method": "dataplex.projects.locations.lakes.content.delete",
      "severity": "HIGH",
      "tags": [],
      "details": {
        "service": "dataplex"
      }
    },
    {
      "id": "2026-03-13-47427",
      "date": "2026-03-13",
      "commit": "a7c62d8e37d8",
      "dimension": "methods",
      "change_type": "removed",
      "permission": "",
      "role": "",
      "service": "dataplex",
      "method": "dataplex.projects.locations.lakes.contentitems.getIamPolicy",
      "severity": "INFO",
      "tags": [],
      "details": {
        "service": "dataplex"
      }
    },
    {
      "id": "2026-03-13-47428",
      "date": "2026-03-13",
      "commit": "a7c62d8e37d8",
      "dimension": "methods",
      "change_type": "removed",
      "permission": "",
      "role": "",
      "service": "dataplex",
      "method": "dataplex.projects.locations.lakes.environments.get",
      "severity": "INFO",
      "tags": [],
      "details": {
        "service": "dataplex"
      }
    },
    {
      "id": "2026-03-13-47429",
      "date": "2026-03-13",
      "commit": "a7c62d8e37d8",
      "dimension": "methods",
      "change_type": "removed",
      "permission": "",
      "role": "",
      "service": "dataplex",
      "method": "dataplex.projects.locations.lakes.contentitems.setIamPolicy",
      "severity": "CRITICAL",
      "tags": [],
      "details": {
        "service": "dataplex"
      }
    },
    {
      "id": "2026-03-13-47430",
      "date": "2026-03-13",
      "commit": "a7c62d8e37d8",
      "dimension": "methods",
      "change_type": "removed",
      "permission": "",
      "role": "",
      "service": "dataplex",
      "method": "dataplex.projects.locations.lakes.contentitems.create",
      "severity": "HIGH",
      "tags": [],
      "details": {
        "service": "dataplex"
      }
    },
    {
      "id": "2026-03-13-47431",
      "date": "2026-03-13",
      "commit": "a7c62d8e37d8",
      "dimension": "methods",
      "change_type": "removed",
      "permission": "",
      "role": "",
      "service": "dataplex",
      "method": "dataplex.projects.locations.lakes.content.patch",
      "severity": "HIGH",
      "tags": [],
      "details": {
        "service": "dataplex"
      }
    },
    {
      "id": "2026-03-13-47432",
      "date": "2026-03-13",
      "commit": "a7c62d8e37d8",
      "dimension": "methods",
      "change_type": "removed",
      "permission": "",
      "role": "",
      "service": "dataplex",
      "method": "dataplex.projects.locations.lakes.environments.delete",
      "severity": "HIGH",
      "tags": [],
      "details": {
        "service": "dataplex"
      }
    },
    {
      "id": "2026-03-13-47433",
      "date": "2026-03-13",
      "commit": "a7c62d8e37d8",
      "dimension": "methods",
      "change_type": "removed",
      "permission": "",
      "role": "",
      "service": "dataplex",
      "method": "dataplex.projects.locations.lakes.environments.create",
      "severity": "HIGH",
      "tags": [],
      "details": {
        "service": "dataplex"
      }
    },
    {
      "id": "2026-03-13-47434",
      "date": "2026-03-13",
      "commit": "a7c62d8e37d8",
      "dimension": "methods",
      "change_type": "removed",
      "permission": "",
      "role": "",
      "service": "dataplex",
      "method": "dataplex.projects.locations.lakes.contentitems.patch",
      "severity": "HIGH",
      "tags": [],
      "details": {
        "service": "dataplex"
      }
    },
    {
      "id": "2026-03-13-47435",
      "date": "2026-03-13",
      "commit": "a7c62d8e37d8",
      "dimension": "methods",
      "change_type": "removed",
      "permission": "",
      "role": "",
      "service": "dataplex",
      "method": "dataplex.projects.locations.lakes.content.getIamPolicy",
      "severity": "INFO",
      "tags": [],
      "details": {
        "service": "dataplex"
      }
    },
    {
      "id": "2026-03-13-47436",
      "date": "2026-03-13",
      "commit": "a7c62d8e37d8",
      "dimension": "methods",
      "change_type": "removed",
      "permission": "",
      "role": "",
      "service": "dataplex",
      "method": "dataplex.projects.locations.lakes.environments.list",
      "severity": "INFO",
      "tags": [],
      "details": {
        "service": "dataplex"
      }
    },
    {
      "id": "2026-03-13-47437",
      "date": "2026-03-13",
      "commit": "a7c62d8e37d8",
      "dimension": "methods",
      "change_type": "removed",
      "permission": "",
      "role": "",
      "service": "dataplex",
      "method": "dataplex.projects.locations.lakes.content.get",
      "severity": "INFO",
      "tags": [],
      "details": {
        "service": "dataplex"
      }
    },
    {
      "id": "2026-03-13-47438",
      "date": "2026-03-13",
      "commit": "a7c62d8e37d8",
      "dimension": "methods",
      "change_type": "removed",
      "permission": "",
      "role": "",
      "service": "dataplex",
      "method": "dataplex.projects.locations.lakes.contentitems.testIamPermissions",
      "severity": "INFO",
      "tags": [],
      "details": {
        "service": "dataplex"
      }
    },
    {
      "id": "2026-03-13-47439",
      "date": "2026-03-13",
      "commit": "a7c62d8e37d8",
      "dimension": "methods",
      "change_type": "removed",
      "permission": "",
      "role": "",
      "service": "dataplex",
      "method": "dataplex.projects.locations.lakes.contentitems.get",
      "severity": "INFO",
      "tags": [],
      "details": {
        "service": "dataplex"
      }
    },
    {
      "id": "2026-03-13-47440",
      "date": "2026-03-13",
      "commit": "a7c62d8e37d8",
      "dimension": "methods",
      "change_type": "removed",
      "permission": "",
      "role": "",
      "service": "dataplex",
      "method": "dataplex.projects.locations.lakes.environments.patch",
      "severity": "HIGH",
      "tags": [],
      "details": {
        "service": "dataplex"
      }
    },
    {
      "id": "2026-03-13-47441",
      "date": "2026-03-13",
      "commit": "a7c62d8e37d8",
      "dimension": "methods",
      "change_type": "removed",
      "permission": "",
      "role": "",
      "service": "dataplex",
      "method": "dataplex.projects.locations.lakes.content.setIamPolicy",
      "severity": "CRITICAL",
      "tags": [],
      "details": {
        "service": "dataplex"
      }
    },
    {
      "id": "2026-03-13-47442",
      "date": "2026-03-13",
      "commit": "a7c62d8e37d8",
      "dimension": "methods",
      "change_type": "removed",
      "permission": "",
      "role": "",
      "service": "dataplex",
      "method": "dataplex.projects.locations.lakes.content.create",
      "severity": "HIGH",
      "tags": [],
      "details": {
        "service": "dataplex"
      }
    },
    {
      "id": "2026-03-13-47443",
      "date": "2026-03-13",
      "commit": "a7c62d8e37d8",
      "dimension": "methods",
      "change_type": "added",
      "permission": "",
      "role": "",
      "service": "androidpublisher",
      "method": "androidpublisher.applications.tracks.releases.list",
      "severity": "INFO",
      "tags": [],
      "details": {
        "service": "androidpublisher"
      }
    },
    {
      "id": "2026-03-13-47444",
      "date": "2026-03-13",
      "commit": "a7c62d8e37d8",
      "dimension": "method_map",
      "change_type": "unmapped_method",
      "permission": "",
      "role": "",
      "service": "androidpublisher",
      "method": "androidpublisher.applications.tracks.releases.list",
      "severity": "INFO",
      "tags": [],
      "details": {
        "note": "New method has no permission mapping"
      }
    }
  ],
  "summary": {
    "by_severity": {
      "CRITICAL": 423,
      "HIGH": 10653,
      "MEDIUM": 35191,
      "INFO": 1177
    },
    "by_dimension": {
      "predefined_roles": 710,
      "role_permissions": 45069,
      "methods": 1097,
      "method_map": 568
    },
    "new_services": []
  }
}