{
  "generated_at": "2026-03-29T16:25:12Z",
  "total_entries": 1432,
  "pages": 15,
  "page": 15,
  "page_size": 100,
  "entries": [
    {
      "id": "2026-03-01-1401",
      "date": "2026-03-01",
      "commit": "4f1f2fe056a4",
      "dimension": "role_permissions",
      "change_type": "permission_added_to_role",
      "permission": "apphub.boundaries.attach",
      "role": "roles/designcenter.admin",
      "service": "apphub",
      "method": "",
      "severity": "MEDIUM",
      "tags": [],
      "details": {
        "undocumented": true
      }
    },
    {
      "id": "2026-03-01-1402",
      "date": "2026-03-01",
      "commit": "4f1f2fe056a4",
      "dimension": "role_permissions",
      "change_type": "permission_added_to_role",
      "permission": "developerconnect.connections.fetchLinkableGitRepositories",
      "role": "roles/designcenter.admin",
      "service": "developerconnect",
      "method": "",
      "severity": "MEDIUM",
      "tags": [],
      "details": {
        "undocumented": true
      }
    },
    {
      "id": "2026-03-01-1403",
      "date": "2026-03-01",
      "commit": "4f1f2fe056a4",
      "dimension": "role_permissions",
      "change_type": "permission_added_to_role",
      "permission": "configdelivery.variants.get",
      "role": "roles/configdelivery.configDeliveryViewer",
      "service": "configdelivery",
      "method": "",
      "severity": "MEDIUM",
      "tags": [],
      "details": {
        "undocumented": true
      }
    },
    {
      "id": "2026-03-01-1404",
      "date": "2026-03-01",
      "commit": "4f1f2fe056a4",
      "dimension": "role_permissions",
      "change_type": "permission_added_to_role",
      "permission": "developerconnect.gitRepositoryLinks.get",
      "role": "roles/designcenter.admin",
      "service": "developerconnect",
      "method": "",
      "severity": "MEDIUM",
      "tags": [],
      "details": {
        "undocumented": true
      }
    },
    {
      "id": "2026-03-01-1405",
      "date": "2026-03-01",
      "commit": "4f1f2fe056a4",
      "dimension": "role_permissions",
      "change_type": "permission_added_to_role",
      "permission": "developerconnect.connections.delete",
      "role": "roles/designcenter.admin",
      "service": "developerconnect",
      "method": "",
      "severity": "HIGH",
      "tags": [],
      "details": {
        "undocumented": true
      }
    },
    {
      "id": "2026-03-01-1406",
      "date": "2026-03-01",
      "commit": "4f1f2fe056a4",
      "dimension": "role_permissions",
      "change_type": "permission_removed_from_role",
      "permission": "datastore.indexes.list",
      "role": "roles/datastore.indexAdmin",
      "service": "datastore",
      "method": "",
      "severity": "MEDIUM",
      "tags": [],
      "details": {
        "was_undocumented": false
      }
    },
    {
      "id": "2026-03-01-1407",
      "date": "2026-03-01",
      "commit": "4f1f2fe056a4",
      "dimension": "role_permissions",
      "change_type": "permission_removed_from_role",
      "permission": "datastore.indexes.list",
      "role": "roles/datastore.viewer",
      "service": "datastore",
      "method": "",
      "severity": "MEDIUM",
      "tags": [],
      "details": {
        "was_undocumented": false
      }
    },
    {
      "id": "2026-03-01-1408",
      "date": "2026-03-01",
      "commit": "4f1f2fe056a4",
      "dimension": "role_permissions",
      "change_type": "permission_removed_from_role",
      "permission": "datastore.indexes.list",
      "role": "roles/iam.databasesAdmin",
      "service": "datastore",
      "method": "",
      "severity": "MEDIUM",
      "tags": [],
      "details": {
        "was_undocumented": true
      }
    },
    {
      "id": "2026-03-01-1409",
      "date": "2026-03-01",
      "commit": "4f1f2fe056a4",
      "dimension": "role_permissions",
      "change_type": "permission_added_to_role",
      "permission": "developerconnect.locations.get",
      "role": "roles/designcenter.admin",
      "service": "developerconnect",
      "method": "",
      "severity": "MEDIUM",
      "tags": [],
      "details": {
        "undocumented": true
      }
    },
    {
      "id": "2026-03-01-1410",
      "date": "2026-03-01",
      "commit": "4f1f2fe056a4",
      "dimension": "role_permissions",
      "change_type": "permission_added_to_role",
      "permission": "datastore.schemas.update",
      "role": "roles/datastore.indexAdmin",
      "service": "datastore",
      "method": "",
      "severity": "HIGH",
      "tags": [],
      "details": {
        "undocumented": true
      }
    },
    {
      "id": "2026-03-01-1411",
      "date": "2026-03-01",
      "commit": "4f1f2fe056a4",
      "dimension": "role_permissions",
      "change_type": "permission_added_to_role",
      "permission": "datastore.schemas.update",
      "role": "roles/iam.databasesAdmin",
      "service": "datastore",
      "method": "",
      "severity": "HIGH",
      "tags": [],
      "details": {
        "undocumented": true
      }
    },
    {
      "id": "2026-03-01-1412",
      "date": "2026-03-01",
      "commit": "4f1f2fe056a4",
      "dimension": "role_permissions",
      "change_type": "permission_added_to_role",
      "permission": "datastore.schemas.get",
      "role": "roles/datastore.indexAdmin",
      "service": "datastore",
      "method": "",
      "severity": "MEDIUM",
      "tags": [],
      "details": {
        "undocumented": true
      }
    },
    {
      "id": "2026-03-01-1413",
      "date": "2026-03-01",
      "commit": "4f1f2fe056a4",
      "dimension": "role_permissions",
      "change_type": "permission_added_to_role",
      "permission": "datastore.schemas.get",
      "role": "roles/iam.databasesAdmin",
      "service": "datastore",
      "method": "",
      "severity": "MEDIUM",
      "tags": [],
      "details": {
        "undocumented": true
      }
    },
    {
      "id": "2026-03-01-1414",
      "date": "2026-03-01",
      "commit": "4f1f2fe056a4",
      "dimension": "role_permissions",
      "change_type": "permission_added_to_role",
      "permission": "datastore.schemas.get",
      "role": "roles/datastore.viewer",
      "service": "datastore",
      "method": "",
      "severity": "MEDIUM",
      "tags": [],
      "details": {
        "undocumented": true
      }
    },
    {
      "id": "2026-03-01-1415",
      "date": "2026-03-01",
      "commit": "4f1f2fe056a4",
      "dimension": "role_permissions",
      "change_type": "permission_added_to_role",
      "permission": "developerconnect.gitRepositoryLinks.fetchGitRefs",
      "role": "roles/designcenter.admin",
      "service": "developerconnect",
      "method": "",
      "severity": "MEDIUM",
      "tags": [],
      "details": {
        "undocumented": true
      }
    },
    {
      "id": "2026-03-01-1416",
      "date": "2026-03-01",
      "commit": "4f1f2fe056a4",
      "dimension": "role_permissions",
      "change_type": "permission_added_to_role",
      "permission": "datamigration.connectionProfiles.deleteTagBinding",
      "role": "roles/dlp.projectdriver",
      "service": "datamigration",
      "method": "",
      "severity": "MEDIUM",
      "tags": [],
      "details": {
        "undocumented": true
      }
    },
    {
      "id": "2026-03-01-1417",
      "date": "2026-03-01",
      "commit": "4f1f2fe056a4",
      "dimension": "role_permissions",
      "change_type": "permission_added_to_role",
      "permission": "datamigration.connectionProfiles.deleteTagBinding",
      "role": "roles/datamigration.admin",
      "service": "datamigration",
      "method": "",
      "severity": "MEDIUM",
      "tags": [],
      "details": {
        "undocumented": true
      }
    },
    {
      "id": "2026-03-01-1418",
      "date": "2026-03-01",
      "commit": "4f1f2fe056a4",
      "dimension": "role_permissions",
      "change_type": "permission_added_to_role",
      "permission": "capacityplanner.planAlertInsights.list",
      "role": "roles/capacityplanner.viewer",
      "service": "capacityplanner",
      "method": "",
      "severity": "MEDIUM",
      "tags": [],
      "details": {
        "undocumented": true
      }
    },
    {
      "id": "2026-03-01-1419",
      "date": "2026-03-01",
      "commit": "4f1f2fe056a4",
      "dimension": "role_permissions",
      "change_type": "permission_added_to_role",
      "permission": "capacityplanner.planAlertInsights.list",
      "role": "roles/cloudhub.operator",
      "service": "capacityplanner",
      "method": "",
      "severity": "MEDIUM",
      "tags": [],
      "details": {
        "undocumented": true
      }
    },
    {
      "id": "2026-03-01-1420",
      "date": "2026-03-01",
      "commit": "4f1f2fe056a4",
      "dimension": "role_permissions",
      "change_type": "permission_added_to_role",
      "permission": "datamigration.migrationJobs.deleteTagBinding",
      "role": "roles/dlp.projectdriver",
      "service": "datamigration",
      "method": "",
      "severity": "MEDIUM",
      "tags": [],
      "details": {
        "undocumented": true
      }
    },
    {
      "id": "2026-03-01-1421",
      "date": "2026-03-01",
      "commit": "4f1f2fe056a4",
      "dimension": "role_permissions",
      "change_type": "permission_added_to_role",
      "permission": "datamigration.migrationJobs.deleteTagBinding",
      "role": "roles/datamigration.admin",
      "service": "datamigration",
      "method": "",
      "severity": "MEDIUM",
      "tags": [],
      "details": {
        "undocumented": true
      }
    },
    {
      "id": "2026-03-01-1422",
      "date": "2026-03-01",
      "commit": "4f1f2fe056a4",
      "dimension": "role_permissions",
      "change_type": "permission_added_to_role",
      "permission": "developerconnect.connections.list",
      "role": "roles/designcenter.admin",
      "service": "developerconnect",
      "method": "",
      "severity": "MEDIUM",
      "tags": [],
      "details": {
        "undocumented": true
      }
    },
    {
      "id": "2026-03-01-1423",
      "date": "2026-03-01",
      "commit": "4f1f2fe056a4",
      "dimension": "role_permissions",
      "change_type": "permission_added_to_role",
      "permission": "capacityplanner.capacityPlans.list",
      "role": "roles/capacityplanner.viewer",
      "service": "capacityplanner",
      "method": "",
      "severity": "MEDIUM",
      "tags": [],
      "details": {
        "undocumented": true
      }
    },
    {
      "id": "2026-03-01-1424",
      "date": "2026-03-01",
      "commit": "4f1f2fe056a4",
      "dimension": "role_permissions",
      "change_type": "permission_added_to_role",
      "permission": "capacityplanner.capacityPlans.list",
      "role": "roles/cloudhub.operator",
      "service": "capacityplanner",
      "method": "",
      "severity": "MEDIUM",
      "tags": [],
      "details": {
        "undocumented": true
      }
    },
    {
      "id": "2026-03-01-1425",
      "date": "2026-03-01",
      "commit": "4f1f2fe056a4",
      "dimension": "role_permissions",
      "change_type": "permission_added_to_role",
      "permission": "container.clusters.list",
      "role": "roles/designcenter.admin",
      "service": "container",
      "method": "",
      "severity": "MEDIUM",
      "tags": [],
      "details": {
        "undocumented": true
      }
    },
    {
      "id": "2026-03-01-1426",
      "date": "2026-03-01",
      "commit": "4f1f2fe056a4",
      "dimension": "role_permissions",
      "change_type": "permission_added_to_role",
      "permission": "container.clusters.list",
      "role": "roles/designcenter.applicationViewer",
      "service": "container",
      "method": "",
      "severity": "MEDIUM",
      "tags": [],
      "details": {
        "undocumented": true
      }
    },
    {
      "id": "2026-03-01-1427",
      "date": "2026-03-01",
      "commit": "4f1f2fe056a4",
      "dimension": "role_permissions",
      "change_type": "permission_added_to_role",
      "permission": "container.clusters.list",
      "role": "roles/designcenter.applicationEditor",
      "service": "container",
      "method": "",
      "severity": "MEDIUM",
      "tags": [],
      "details": {
        "undocumented": true
      }
    },
    {
      "id": "2026-03-01-1428",
      "date": "2026-03-01",
      "commit": "4f1f2fe056a4",
      "dimension": "role_permissions",
      "change_type": "permission_added_to_role",
      "permission": "container.clusters.list",
      "role": "roles/cloudhub.operator",
      "service": "container",
      "method": "",
      "severity": "MEDIUM",
      "tags": [],
      "details": {
        "undocumented": true
      }
    },
    {
      "id": "2026-03-01-1429",
      "date": "2026-03-01",
      "commit": "4f1f2fe056a4",
      "dimension": "role_permissions",
      "change_type": "permission_added_to_role",
      "permission": "apphub.boundaries.update",
      "role": "roles/designcenter.admin",
      "service": "apphub",
      "method": "",
      "severity": "HIGH",
      "tags": [],
      "details": {
        "undocumented": true
      }
    },
    {
      "id": "2026-03-01-1430",
      "date": "2026-03-01",
      "commit": "4f1f2fe056a4",
      "dimension": "role_permissions",
      "change_type": "permission_removed_from_role",
      "permission": "datastore.indexes.get",
      "role": "roles/datastore.indexAdmin",
      "service": "datastore",
      "method": "",
      "severity": "MEDIUM",
      "tags": [],
      "details": {
        "was_undocumented": false
      }
    },
    {
      "id": "2026-03-01-1431",
      "date": "2026-03-01",
      "commit": "4f1f2fe056a4",
      "dimension": "role_permissions",
      "change_type": "permission_removed_from_role",
      "permission": "datastore.indexes.get",
      "role": "roles/datastore.viewer",
      "service": "datastore",
      "method": "",
      "severity": "MEDIUM",
      "tags": [],
      "details": {
        "was_undocumented": false
      }
    },
    {
      "id": "2026-03-01-1432",
      "date": "2026-03-01",
      "commit": "4f1f2fe056a4",
      "dimension": "role_permissions",
      "change_type": "permission_removed_from_role",
      "permission": "datastore.indexes.get",
      "role": "roles/iam.databasesAdmin",
      "service": "datastore",
      "method": "",
      "severity": "MEDIUM",
      "tags": [],
      "details": {
        "was_undocumented": true
      }
    }
  ],
  "summary": {
    "by_severity": {
      "CRITICAL": 2,
      "HIGH": 171,
      "MEDIUM": 1223,
      "INFO": 36
    },
    "by_dimension": {
      "predefined_roles": 18,
      "role_permissions": 1344,
      "methods": 50,
      "method_map": 20
    },
    "new_services": []
  }
}