{
  "generated_at": "2026-03-31T16:49:48Z",
  "total_entries": 1340,
  "pages": 14,
  "page": 14,
  "page_size": 100,
  "entries": [
    {
      "id": "2026-03-06-1301",
      "date": "2026-03-06",
      "commit": "21a9d0a7ce0f",
      "dimension": "role_permissions",
      "change_type": "permission_added_to_role",
      "permission": "cloudkms.retiredResources.list",
      "role": "roles/iam.siteReliabilityEngineer",
      "service": "cloudkms",
      "method": "",
      "severity": "MEDIUM",
      "tags": [],
      "details": {
        "undocumented": true
      }
    },
    {
      "id": "2026-03-06-1302",
      "date": "2026-03-06",
      "commit": "21a9d0a7ce0f",
      "dimension": "role_permissions",
      "change_type": "permission_added_to_role",
      "permission": "cloudkms.retiredResources.list",
      "role": "roles/iam.databasesAdmin",
      "service": "cloudkms",
      "method": "",
      "severity": "MEDIUM",
      "tags": [],
      "details": {
        "undocumented": true
      }
    },
    {
      "id": "2026-03-06-1303",
      "date": "2026-03-06",
      "commit": "21a9d0a7ce0f",
      "dimension": "role_permissions",
      "change_type": "permission_added_to_role",
      "permission": "cloudkms.retiredResources.list",
      "role": "roles/editor",
      "service": "cloudkms",
      "method": "",
      "severity": "MEDIUM",
      "tags": [],
      "details": {
        "undocumented": true
      }
    },
    {
      "id": "2026-03-06-1304",
      "date": "2026-03-06",
      "commit": "21a9d0a7ce0f",
      "dimension": "role_permissions",
      "change_type": "permission_added_to_role",
      "permission": "cloudkms.retiredResources.list",
      "role": "roles/iam.securityAuditor",
      "service": "cloudkms",
      "method": "",
      "severity": "MEDIUM",
      "tags": [],
      "details": {
        "undocumented": true
      }
    },
    {
      "id": "2026-03-06-1305",
      "date": "2026-03-06",
      "commit": "21a9d0a7ce0f",
      "dimension": "role_permissions",
      "change_type": "permission_added_to_role",
      "permission": "compute.addresses.createInternal",
      "role": "roles/vpcaccess.serviceAgent",
      "service": "compute",
      "method": "",
      "severity": "MEDIUM",
      "tags": [],
      "details": {
        "undocumented": true
      }
    },
    {
      "id": "2026-03-06-1306",
      "date": "2026-03-06",
      "commit": "21a9d0a7ce0f",
      "dimension": "role_permissions",
      "change_type": "permission_added_to_role",
      "permission": "compute.addresses.get",
      "role": "roles/vpcaccess.serviceAgent",
      "service": "compute",
      "method": "",
      "severity": "MEDIUM",
      "tags": [],
      "details": {
        "undocumented": true
      }
    },
    {
      "id": "2026-03-06-1307",
      "date": "2026-03-06",
      "commit": "21a9d0a7ce0f",
      "dimension": "role_permissions",
      "change_type": "permission_added_to_role",
      "permission": "dataform.folders.deleteTree",
      "role": "roles/dataflow.serviceAgent",
      "service": "dataform",
      "method": "",
      "severity": "MEDIUM",
      "tags": [],
      "details": {
        "undocumented": true
      }
    },
    {
      "id": "2026-03-06-1308",
      "date": "2026-03-06",
      "commit": "21a9d0a7ce0f",
      "dimension": "role_permissions",
      "change_type": "permission_added_to_role",
      "permission": "dataform.folders.deleteTree",
      "role": "roles/dataform.admin",
      "service": "dataform",
      "method": "",
      "severity": "MEDIUM",
      "tags": [],
      "details": {
        "undocumented": true
      }
    },
    {
      "id": "2026-03-06-1309",
      "date": "2026-03-06",
      "commit": "21a9d0a7ce0f",
      "dimension": "role_permissions",
      "change_type": "permission_added_to_role",
      "permission": "dataform.folders.deleteTree",
      "role": "roles/bigquery.studioAdmin",
      "service": "dataform",
      "method": "",
      "severity": "MEDIUM",
      "tags": [],
      "details": {
        "undocumented": true
      }
    },
    {
      "id": "2026-03-06-1310",
      "date": "2026-03-06",
      "commit": "21a9d0a7ce0f",
      "dimension": "role_permissions",
      "change_type": "permission_added_to_role",
      "permission": "dataform.folders.deleteTree",
      "role": "roles/dataform.codeOwner",
      "service": "dataform",
      "method": "",
      "severity": "MEDIUM",
      "tags": [],
      "details": {
        "undocumented": true
      }
    },
    {
      "id": "2026-03-06-1311",
      "date": "2026-03-06",
      "commit": "21a9d0a7ce0f",
      "dimension": "role_permissions",
      "change_type": "permission_added_to_role",
      "permission": "dataform.folders.deleteTree",
      "role": "roles/iam.databasesAdmin",
      "service": "dataform",
      "method": "",
      "severity": "MEDIUM",
      "tags": [],
      "details": {
        "undocumented": true
      }
    },
    {
      "id": "2026-03-06-1312",
      "date": "2026-03-06",
      "commit": "21a9d0a7ce0f",
      "dimension": "role_permissions",
      "change_type": "permission_added_to_role",
      "permission": "dataform.folders.deleteTree",
      "role": "roles/editor",
      "service": "dataform",
      "method": "",
      "severity": "MEDIUM",
      "tags": [],
      "details": {
        "undocumented": true
      }
    },
    {
      "id": "2026-03-06-1313",
      "date": "2026-03-06",
      "commit": "21a9d0a7ce0f",
      "dimension": "role_permissions",
      "change_type": "permission_added_to_role",
      "permission": "auditmanager.auditSchedules.update",
      "role": "roles/auditmanager.auditor",
      "service": "auditmanager",
      "method": "",
      "severity": "HIGH",
      "tags": [],
      "details": {
        "undocumented": true
      }
    },
    {
      "id": "2026-03-06-1314",
      "date": "2026-03-06",
      "commit": "21a9d0a7ce0f",
      "dimension": "role_permissions",
      "change_type": "permission_added_to_role",
      "permission": "auditmanager.auditSchedules.update",
      "role": "roles/editor",
      "service": "auditmanager",
      "method": "",
      "severity": "HIGH",
      "tags": [],
      "details": {
        "undocumented": true
      }
    },
    {
      "id": "2026-03-06-1315",
      "date": "2026-03-06",
      "commit": "21a9d0a7ce0f",
      "dimension": "role_permissions",
      "change_type": "permission_added_to_role",
      "permission": "cloudkms.cryptoKeys.delete",
      "role": "roles/editor",
      "service": "cloudkms",
      "method": "",
      "severity": "HIGH",
      "tags": [],
      "details": {
        "undocumented": true
      }
    },
    {
      "id": "2026-03-06-1316",
      "date": "2026-03-06",
      "commit": "21a9d0a7ce0f",
      "dimension": "role_permissions",
      "change_type": "permission_added_to_role",
      "permission": "auditmanager.auditSchedules.get",
      "role": "roles/auditmanager.auditor",
      "service": "auditmanager",
      "method": "",
      "severity": "MEDIUM",
      "tags": [],
      "details": {
        "undocumented": true
      }
    },
    {
      "id": "2026-03-06-1317",
      "date": "2026-03-06",
      "commit": "21a9d0a7ce0f",
      "dimension": "role_permissions",
      "change_type": "permission_added_to_role",
      "permission": "auditmanager.auditSchedules.get",
      "role": "roles/editor",
      "service": "auditmanager",
      "method": "",
      "severity": "MEDIUM",
      "tags": [],
      "details": {
        "undocumented": true
      }
    },
    {
      "id": "2026-03-06-1318",
      "date": "2026-03-06",
      "commit": "21a9d0a7ce0f",
      "dimension": "role_permissions",
      "change_type": "permission_added_to_role",
      "permission": "compute.targetTcpProxies.attach",
      "role": "roles/dataflow.serviceAgent",
      "service": "compute",
      "method": "",
      "severity": "MEDIUM",
      "tags": [],
      "details": {
        "undocumented": true
      }
    },
    {
      "id": "2026-03-06-1319",
      "date": "2026-03-06",
      "commit": "21a9d0a7ce0f",
      "dimension": "role_permissions",
      "change_type": "permission_added_to_role",
      "permission": "compute.targetTcpProxies.attach",
      "role": "roles/compute.loadBalancerAdmin",
      "service": "compute",
      "method": "",
      "severity": "MEDIUM",
      "tags": [],
      "details": {
        "undocumented": true
      }
    },
    {
      "id": "2026-03-06-1320",
      "date": "2026-03-06",
      "commit": "21a9d0a7ce0f",
      "dimension": "role_permissions",
      "change_type": "permission_added_to_role",
      "permission": "compute.targetTcpProxies.attach",
      "role": "roles/composer.serviceAgent",
      "service": "compute",
      "method": "",
      "severity": "MEDIUM",
      "tags": [],
      "details": {
        "undocumented": true
      }
    },
    {
      "id": "2026-03-06-1321",
      "date": "2026-03-06",
      "commit": "21a9d0a7ce0f",
      "dimension": "role_permissions",
      "change_type": "permission_added_to_role",
      "permission": "compute.targetTcpProxies.attach",
      "role": "roles/notebooks.legacyAdmin",
      "service": "compute",
      "method": "",
      "severity": "MEDIUM",
      "tags": [],
      "details": {
        "undocumented": true
      }
    },
    {
      "id": "2026-03-06-1322",
      "date": "2026-03-06",
      "commit": "21a9d0a7ce0f",
      "dimension": "role_permissions",
      "change_type": "permission_added_to_role",
      "permission": "compute.targetTcpProxies.attach",
      "role": "roles/editor",
      "service": "compute",
      "method": "",
      "severity": "MEDIUM",
      "tags": [],
      "details": {
        "undocumented": true
      }
    },
    {
      "id": "2026-03-06-1323",
      "date": "2026-03-06",
      "commit": "21a9d0a7ce0f",
      "dimension": "role_permissions",
      "change_type": "permission_added_to_role",
      "permission": "cloudkms.cryptoKeyVersions.delete",
      "role": "roles/editor",
      "service": "cloudkms",
      "method": "",
      "severity": "HIGH",
      "tags": [],
      "details": {
        "undocumented": true
      }
    },
    {
      "id": "2026-03-06-1324",
      "date": "2026-03-06",
      "commit": "21a9d0a7ce0f",
      "dimension": "role_permissions",
      "change_type": "permission_added_to_role",
      "permission": "compute.regionTargetTcpProxies.attach",
      "role": "roles/dataflow.serviceAgent",
      "service": "compute",
      "method": "",
      "severity": "MEDIUM",
      "tags": [],
      "details": {
        "undocumented": true
      }
    },
    {
      "id": "2026-03-06-1325",
      "date": "2026-03-06",
      "commit": "21a9d0a7ce0f",
      "dimension": "role_permissions",
      "change_type": "permission_added_to_role",
      "permission": "compute.regionTargetTcpProxies.attach",
      "role": "roles/compute.loadBalancerAdmin",
      "service": "compute",
      "method": "",
      "severity": "MEDIUM",
      "tags": [],
      "details": {
        "undocumented": true
      }
    },
    {
      "id": "2026-03-06-1326",
      "date": "2026-03-06",
      "commit": "21a9d0a7ce0f",
      "dimension": "role_permissions",
      "change_type": "permission_added_to_role",
      "permission": "compute.regionTargetTcpProxies.attach",
      "role": "roles/composer.serviceAgent",
      "service": "compute",
      "method": "",
      "severity": "MEDIUM",
      "tags": [],
      "details": {
        "undocumented": true
      }
    },
    {
      "id": "2026-03-06-1327",
      "date": "2026-03-06",
      "commit": "21a9d0a7ce0f",
      "dimension": "role_permissions",
      "change_type": "permission_added_to_role",
      "permission": "compute.regionTargetTcpProxies.attach",
      "role": "roles/notebooks.legacyAdmin",
      "service": "compute",
      "method": "",
      "severity": "MEDIUM",
      "tags": [],
      "details": {
        "undocumented": true
      }
    },
    {
      "id": "2026-03-06-1328",
      "date": "2026-03-06",
      "commit": "21a9d0a7ce0f",
      "dimension": "role_permissions",
      "change_type": "permission_added_to_role",
      "permission": "compute.regionTargetTcpProxies.attach",
      "role": "roles/editor",
      "service": "compute",
      "method": "",
      "severity": "MEDIUM",
      "tags": [],
      "details": {
        "undocumented": true
      }
    },
    {
      "id": "2026-03-06-1329",
      "date": "2026-03-06",
      "commit": "21a9d0a7ce0f",
      "dimension": "role_permissions",
      "change_type": "permission_added_to_role",
      "permission": "compute.addresses.list",
      "role": "roles/vpcaccess.serviceAgent",
      "service": "compute",
      "method": "",
      "severity": "MEDIUM",
      "tags": [],
      "details": {
        "undocumented": true
      }
    },
    {
      "id": "2026-03-06-1330",
      "date": "2026-03-06",
      "commit": "21a9d0a7ce0f",
      "dimension": "role_permissions",
      "change_type": "permission_added_to_role",
      "permission": "compute.addresses.deleteInternal",
      "role": "roles/vpcaccess.serviceAgent",
      "service": "compute",
      "method": "",
      "severity": "MEDIUM",
      "tags": [],
      "details": {
        "undocumented": true
      }
    },
    {
      "id": "2026-03-06-1331",
      "date": "2026-03-06",
      "commit": "21a9d0a7ce0f",
      "dimension": "role_permissions",
      "change_type": "permission_added_to_role",
      "permission": "auditmanager.auditSchedules.list",
      "role": "roles/auditmanager.auditor",
      "service": "auditmanager",
      "method": "",
      "severity": "MEDIUM",
      "tags": [],
      "details": {
        "undocumented": true
      }
    },
    {
      "id": "2026-03-06-1332",
      "date": "2026-03-06",
      "commit": "21a9d0a7ce0f",
      "dimension": "role_permissions",
      "change_type": "permission_added_to_role",
      "permission": "auditmanager.auditSchedules.list",
      "role": "roles/editor",
      "service": "auditmanager",
      "method": "",
      "severity": "MEDIUM",
      "tags": [],
      "details": {
        "undocumented": true
      }
    },
    {
      "id": "2026-03-06-1333",
      "date": "2026-03-06",
      "commit": "21a9d0a7ce0f",
      "dimension": "role_permissions",
      "change_type": "permission_added_to_role",
      "permission": "auditmanager.auditSchedules.list",
      "role": "roles/iam.securityAuditor",
      "service": "auditmanager",
      "method": "",
      "severity": "MEDIUM",
      "tags": [],
      "details": {
        "undocumented": true
      }
    },
    {
      "id": "2026-03-06-1334",
      "date": "2026-03-06",
      "commit": "21a9d0a7ce0f",
      "dimension": "role_permissions",
      "change_type": "permission_added_to_role",
      "permission": "dataform.teamFolders.deleteTree",
      "role": "roles/dataflow.serviceAgent",
      "service": "dataform",
      "method": "",
      "severity": "MEDIUM",
      "tags": [],
      "details": {
        "undocumented": true
      }
    },
    {
      "id": "2026-03-06-1335",
      "date": "2026-03-06",
      "commit": "21a9d0a7ce0f",
      "dimension": "role_permissions",
      "change_type": "permission_added_to_role",
      "permission": "dataform.teamFolders.deleteTree",
      "role": "roles/dataform.admin",
      "service": "dataform",
      "method": "",
      "severity": "MEDIUM",
      "tags": [],
      "details": {
        "undocumented": true
      }
    },
    {
      "id": "2026-03-06-1336",
      "date": "2026-03-06",
      "commit": "21a9d0a7ce0f",
      "dimension": "role_permissions",
      "change_type": "permission_added_to_role",
      "permission": "dataform.teamFolders.deleteTree",
      "role": "roles/bigquery.studioAdmin",
      "service": "dataform",
      "method": "",
      "severity": "MEDIUM",
      "tags": [],
      "details": {
        "undocumented": true
      }
    },
    {
      "id": "2026-03-06-1337",
      "date": "2026-03-06",
      "commit": "21a9d0a7ce0f",
      "dimension": "role_permissions",
      "change_type": "permission_added_to_role",
      "permission": "dataform.teamFolders.deleteTree",
      "role": "roles/iam.databasesAdmin",
      "service": "dataform",
      "method": "",
      "severity": "MEDIUM",
      "tags": [],
      "details": {
        "undocumented": true
      }
    },
    {
      "id": "2026-03-06-1338",
      "date": "2026-03-06",
      "commit": "21a9d0a7ce0f",
      "dimension": "role_permissions",
      "change_type": "permission_added_to_role",
      "permission": "dataform.teamFolders.deleteTree",
      "role": "roles/editor",
      "service": "dataform",
      "method": "",
      "severity": "MEDIUM",
      "tags": [],
      "details": {
        "undocumented": true
      }
    },
    {
      "id": "2026-03-05-1339",
      "date": "2026-03-05",
      "commit": "3ff5abfc8818",
      "dimension": "methods",
      "change_type": "added",
      "permission": "",
      "role": "",
      "service": "dataplex",
      "method": "dataplex.projects.locations.entryGroups.entryLinks.patch",
      "severity": "HIGH",
      "tags": [],
      "details": {
        "service": "dataplex"
      }
    },
    {
      "id": "2026-03-05-1340",
      "date": "2026-03-05",
      "commit": "3ff5abfc8818",
      "dimension": "method_map",
      "change_type": "unmapped_method",
      "permission": "",
      "role": "",
      "service": "dataplex",
      "method": "dataplex.projects.locations.entryGroups.entryLinks.patch",
      "severity": "HIGH",
      "tags": [],
      "details": {
        "note": "New method has no permission mapping"
      }
    }
  ],
  "summary": {
    "by_severity": {
      "CRITICAL": 2,
      "HIGH": 150,
      "MEDIUM": 1152,
      "INFO": 36
    },
    "by_dimension": {
      "predefined_roles": 18,
      "role_permissions": 1252,
      "methods": 50,
      "method_map": 20
    },
    "new_services": []
  }
}