{
  "generated_at": "2026-06-01T20:09:55Z",
  "total_entries": 3356,
  "pages": 34,
  "page": 34,
  "page_size": 100,
  "entries": [
    {
      "id": "2026-05-06-3301",
      "date": "2026-05-06",
      "commit": "174fd0c0eef8",
      "dimension": "methods",
      "change_type": "added",
      "permission": "",
      "role": "",
      "service": "networksecurity",
      "method": "networksecurity.projects.locations.securityProfiles.get",
      "severity": "INFO",
      "tags": [],
      "details": {
        "service": "networksecurity"
      }
    },
    {
      "id": "2026-05-06-3302",
      "date": "2026-05-06",
      "commit": "174fd0c0eef8",
      "dimension": "methods",
      "change_type": "added",
      "permission": "",
      "role": "",
      "service": "networksecurity",
      "method": "networksecurity.projects.locations.securityProfiles.create",
      "severity": "HIGH",
      "tags": [],
      "details": {
        "service": "networksecurity"
      }
    },
    {
      "id": "2026-05-06-3303",
      "date": "2026-05-06",
      "commit": "174fd0c0eef8",
      "dimension": "methods",
      "change_type": "added",
      "permission": "",
      "role": "",
      "service": "networksecurity",
      "method": "networksecurity.projects.locations.firewallEndpoints.delete",
      "severity": "HIGH",
      "tags": [],
      "details": {
        "service": "networksecurity"
      }
    },
    {
      "id": "2026-05-06-3304",
      "date": "2026-05-06",
      "commit": "174fd0c0eef8",
      "dimension": "methods",
      "change_type": "added",
      "permission": "",
      "role": "",
      "service": "networksecurity",
      "method": "networksecurity.projects.locations.securityProfileGroups.patch",
      "severity": "HIGH",
      "tags": [],
      "details": {
        "service": "networksecurity"
      }
    },
    {
      "id": "2026-05-06-3305",
      "date": "2026-05-06",
      "commit": "174fd0c0eef8",
      "dimension": "methods",
      "change_type": "added",
      "permission": "",
      "role": "",
      "service": "networksecurity",
      "method": "networksecurity.projects.locations.securityProfileGroups.create",
      "severity": "HIGH",
      "tags": [],
      "details": {
        "service": "networksecurity"
      }
    },
    {
      "id": "2026-05-06-3306",
      "date": "2026-05-06",
      "commit": "174fd0c0eef8",
      "dimension": "methods",
      "change_type": "added",
      "permission": "",
      "role": "",
      "service": "networksecurity",
      "method": "networksecurity.projects.locations.firewallEndpoints.list",
      "severity": "INFO",
      "tags": [],
      "details": {
        "service": "networksecurity"
      }
    },
    {
      "id": "2026-05-06-3307",
      "date": "2026-05-06",
      "commit": "174fd0c0eef8",
      "dimension": "methods",
      "change_type": "added",
      "permission": "",
      "role": "",
      "service": "networksecurity",
      "method": "networksecurity.projects.locations.securityProfileGroups.delete",
      "severity": "HIGH",
      "tags": [],
      "details": {
        "service": "networksecurity"
      }
    },
    {
      "id": "2026-05-06-3308",
      "date": "2026-05-06",
      "commit": "174fd0c0eef8",
      "dimension": "methods",
      "change_type": "added",
      "permission": "",
      "role": "",
      "service": "networksecurity",
      "method": "networksecurity.projects.locations.firewallEndpoints.create",
      "severity": "HIGH",
      "tags": [],
      "details": {
        "service": "networksecurity"
      }
    },
    {
      "id": "2026-05-06-3309",
      "date": "2026-05-06",
      "commit": "174fd0c0eef8",
      "dimension": "methods",
      "change_type": "removed",
      "permission": "",
      "role": "",
      "service": "dataplex",
      "method": "dataplex.projects.locations.policyIntents.setIamPolicy",
      "severity": "CRITICAL",
      "tags": [],
      "details": {
        "service": "dataplex"
      }
    },
    {
      "id": "2026-05-06-3310",
      "date": "2026-05-06",
      "commit": "174fd0c0eef8",
      "dimension": "methods",
      "change_type": "removed",
      "permission": "",
      "role": "",
      "service": "dataplex",
      "method": "dataplex.projects.locations.policyIntents.getIamPolicy",
      "severity": "INFO",
      "tags": [],
      "details": {
        "service": "dataplex"
      }
    },
    {
      "id": "2026-05-06-3311",
      "date": "2026-05-06",
      "commit": "174fd0c0eef8",
      "dimension": "methods",
      "change_type": "removed",
      "permission": "",
      "role": "",
      "service": "dataplex",
      "method": "dataplex.projects.locations.policyIntents.testIamPermissions",
      "severity": "INFO",
      "tags": [],
      "details": {
        "service": "dataplex"
      }
    },
    {
      "id": "2026-05-06-3312",
      "date": "2026-05-06",
      "commit": "174fd0c0eef8",
      "dimension": "methods",
      "change_type": "added",
      "permission": "",
      "role": "",
      "service": "assuredworkloads",
      "method": "assuredworkloads.assuredworkloads.archiveResourceEvents",
      "severity": "INFO",
      "tags": [],
      "details": {
        "service": "assuredworkloads"
      }
    },
    {
      "id": "2026-05-06-3313",
      "date": "2026-05-06",
      "commit": "174fd0c0eef8",
      "dimension": "methods",
      "change_type": "added",
      "permission": "",
      "role": "",
      "service": "assuredworkloads",
      "method": "assuredworkloads.assuredworkloads.revertArchivedResourceEvents",
      "severity": "INFO",
      "tags": [],
      "details": {
        "service": "assuredworkloads"
      }
    },
    {
      "id": "2026-05-06-3314",
      "date": "2026-05-06",
      "commit": "174fd0c0eef8",
      "dimension": "method_map",
      "change_type": "unmapped_method",
      "permission": "",
      "role": "",
      "service": "backupdr",
      "method": "backupdr.projects.locations.resourceBackupConfigs.fetch",
      "severity": "INFO",
      "tags": [],
      "details": {
        "note": "New method has no permission mapping"
      }
    },
    {
      "id": "2026-05-06-3315",
      "date": "2026-05-06",
      "commit": "174fd0c0eef8",
      "dimension": "method_map",
      "change_type": "unmapped_method",
      "permission": "",
      "role": "",
      "service": "aiplatform",
      "method": "aiplatform.projects.locations.skills.operations.get",
      "severity": "INFO",
      "tags": [],
      "details": {
        "note": "New method has no permission mapping"
      }
    },
    {
      "id": "2026-05-06-3316",
      "date": "2026-05-06",
      "commit": "174fd0c0eef8",
      "dimension": "method_map",
      "change_type": "unmapped_method",
      "permission": "",
      "role": "",
      "service": "aiplatform",
      "method": "aiplatform.projects.locations.reasoningEngines.asyncQuery",
      "severity": "INFO",
      "tags": [],
      "details": {
        "note": "New method has no permission mapping"
      }
    },
    {
      "id": "2026-05-06-3317",
      "date": "2026-05-06",
      "commit": "174fd0c0eef8",
      "dimension": "method_map",
      "change_type": "unmapped_method",
      "permission": "",
      "role": "",
      "service": "networksecurity",
      "method": "networksecurity.projects.locations.securityProfiles.get",
      "severity": "INFO",
      "tags": [],
      "details": {
        "note": "New method has no permission mapping"
      }
    },
    {
      "id": "2026-05-06-3318",
      "date": "2026-05-06",
      "commit": "174fd0c0eef8",
      "dimension": "method_map",
      "change_type": "unmapped_method",
      "permission": "",
      "role": "",
      "service": "networksecurity",
      "method": "networksecurity.projects.locations.securityProfileGroups.create",
      "severity": "HIGH",
      "tags": [],
      "details": {
        "note": "New method has no permission mapping"
      }
    },
    {
      "id": "2026-05-06-3319",
      "date": "2026-05-06",
      "commit": "174fd0c0eef8",
      "dimension": "method_map",
      "change_type": "unmapped_method",
      "permission": "",
      "role": "",
      "service": "compute",
      "method": "compute.projectViews.get",
      "severity": "INFO",
      "tags": [],
      "details": {
        "note": "New method has no permission mapping"
      }
    },
    {
      "id": "2026-05-06-3320",
      "date": "2026-05-06",
      "commit": "174fd0c0eef8",
      "dimension": "method_map",
      "change_type": "unmapped_method",
      "permission": "",
      "role": "",
      "service": "networksecurity",
      "method": "networksecurity.projects.locations.firewallEndpoints.list",
      "severity": "INFO",
      "tags": [],
      "details": {
        "note": "New method has no permission mapping"
      }
    },
    {
      "id": "2026-05-06-3321",
      "date": "2026-05-06",
      "commit": "174fd0c0eef8",
      "dimension": "method_map",
      "change_type": "unmapped_method",
      "permission": "",
      "role": "",
      "service": "drive",
      "method": "drive.approvals.decline",
      "severity": "INFO",
      "tags": [],
      "details": {
        "note": "New method has no permission mapping"
      }
    },
    {
      "id": "2026-05-06-3322",
      "date": "2026-05-06",
      "commit": "174fd0c0eef8",
      "dimension": "method_map",
      "change_type": "unmapped_method",
      "permission": "",
      "role": "",
      "service": "aiplatform",
      "method": "aiplatform.skills.operations.wait",
      "severity": "INFO",
      "tags": [],
      "details": {
        "note": "New method has no permission mapping"
      }
    },
    {
      "id": "2026-05-06-3323",
      "date": "2026-05-06",
      "commit": "174fd0c0eef8",
      "dimension": "method_map",
      "change_type": "unmapped_method",
      "permission": "",
      "role": "",
      "service": "drive",
      "method": "drive.approvals.start",
      "severity": "INFO",
      "tags": [],
      "details": {
        "note": "New method has no permission mapping"
      }
    },
    {
      "id": "2026-05-06-3324",
      "date": "2026-05-06",
      "commit": "174fd0c0eef8",
      "dimension": "method_map",
      "change_type": "unmapped_method",
      "permission": "",
      "role": "",
      "service": "aiplatform",
      "method": "aiplatform.skills.operations.cancel",
      "severity": "INFO",
      "tags": [],
      "details": {
        "note": "New method has no permission mapping"
      }
    },
    {
      "id": "2026-05-06-3325",
      "date": "2026-05-06",
      "commit": "174fd0c0eef8",
      "dimension": "method_map",
      "change_type": "unmapped_method",
      "permission": "",
      "role": "",
      "service": "drive",
      "method": "drive.approvals.cancel",
      "severity": "INFO",
      "tags": [],
      "details": {
        "note": "New method has no permission mapping"
      }
    },
    {
      "id": "2026-05-06-3326",
      "date": "2026-05-06",
      "commit": "174fd0c0eef8",
      "dimension": "method_map",
      "change_type": "unmapped_method",
      "permission": "",
      "role": "",
      "service": "networksecurity",
      "method": "networksecurity.projects.locations.securityProfileGroups.list",
      "severity": "INFO",
      "tags": [],
      "details": {
        "note": "New method has no permission mapping"
      }
    },
    {
      "id": "2026-05-06-3327",
      "date": "2026-05-06",
      "commit": "174fd0c0eef8",
      "dimension": "method_map",
      "change_type": "unmapped_method",
      "permission": "",
      "role": "",
      "service": "aiplatform",
      "method": "aiplatform.projects.locations.skills.operations.cancel",
      "severity": "INFO",
      "tags": [],
      "details": {
        "note": "New method has no permission mapping"
      }
    },
    {
      "id": "2026-05-06-3328",
      "date": "2026-05-06",
      "commit": "174fd0c0eef8",
      "dimension": "method_map",
      "change_type": "unmapped_method",
      "permission": "",
      "role": "",
      "service": "compute",
      "method": "compute.imageViews.get",
      "severity": "INFO",
      "tags": [],
      "details": {
        "note": "New method has no permission mapping"
      }
    },
    {
      "id": "2026-05-06-3329",
      "date": "2026-05-06",
      "commit": "174fd0c0eef8",
      "dimension": "method_map",
      "change_type": "unmapped_method",
      "permission": "",
      "role": "",
      "service": "aiplatform",
      "method": "aiplatform.projects.locations.skills.operations.delete",
      "severity": "HIGH",
      "tags": [],
      "details": {
        "note": "New method has no permission mapping"
      }
    },
    {
      "id": "2026-05-06-3330",
      "date": "2026-05-06",
      "commit": "174fd0c0eef8",
      "dimension": "method_map",
      "change_type": "unmapped_method",
      "permission": "",
      "role": "",
      "service": "networksecurity",
      "method": "networksecurity.projects.locations.firewallEndpoints.patch",
      "severity": "HIGH",
      "tags": [],
      "details": {
        "note": "New method has no permission mapping"
      }
    },
    {
      "id": "2026-05-06-3331",
      "date": "2026-05-06",
      "commit": "174fd0c0eef8",
      "dimension": "method_map",
      "change_type": "unmapped_method",
      "permission": "",
      "role": "",
      "service": "aiplatform",
      "method": "aiplatform.projects.locations.skills.operations.list",
      "severity": "INFO",
      "tags": [],
      "details": {
        "note": "New method has no permission mapping"
      }
    },
    {
      "id": "2026-05-06-3332",
      "date": "2026-05-06",
      "commit": "174fd0c0eef8",
      "dimension": "method_map",
      "change_type": "unmapped_method",
      "permission": "",
      "role": "",
      "service": "drive",
      "method": "drive.approvals.comment",
      "severity": "INFO",
      "tags": [],
      "details": {
        "note": "New method has no permission mapping"
      }
    },
    {
      "id": "2026-05-06-3333",
      "date": "2026-05-06",
      "commit": "174fd0c0eef8",
      "dimension": "method_map",
      "change_type": "unmapped_method",
      "permission": "",
      "role": "",
      "service": "networksecurity",
      "method": "networksecurity.projects.locations.securityProfiles.delete",
      "severity": "HIGH",
      "tags": [],
      "details": {
        "note": "New method has no permission mapping"
      }
    },
    {
      "id": "2026-05-06-3334",
      "date": "2026-05-06",
      "commit": "174fd0c0eef8",
      "dimension": "method_map",
      "change_type": "unmapped_method",
      "permission": "",
      "role": "",
      "service": "compute",
      "method": "compute.rollouts.advance",
      "severity": "INFO",
      "tags": [],
      "details": {
        "note": "New method has no permission mapping"
      }
    },
    {
      "id": "2026-05-06-3335",
      "date": "2026-05-06",
      "commit": "174fd0c0eef8",
      "dimension": "method_map",
      "change_type": "unmapped_method",
      "permission": "",
      "role": "",
      "service": "gkehub",
      "method": "gkehub.projects.locations.rollouts.forceCompleteStage",
      "severity": "INFO",
      "tags": [],
      "details": {
        "note": "New method has no permission mapping"
      }
    },
    {
      "id": "2026-05-06-3336",
      "date": "2026-05-06",
      "commit": "174fd0c0eef8",
      "dimension": "method_map",
      "change_type": "unmapped_method",
      "permission": "",
      "role": "",
      "service": "aiplatform",
      "method": "aiplatform.reasoningEngines.asyncQuery",
      "severity": "INFO",
      "tags": [],
      "details": {
        "note": "New method has no permission mapping"
      }
    },
    {
      "id": "2026-05-06-3337",
      "date": "2026-05-06",
      "commit": "174fd0c0eef8",
      "dimension": "method_map",
      "change_type": "unmapped_method",
      "permission": "",
      "role": "",
      "service": "networksecurity",
      "method": "networksecurity.projects.locations.securityProfileGroups.get",
      "severity": "INFO",
      "tags": [],
      "details": {
        "note": "New method has no permission mapping"
      }
    },
    {
      "id": "2026-05-06-3338",
      "date": "2026-05-06",
      "commit": "174fd0c0eef8",
      "dimension": "method_map",
      "change_type": "unmapped_method",
      "permission": "",
      "role": "",
      "service": "aiplatform",
      "method": "aiplatform.skills.operations.get",
      "severity": "INFO",
      "tags": [],
      "details": {
        "note": "New method has no permission mapping"
      }
    },
    {
      "id": "2026-05-06-3339",
      "date": "2026-05-06",
      "commit": "174fd0c0eef8",
      "dimension": "method_map",
      "change_type": "unmapped_method",
      "permission": "",
      "role": "",
      "service": "networksecurity",
      "method": "networksecurity.projects.locations.securityProfiles.create",
      "severity": "HIGH",
      "tags": [],
      "details": {
        "note": "New method has no permission mapping"
      }
    },
    {
      "id": "2026-05-06-3340",
      "date": "2026-05-06",
      "commit": "174fd0c0eef8",
      "dimension": "method_map",
      "change_type": "unmapped_method",
      "permission": "",
      "role": "",
      "service": "assuredworkloads",
      "method": "assuredworkloads.assuredworkloads.revertArchivedResourceEvents",
      "severity": "INFO",
      "tags": [],
      "details": {
        "note": "New method has no permission mapping"
      }
    },
    {
      "id": "2026-05-06-3341",
      "date": "2026-05-06",
      "commit": "174fd0c0eef8",
      "dimension": "method_map",
      "change_type": "unmapped_method",
      "permission": "",
      "role": "",
      "service": "networksecurity",
      "method": "networksecurity.projects.locations.securityProfileGroups.delete",
      "severity": "HIGH",
      "tags": [],
      "details": {
        "note": "New method has no permission mapping"
      }
    },
    {
      "id": "2026-05-06-3342",
      "date": "2026-05-06",
      "commit": "174fd0c0eef8",
      "dimension": "method_map",
      "change_type": "unmapped_method",
      "permission": "",
      "role": "",
      "service": "backupdr",
      "method": "backupdr.organizations.locations.resourceBackupConfigs.fetch",
      "severity": "INFO",
      "tags": [],
      "details": {
        "note": "New method has no permission mapping"
      }
    },
    {
      "id": "2026-05-06-3343",
      "date": "2026-05-06",
      "commit": "174fd0c0eef8",
      "dimension": "method_map",
      "change_type": "unmapped_method",
      "permission": "",
      "role": "",
      "service": "drive",
      "method": "drive.approvals.approve",
      "severity": "INFO",
      "tags": [],
      "details": {
        "note": "New method has no permission mapping"
      }
    },
    {
      "id": "2026-05-06-3344",
      "date": "2026-05-06",
      "commit": "174fd0c0eef8",
      "dimension": "method_map",
      "change_type": "unmapped_method",
      "permission": "",
      "role": "",
      "service": "networksecurity",
      "method": "networksecurity.projects.locations.firewallEndpoints.create",
      "severity": "HIGH",
      "tags": [],
      "details": {
        "note": "New method has no permission mapping"
      }
    },
    {
      "id": "2026-05-06-3345",
      "date": "2026-05-06",
      "commit": "174fd0c0eef8",
      "dimension": "method_map",
      "change_type": "unmapped_method",
      "permission": "",
      "role": "",
      "service": "networksecurity",
      "method": "networksecurity.projects.locations.securityProfiles.list",
      "severity": "INFO",
      "tags": [],
      "details": {
        "note": "New method has no permission mapping"
      }
    },
    {
      "id": "2026-05-06-3346",
      "date": "2026-05-06",
      "commit": "174fd0c0eef8",
      "dimension": "method_map",
      "change_type": "unmapped_method",
      "permission": "",
      "role": "",
      "service": "backupdr",
      "method": "backupdr.folders.locations.resourceBackupConfigs.fetch",
      "severity": "INFO",
      "tags": [],
      "details": {
        "note": "New method has no permission mapping"
      }
    },
    {
      "id": "2026-05-06-3347",
      "date": "2026-05-06",
      "commit": "174fd0c0eef8",
      "dimension": "method_map",
      "change_type": "unmapped_method",
      "permission": "",
      "role": "",
      "service": "aiplatform",
      "method": "aiplatform.skills.operations.delete",
      "severity": "HIGH",
      "tags": [],
      "details": {
        "note": "New method has no permission mapping"
      }
    },
    {
      "id": "2026-05-06-3348",
      "date": "2026-05-06",
      "commit": "174fd0c0eef8",
      "dimension": "method_map",
      "change_type": "unmapped_method",
      "permission": "",
      "role": "",
      "service": "assuredworkloads",
      "method": "assuredworkloads.assuredworkloads.archiveResourceEvents",
      "severity": "INFO",
      "tags": [],
      "details": {
        "note": "New method has no permission mapping"
      }
    },
    {
      "id": "2026-05-06-3349",
      "date": "2026-05-06",
      "commit": "174fd0c0eef8",
      "dimension": "method_map",
      "change_type": "unmapped_method",
      "permission": "",
      "role": "",
      "service": "networksecurity",
      "method": "networksecurity.projects.locations.firewallEndpoints.get",
      "severity": "INFO",
      "tags": [],
      "details": {
        "note": "New method has no permission mapping"
      }
    },
    {
      "id": "2026-05-06-3350",
      "date": "2026-05-06",
      "commit": "174fd0c0eef8",
      "dimension": "method_map",
      "change_type": "unmapped_method",
      "permission": "",
      "role": "",
      "service": "networksecurity",
      "method": "networksecurity.projects.locations.securityProfiles.patch",
      "severity": "HIGH",
      "tags": [],
      "details": {
        "note": "New method has no permission mapping"
      }
    },
    {
      "id": "2026-05-06-3351",
      "date": "2026-05-06",
      "commit": "174fd0c0eef8",
      "dimension": "method_map",
      "change_type": "unmapped_method",
      "permission": "",
      "role": "",
      "service": "aiplatform",
      "method": "aiplatform.skills.operations.list",
      "severity": "INFO",
      "tags": [],
      "details": {
        "note": "New method has no permission mapping"
      }
    },
    {
      "id": "2026-05-06-3352",
      "date": "2026-05-06",
      "commit": "174fd0c0eef8",
      "dimension": "method_map",
      "change_type": "unmapped_method",
      "permission": "",
      "role": "",
      "service": "networksecurity",
      "method": "networksecurity.projects.locations.firewallEndpoints.delete",
      "severity": "HIGH",
      "tags": [],
      "details": {
        "note": "New method has no permission mapping"
      }
    },
    {
      "id": "2026-05-06-3353",
      "date": "2026-05-06",
      "commit": "174fd0c0eef8",
      "dimension": "method_map",
      "change_type": "unmapped_method",
      "permission": "",
      "role": "",
      "service": "networksecurity",
      "method": "networksecurity.projects.locations.securityProfileGroups.patch",
      "severity": "HIGH",
      "tags": [],
      "details": {
        "note": "New method has no permission mapping"
      }
    },
    {
      "id": "2026-05-06-3354",
      "date": "2026-05-06",
      "commit": "174fd0c0eef8",
      "dimension": "method_map",
      "change_type": "unmapped_method",
      "permission": "",
      "role": "",
      "service": "compute",
      "method": "compute.imageViews.list",
      "severity": "INFO",
      "tags": [],
      "details": {
        "note": "New method has no permission mapping"
      }
    },
    {
      "id": "2026-05-06-3355",
      "date": "2026-05-06",
      "commit": "174fd0c0eef8",
      "dimension": "method_map",
      "change_type": "unmapped_method",
      "permission": "",
      "role": "",
      "service": "aiplatform",
      "method": "aiplatform.projects.locations.skills.operations.wait",
      "severity": "INFO",
      "tags": [],
      "details": {
        "note": "New method has no permission mapping"
      }
    },
    {
      "id": "2026-05-06-3356",
      "date": "2026-05-06",
      "commit": "174fd0c0eef8",
      "dimension": "method_map",
      "change_type": "unmapped_method",
      "permission": "",
      "role": "",
      "service": "drive",
      "method": "drive.approvals.reassign",
      "severity": "INFO",
      "tags": [],
      "details": {
        "note": "New method has no permission mapping"
      }
    }
  ],
  "summary": {
    "by_severity": {
      "CRITICAL": 13,
      "HIGH": 733,
      "MEDIUM": 2421,
      "INFO": 189
    },
    "by_dimension": {
      "predefined_roles": 46,
      "role_permissions": 3061,
      "methods": 131,
      "method_map": 118
    },
    "new_services": []
  }
}