{
  "generated_at": "2026-05-15T17:22:53Z",
  "total_entries": 2419,
  "pages": 25,
  "page": 25,
  "page_size": 100,
  "entries": [
    {
      "id": "2026-04-23-2401",
      "date": "2026-04-23",
      "commit": "250af8a2fe03",
      "dimension": "methods",
      "change_type": "added",
      "permission": "",
      "role": "",
      "service": "playdeveloperreporting",
      "method": "playdeveloperreporting.ratings.get",
      "severity": "INFO",
      "tags": [],
      "details": {
        "service": "playdeveloperreporting"
      }
    },
    {
      "id": "2026-04-23-2402",
      "date": "2026-04-23",
      "commit": "250af8a2fe03",
      "dimension": "method_map",
      "change_type": "unmapped_method",
      "permission": "",
      "role": "",
      "service": "playdeveloperreporting",
      "method": "playdeveloperreporting.ratings.query",
      "severity": "INFO",
      "tags": [],
      "details": {
        "note": "New method has no permission mapping"
      }
    },
    {
      "id": "2026-04-23-2403",
      "date": "2026-04-23",
      "commit": "250af8a2fe03",
      "dimension": "method_map",
      "change_type": "unmapped_method",
      "permission": "",
      "role": "",
      "service": "playdeveloperreporting",
      "method": "playdeveloperreporting.ratings.get",
      "severity": "INFO",
      "tags": [],
      "details": {
        "note": "New method has no permission mapping"
      }
    },
    {
      "id": "2026-04-19-2404",
      "date": "2026-04-19",
      "commit": "3eda6499c9de",
      "dimension": "methods",
      "change_type": "added",
      "permission": "",
      "role": "",
      "service": "contactcenterinsights",
      "method": "contactcenterinsights.projects.locations.diagnostics.list",
      "severity": "INFO",
      "tags": [],
      "details": {
        "service": "contactcenterinsights"
      }
    },
    {
      "id": "2026-04-19-2405",
      "date": "2026-04-19",
      "commit": "3eda6499c9de",
      "dimension": "methods",
      "change_type": "added",
      "permission": "",
      "role": "",
      "service": "contactcenterinsights",
      "method": "contactcenterinsights.projects.locations.diagnostics.delete",
      "severity": "HIGH",
      "tags": [],
      "details": {
        "service": "contactcenterinsights"
      }
    },
    {
      "id": "2026-04-19-2406",
      "date": "2026-04-19",
      "commit": "3eda6499c9de",
      "dimension": "methods",
      "change_type": "added",
      "permission": "",
      "role": "",
      "service": "contactcenterinsights",
      "method": "contactcenterinsights.projects.locations.diagnoseConversations",
      "severity": "INFO",
      "tags": [],
      "details": {
        "service": "contactcenterinsights"
      }
    },
    {
      "id": "2026-04-19-2407",
      "date": "2026-04-19",
      "commit": "3eda6499c9de",
      "dimension": "methods",
      "change_type": "added",
      "permission": "",
      "role": "",
      "service": "contactcenterinsights",
      "method": "contactcenterinsights.projects.locations.diagnostics.get",
      "severity": "INFO",
      "tags": [],
      "details": {
        "service": "contactcenterinsights"
      }
    },
    {
      "id": "2026-04-19-2408",
      "date": "2026-04-19",
      "commit": "3eda6499c9de",
      "dimension": "methods",
      "change_type": "added",
      "permission": "",
      "role": "",
      "service": "chromemanagement",
      "method": "chromemanagement.customers.connectorConfigs.create",
      "severity": "HIGH",
      "tags": [],
      "details": {
        "service": "chromemanagement"
      }
    },
    {
      "id": "2026-04-19-2409",
      "date": "2026-04-19",
      "commit": "3eda6499c9de",
      "dimension": "methods",
      "change_type": "added",
      "permission": "",
      "role": "",
      "service": "chromemanagement",
      "method": "chromemanagement.customers.connectorConfigs.delete",
      "severity": "HIGH",
      "tags": [],
      "details": {
        "service": "chromemanagement"
      }
    },
    {
      "id": "2026-04-19-2410",
      "date": "2026-04-19",
      "commit": "3eda6499c9de",
      "dimension": "methods",
      "change_type": "added",
      "permission": "",
      "role": "",
      "service": "chromemanagement",
      "method": "chromemanagement.customers.connectorConfigs.list",
      "severity": "INFO",
      "tags": [],
      "details": {
        "service": "chromemanagement"
      }
    },
    {
      "id": "2026-04-19-2411",
      "date": "2026-04-19",
      "commit": "3eda6499c9de",
      "dimension": "methods",
      "change_type": "added",
      "permission": "",
      "role": "",
      "service": "chromemanagement",
      "method": "chromemanagement.customers.connectorConfigs.get",
      "severity": "INFO",
      "tags": [],
      "details": {
        "service": "chromemanagement"
      }
    },
    {
      "id": "2026-04-19-2412",
      "date": "2026-04-19",
      "commit": "3eda6499c9de",
      "dimension": "method_map",
      "change_type": "unmapped_method",
      "permission": "",
      "role": "",
      "service": "chromemanagement",
      "method": "chromemanagement.customers.connectorConfigs.get",
      "severity": "INFO",
      "tags": [],
      "details": {
        "note": "New method has no permission mapping"
      }
    },
    {
      "id": "2026-04-19-2413",
      "date": "2026-04-19",
      "commit": "3eda6499c9de",
      "dimension": "method_map",
      "change_type": "unmapped_method",
      "permission": "",
      "role": "",
      "service": "contactcenterinsights",
      "method": "contactcenterinsights.projects.locations.diagnostics.list",
      "severity": "INFO",
      "tags": [],
      "details": {
        "note": "New method has no permission mapping"
      }
    },
    {
      "id": "2026-04-19-2414",
      "date": "2026-04-19",
      "commit": "3eda6499c9de",
      "dimension": "method_map",
      "change_type": "unmapped_method",
      "permission": "",
      "role": "",
      "service": "contactcenterinsights",
      "method": "contactcenterinsights.projects.locations.diagnostics.get",
      "severity": "INFO",
      "tags": [],
      "details": {
        "note": "New method has no permission mapping"
      }
    },
    {
      "id": "2026-04-19-2415",
      "date": "2026-04-19",
      "commit": "3eda6499c9de",
      "dimension": "method_map",
      "change_type": "unmapped_method",
      "permission": "",
      "role": "",
      "service": "contactcenterinsights",
      "method": "contactcenterinsights.projects.locations.diagnoseConversations",
      "severity": "INFO",
      "tags": [],
      "details": {
        "note": "New method has no permission mapping"
      }
    },
    {
      "id": "2026-04-19-2416",
      "date": "2026-04-19",
      "commit": "3eda6499c9de",
      "dimension": "method_map",
      "change_type": "unmapped_method",
      "permission": "",
      "role": "",
      "service": "chromemanagement",
      "method": "chromemanagement.customers.connectorConfigs.list",
      "severity": "INFO",
      "tags": [],
      "details": {
        "note": "New method has no permission mapping"
      }
    },
    {
      "id": "2026-04-19-2417",
      "date": "2026-04-19",
      "commit": "3eda6499c9de",
      "dimension": "method_map",
      "change_type": "unmapped_method",
      "permission": "",
      "role": "",
      "service": "chromemanagement",
      "method": "chromemanagement.customers.connectorConfigs.create",
      "severity": "HIGH",
      "tags": [],
      "details": {
        "note": "New method has no permission mapping"
      }
    },
    {
      "id": "2026-04-19-2418",
      "date": "2026-04-19",
      "commit": "3eda6499c9de",
      "dimension": "method_map",
      "change_type": "unmapped_method",
      "permission": "",
      "role": "",
      "service": "chromemanagement",
      "method": "chromemanagement.customers.connectorConfigs.delete",
      "severity": "HIGH",
      "tags": [],
      "details": {
        "note": "New method has no permission mapping"
      }
    },
    {
      "id": "2026-04-19-2419",
      "date": "2026-04-19",
      "commit": "3eda6499c9de",
      "dimension": "method_map",
      "change_type": "unmapped_method",
      "permission": "",
      "role": "",
      "service": "contactcenterinsights",
      "method": "contactcenterinsights.projects.locations.diagnostics.delete",
      "severity": "HIGH",
      "tags": [],
      "details": {
        "note": "New method has no permission mapping"
      }
    }
  ],
  "summary": {
    "by_severity": {
      "CRITICAL": 12,
      "HIGH": 519,
      "MEDIUM": 1781,
      "INFO": 107
    },
    "by_dimension": {
      "role_permissions": 2254,
      "methods": 77,
      "method_map": 62,
      "predefined_roles": 26
    },
    "new_services": []
  }
}