{
  "generated_at": "2026-07-04T16:21:22Z",
  "total_entries": 3735,
  "pages": 38,
  "page": 38,
  "page_size": 100,
  "entries": [
    {
      "id": "2026-06-05-3701",
      "date": "2026-06-05",
      "commit": "078b24f2e99b",
      "dimension": "role_permissions",
      "change_type": "permission_added_to_role",
      "permission": "dataplex.operations.cancel",
      "role": "roles/alloydb.databaseUser",
      "service": "dataplex",
      "method": "",
      "severity": "MEDIUM",
      "tags": [],
      "details": {
        "undocumented": true
      }
    },
    {
      "id": "2026-06-05-3702",
      "date": "2026-06-05",
      "commit": "078b24f2e99b",
      "dimension": "role_permissions",
      "change_type": "permission_added_to_role",
      "permission": "dataplex.operations.cancel",
      "role": "roles/dlp.orgdriver",
      "service": "dataplex",
      "method": "",
      "severity": "MEDIUM",
      "tags": [],
      "details": {
        "undocumented": true
      }
    },
    {
      "id": "2026-06-05-3703",
      "date": "2026-06-05",
      "commit": "078b24f2e99b",
      "dimension": "role_permissions",
      "change_type": "permission_added_to_role",
      "permission": "dataplex.operations.cancel",
      "role": "roles/iam.databasesAdmin",
      "service": "dataplex",
      "method": "",
      "severity": "MEDIUM",
      "tags": [],
      "details": {
        "undocumented": true
      }
    },
    {
      "id": "2026-06-05-3704",
      "date": "2026-06-05",
      "commit": "078b24f2e99b",
      "dimension": "role_permissions",
      "change_type": "permission_added_to_role",
      "permission": "dataplex.operations.delete",
      "role": "roles/alloydb.databaseUser",
      "service": "dataplex",
      "method": "",
      "severity": "HIGH",
      "tags": [],
      "details": {
        "undocumented": true
      }
    },
    {
      "id": "2026-06-05-3705",
      "date": "2026-06-05",
      "commit": "078b24f2e99b",
      "dimension": "role_permissions",
      "change_type": "permission_added_to_role",
      "permission": "dataplex.operations.delete",
      "role": "roles/dlp.orgdriver",
      "service": "dataplex",
      "method": "",
      "severity": "HIGH",
      "tags": [],
      "details": {
        "undocumented": true
      }
    },
    {
      "id": "2026-06-05-3706",
      "date": "2026-06-05",
      "commit": "078b24f2e99b",
      "dimension": "role_permissions",
      "change_type": "permission_added_to_role",
      "permission": "dataplex.operations.delete",
      "role": "roles/iam.databasesAdmin",
      "service": "dataplex",
      "method": "",
      "severity": "HIGH",
      "tags": [],
      "details": {
        "undocumented": true
      }
    },
    {
      "id": "2026-06-05-3707",
      "date": "2026-06-05",
      "commit": "078b24f2e99b",
      "dimension": "role_permissions",
      "change_type": "permission_added_to_role",
      "permission": "contactcenterinsights.diagnostics.get",
      "role": "roles/contactcenterinsights.editor",
      "service": "contactcenterinsights",
      "method": "",
      "severity": "MEDIUM",
      "tags": [],
      "details": {
        "undocumented": true
      }
    },
    {
      "id": "2026-06-05-3708",
      "date": "2026-06-05",
      "commit": "078b24f2e99b",
      "dimension": "role_permissions",
      "change_type": "permission_added_to_role",
      "permission": "contactcenterinsights.diagnostics.get",
      "role": "roles/ces.viewer",
      "service": "contactcenterinsights",
      "method": "",
      "severity": "MEDIUM",
      "tags": [],
      "details": {
        "undocumented": true
      }
    },
    {
      "id": "2026-06-05-3709",
      "date": "2026-06-05",
      "commit": "078b24f2e99b",
      "dimension": "role_permissions",
      "change_type": "permission_added_to_role",
      "permission": "contactcenterinsights.diagnostics.get",
      "role": "roles/ces.toolsEditor",
      "service": "contactcenterinsights",
      "method": "",
      "severity": "MEDIUM",
      "tags": [],
      "details": {
        "undocumented": true
      }
    },
    {
      "id": "2026-06-05-3710",
      "date": "2026-06-05",
      "commit": "078b24f2e99b",
      "dimension": "role_permissions",
      "change_type": "permission_added_to_role",
      "permission": "dataplex.locations.list",
      "role": "roles/alloydb.databaseUser",
      "service": "dataplex",
      "method": "",
      "severity": "MEDIUM",
      "tags": [],
      "details": {
        "undocumented": true
      }
    },
    {
      "id": "2026-06-05-3711",
      "date": "2026-06-05",
      "commit": "078b24f2e99b",
      "dimension": "role_permissions",
      "change_type": "permission_added_to_role",
      "permission": "dataplex.locations.list",
      "role": "roles/dlp.orgdriver",
      "service": "dataplex",
      "method": "",
      "severity": "MEDIUM",
      "tags": [],
      "details": {
        "undocumented": true
      }
    },
    {
      "id": "2026-06-05-3712",
      "date": "2026-06-05",
      "commit": "078b24f2e99b",
      "dimension": "role_permissions",
      "change_type": "permission_added_to_role",
      "permission": "dataplex.locations.list",
      "role": "roles/iam.databasesAdmin",
      "service": "dataplex",
      "method": "",
      "severity": "MEDIUM",
      "tags": [],
      "details": {
        "undocumented": true
      }
    },
    {
      "id": "2026-06-05-3713",
      "date": "2026-06-05",
      "commit": "078b24f2e99b",
      "dimension": "role_permissions",
      "change_type": "permission_added_to_role",
      "permission": "aiplatform.analyzedSessions.aggregate",
      "role": "roles/dlp.orgdriver",
      "service": "aiplatform",
      "method": "",
      "severity": "MEDIUM",
      "tags": [],
      "details": {
        "undocumented": true
      }
    },
    {
      "id": "2026-06-05-3714",
      "date": "2026-06-05",
      "commit": "078b24f2e99b",
      "dimension": "role_permissions",
      "change_type": "permission_added_to_role",
      "permission": "bigquery.propertyGraphs.get",
      "role": "roles/bigquerydatapolicy.editor",
      "service": "bigquery",
      "method": "",
      "severity": "MEDIUM",
      "tags": [],
      "details": {
        "undocumented": true
      }
    },
    {
      "id": "2026-06-05-3715",
      "date": "2026-06-05",
      "commit": "078b24f2e99b",
      "dimension": "role_permissions",
      "change_type": "permission_added_to_role",
      "permission": "bigquery.propertyGraphs.get",
      "role": "roles/iam.securityAuditor",
      "service": "bigquery",
      "method": "",
      "severity": "MEDIUM",
      "tags": [],
      "details": {
        "undocumented": true
      }
    },
    {
      "id": "2026-06-05-3716",
      "date": "2026-06-05",
      "commit": "078b24f2e99b",
      "dimension": "role_permissions",
      "change_type": "permission_added_to_role",
      "permission": "bigquery.propertyGraphs.get",
      "role": "roles/dlp.orgdriver",
      "service": "bigquery",
      "method": "",
      "severity": "MEDIUM",
      "tags": [],
      "details": {
        "undocumented": true
      }
    },
    {
      "id": "2026-06-05-3717",
      "date": "2026-06-05",
      "commit": "078b24f2e99b",
      "dimension": "role_permissions",
      "change_type": "permission_added_to_role",
      "permission": "bigquery.propertyGraphs.get",
      "role": "roles/iam.databasesAdmin",
      "service": "bigquery",
      "method": "",
      "severity": "MEDIUM",
      "tags": [],
      "details": {
        "undocumented": true
      }
    },
    {
      "id": "2026-06-05-3718",
      "date": "2026-06-05",
      "commit": "078b24f2e99b",
      "dimension": "role_permissions",
      "change_type": "permission_added_to_role",
      "permission": "bigquery.propertyGraphs.get",
      "role": "roles/bigquery.dataEditor",
      "service": "bigquery",
      "method": "",
      "severity": "MEDIUM",
      "tags": [],
      "details": {
        "undocumented": true
      }
    },
    {
      "id": "2026-06-05-3719",
      "date": "2026-06-05",
      "commit": "078b24f2e99b",
      "dimension": "role_permissions",
      "change_type": "permission_added_to_role",
      "permission": "bigquery.propertyGraphs.get",
      "role": "roles/bigquery.admin",
      "service": "bigquery",
      "method": "",
      "severity": "MEDIUM",
      "tags": [],
      "details": {
        "undocumented": true
      }
    },
    {
      "id": "2026-06-05-3720",
      "date": "2026-06-05",
      "commit": "078b24f2e99b",
      "dimension": "role_permissions",
      "change_type": "permission_added_to_role",
      "permission": "bigquery.propertyGraphs.get",
      "role": "roles/dataprep.serviceAgent",
      "service": "bigquery",
      "method": "",
      "severity": "MEDIUM",
      "tags": [],
      "details": {
        "undocumented": true
      }
    },
    {
      "id": "2026-06-05-3721",
      "date": "2026-06-05",
      "commit": "078b24f2e99b",
      "dimension": "role_permissions",
      "change_type": "permission_added_to_role",
      "permission": "assuredworkloads.dbFindingSummaries.list",
      "role": "roles/iam.securityAuditor",
      "service": "assuredworkloads",
      "method": "",
      "severity": "MEDIUM",
      "tags": [],
      "details": {
        "undocumented": true
      }
    },
    {
      "id": "2026-06-05-3722",
      "date": "2026-06-05",
      "commit": "078b24f2e99b",
      "dimension": "role_permissions",
      "change_type": "permission_added_to_role",
      "permission": "aiplatform.analyzedSessions.list",
      "role": "roles/iam.securityAuditor",
      "service": "aiplatform",
      "method": "",
      "severity": "MEDIUM",
      "tags": [],
      "details": {
        "undocumented": true
      }
    },
    {
      "id": "2026-06-05-3723",
      "date": "2026-06-05",
      "commit": "078b24f2e99b",
      "dimension": "role_permissions",
      "change_type": "permission_added_to_role",
      "permission": "aiplatform.analyzedSessions.list",
      "role": "roles/dlp.orgdriver",
      "service": "aiplatform",
      "method": "",
      "severity": "MEDIUM",
      "tags": [],
      "details": {
        "undocumented": true
      }
    },
    {
      "id": "2026-06-05-3724",
      "date": "2026-06-05",
      "commit": "078b24f2e99b",
      "dimension": "role_permissions",
      "change_type": "permission_added_to_role",
      "permission": "aiplatform.agentAnomalyDetectionScopes.get",
      "role": "roles/dlp.orgdriver",
      "service": "aiplatform",
      "method": "",
      "severity": "MEDIUM",
      "tags": [],
      "details": {
        "undocumented": true
      }
    },
    {
      "id": "2026-06-05-3725",
      "date": "2026-06-05",
      "commit": "078b24f2e99b",
      "dimension": "role_permissions",
      "change_type": "permission_added_to_role",
      "permission": "dataplex.operations.get",
      "role": "roles/alloydb.databaseUser",
      "service": "dataplex",
      "method": "",
      "severity": "MEDIUM",
      "tags": [],
      "details": {
        "undocumented": true
      }
    },
    {
      "id": "2026-06-05-3726",
      "date": "2026-06-05",
      "commit": "078b24f2e99b",
      "dimension": "role_permissions",
      "change_type": "permission_added_to_role",
      "permission": "cloudmessaging.topicSubscriptions.list",
      "role": "roles/firebasecloudmessaging.admin",
      "service": "cloudmessaging",
      "method": "",
      "severity": "MEDIUM",
      "tags": [],
      "details": {
        "undocumented": true
      }
    },
    {
      "id": "2026-06-05-3727",
      "date": "2026-06-05",
      "commit": "078b24f2e99b",
      "dimension": "role_permissions",
      "change_type": "permission_added_to_role",
      "permission": "cloudmessaging.topicSubscriptions.list",
      "role": "roles/iam.securityAuditor",
      "service": "cloudmessaging",
      "method": "",
      "severity": "MEDIUM",
      "tags": [],
      "details": {
        "undocumented": true
      }
    },
    {
      "id": "2026-06-05-3728",
      "date": "2026-06-05",
      "commit": "078b24f2e99b",
      "dimension": "role_permissions",
      "change_type": "permission_added_to_role",
      "permission": "cloudmessaging.topicSubscriptions.delete",
      "role": "roles/firebasecloudmessaging.admin",
      "service": "cloudmessaging",
      "method": "",
      "severity": "HIGH",
      "tags": [],
      "details": {
        "undocumented": true
      }
    },
    {
      "id": "2026-06-05-3729",
      "date": "2026-06-05",
      "commit": "078b24f2e99b",
      "dimension": "role_permissions",
      "change_type": "permission_added_to_role",
      "permission": "contactcenterinsights.diagnostics.create",
      "role": "roles/contactcenterinsights.editor",
      "service": "contactcenterinsights",
      "method": "",
      "severity": "HIGH",
      "tags": [],
      "details": {
        "undocumented": true
      }
    },
    {
      "id": "2026-06-05-3730",
      "date": "2026-06-05",
      "commit": "078b24f2e99b",
      "dimension": "role_permissions",
      "change_type": "permission_added_to_role",
      "permission": "contactcenterinsights.diagnostics.list",
      "role": "roles/iam.securityAuditor",
      "service": "contactcenterinsights",
      "method": "",
      "severity": "MEDIUM",
      "tags": [],
      "details": {
        "undocumented": true
      }
    },
    {
      "id": "2026-06-05-3731",
      "date": "2026-06-05",
      "commit": "078b24f2e99b",
      "dimension": "role_permissions",
      "change_type": "permission_added_to_role",
      "permission": "contactcenterinsights.diagnostics.list",
      "role": "roles/contactcenterinsights.editor",
      "service": "contactcenterinsights",
      "method": "",
      "severity": "MEDIUM",
      "tags": [],
      "details": {
        "undocumented": true
      }
    },
    {
      "id": "2026-06-05-3732",
      "date": "2026-06-05",
      "commit": "078b24f2e99b",
      "dimension": "role_permissions",
      "change_type": "permission_added_to_role",
      "permission": "contactcenterinsights.diagnostics.list",
      "role": "roles/ces.viewer",
      "service": "contactcenterinsights",
      "method": "",
      "severity": "MEDIUM",
      "tags": [],
      "details": {
        "undocumented": true
      }
    },
    {
      "id": "2026-06-05-3733",
      "date": "2026-06-05",
      "commit": "078b24f2e99b",
      "dimension": "role_permissions",
      "change_type": "permission_added_to_role",
      "permission": "contactcenterinsights.diagnostics.list",
      "role": "roles/ces.toolsEditor",
      "service": "contactcenterinsights",
      "method": "",
      "severity": "MEDIUM",
      "tags": [],
      "details": {
        "undocumented": true
      }
    },
    {
      "id": "2026-06-05-3734",
      "date": "2026-06-05",
      "commit": "078b24f2e99b",
      "dimension": "role_permissions",
      "change_type": "permission_removed_from_role",
      "permission": "chronicle.iocMatches.list",
      "role": "roles/iam.securityAuditor",
      "service": "chronicle",
      "method": "",
      "severity": "MEDIUM",
      "tags": [],
      "details": {
        "was_undocumented": true
      }
    },
    {
      "id": "2026-06-05-3735",
      "date": "2026-06-05",
      "commit": "078b24f2e99b",
      "dimension": "role_permissions",
      "change_type": "permission_added_to_role",
      "permission": "cloudmessaging.topicSubscriptions.get",
      "role": "roles/firebasecloudmessaging.admin",
      "service": "cloudmessaging",
      "method": "",
      "severity": "MEDIUM",
      "tags": [],
      "details": {
        "undocumented": true
      }
    }
  ],
  "summary": {
    "by_severity": {
      "CRITICAL": 12,
      "HIGH": 471,
      "MEDIUM": 3073,
      "INFO": 179
    },
    "by_dimension": {
      "predefined_roles": 65,
      "role_permissions": 3415,
      "methods": 128,
      "method_map": 127
    },
    "new_services": []
  }
}