{
  "generated_at": "2026-06-04T18:09:03Z",
  "total_entries": 3263,
  "pages": 33,
  "page": 33,
  "page_size": 100,
  "entries": [
    {
      "id": "2026-05-07-3201",
      "date": "2026-05-07",
      "commit": "7c3ab2622188",
      "dimension": "role_permissions",
      "change_type": "permission_added_to_role",
      "permission": "cloudaicompanion.settingBindings.releaseChannelSettingsUse",
      "role": "roles/cloudaicompanion.admin",
      "service": "cloudaicompanion",
      "method": "",
      "severity": "MEDIUM",
      "tags": [],
      "details": {
        "undocumented": true
      }
    },
    {
      "id": "2026-05-07-3202",
      "date": "2026-05-07",
      "commit": "7c3ab2622188",
      "dimension": "role_permissions",
      "change_type": "permission_added_to_role",
      "permission": "cloudaicompanion.topics.create",
      "role": "roles/cloudaicompanion.editor",
      "service": "cloudaicompanion",
      "method": "",
      "severity": "HIGH",
      "tags": [],
      "details": {
        "undocumented": true
      }
    },
    {
      "id": "2026-05-07-3203",
      "date": "2026-05-07",
      "commit": "7c3ab2622188",
      "dimension": "role_permissions",
      "change_type": "permission_added_to_role",
      "permission": "cloudaicompanion.topics.create",
      "role": "roles/cloudaicompanion.admin",
      "service": "cloudaicompanion",
      "method": "",
      "severity": "HIGH",
      "tags": [],
      "details": {
        "undocumented": true
      }
    },
    {
      "id": "2026-05-07-3204",
      "date": "2026-05-07",
      "commit": "7c3ab2622188",
      "dimension": "role_permissions",
      "change_type": "permission_added_to_role",
      "permission": "cloudaicompanion.releaseChannelSettings.delete",
      "role": "roles/cloudaicompanion.editor",
      "service": "cloudaicompanion",
      "method": "",
      "severity": "HIGH",
      "tags": [],
      "details": {
        "undocumented": true
      }
    },
    {
      "id": "2026-05-07-3205",
      "date": "2026-05-07",
      "commit": "7c3ab2622188",
      "dimension": "role_permissions",
      "change_type": "permission_added_to_role",
      "permission": "cloudaicompanion.releaseChannelSettings.delete",
      "role": "roles/cloudaicompanion.admin",
      "service": "cloudaicompanion",
      "method": "",
      "severity": "HIGH",
      "tags": [],
      "details": {
        "undocumented": true
      }
    },
    {
      "id": "2026-05-07-3206",
      "date": "2026-05-07",
      "commit": "7c3ab2622188",
      "dimension": "role_permissions",
      "change_type": "permission_added_to_role",
      "permission": "cloudaicompanion.settingBindings.geminiGcpEnablementSettingsList",
      "role": "roles/cloudaicompanion.editor",
      "service": "cloudaicompanion",
      "method": "",
      "severity": "MEDIUM",
      "tags": [],
      "details": {
        "undocumented": true
      }
    },
    {
      "id": "2026-05-07-3207",
      "date": "2026-05-07",
      "commit": "7c3ab2622188",
      "dimension": "role_permissions",
      "change_type": "permission_added_to_role",
      "permission": "cloudaicompanion.settingBindings.geminiGcpEnablementSettingsList",
      "role": "roles/cloudaicompanion.admin",
      "service": "cloudaicompanion",
      "method": "",
      "severity": "MEDIUM",
      "tags": [],
      "details": {
        "undocumented": true
      }
    },
    {
      "id": "2026-05-07-3208",
      "date": "2026-05-07",
      "commit": "7c3ab2622188",
      "dimension": "role_permissions",
      "change_type": "permission_added_to_role",
      "permission": "ces.assistantSessions.get",
      "role": "roles/ces.viewer",
      "service": "ces",
      "method": "",
      "severity": "MEDIUM",
      "tags": [],
      "details": {
        "undocumented": true
      }
    },
    {
      "id": "2026-05-07-3209",
      "date": "2026-05-07",
      "commit": "7c3ab2622188",
      "dimension": "role_permissions",
      "change_type": "permission_added_to_role",
      "permission": "ces.assistantSessions.get",
      "role": "roles/ces.agentEditor",
      "service": "ces",
      "method": "",
      "severity": "MEDIUM",
      "tags": [],
      "details": {
        "undocumented": true
      }
    },
    {
      "id": "2026-05-07-3210",
      "date": "2026-05-07",
      "commit": "7c3ab2622188",
      "dimension": "role_permissions",
      "change_type": "permission_added_to_role",
      "permission": "ces.assistantSessions.get",
      "role": "roles/ces.appEditor",
      "service": "ces",
      "method": "",
      "severity": "MEDIUM",
      "tags": [],
      "details": {
        "undocumented": true
      }
    },
    {
      "id": "2026-05-07-3211",
      "date": "2026-05-07",
      "commit": "7c3ab2622188",
      "dimension": "role_permissions",
      "change_type": "permission_added_to_role",
      "permission": "ces.assistantSessions.get",
      "role": "roles/editor",
      "service": "ces",
      "method": "",
      "severity": "MEDIUM",
      "tags": [],
      "details": {
        "undocumented": true
      }
    },
    {
      "id": "2026-05-07-3212",
      "date": "2026-05-07",
      "commit": "7c3ab2622188",
      "dimension": "role_permissions",
      "change_type": "permission_added_to_role",
      "permission": "saasservicemgmt.flagReleases.update",
      "role": "roles/editor",
      "service": "saasservicemgmt",
      "method": "",
      "severity": "HIGH",
      "tags": [],
      "details": {
        "undocumented": true
      }
    },
    {
      "id": "2026-05-07-3213",
      "date": "2026-05-07",
      "commit": "7c3ab2622188",
      "dimension": "role_permissions",
      "change_type": "permission_added_to_role",
      "permission": "artifactregistry.kfpartifacts.create",
      "role": "roles/artifactregistry.editor",
      "service": "artifactregistry",
      "method": "",
      "severity": "HIGH",
      "tags": [],
      "details": {
        "undocumented": true
      }
    },
    {
      "id": "2026-05-07-3214",
      "date": "2026-05-07",
      "commit": "7c3ab2622188",
      "dimension": "role_permissions",
      "change_type": "permission_added_to_role",
      "permission": "cloudaicompanion.geminiGcpEnablementSettings.delete",
      "role": "roles/cloudaicompanion.editor",
      "service": "cloudaicompanion",
      "method": "",
      "severity": "HIGH",
      "tags": [],
      "details": {
        "undocumented": true
      }
    },
    {
      "id": "2026-05-07-3215",
      "date": "2026-05-07",
      "commit": "7c3ab2622188",
      "dimension": "role_permissions",
      "change_type": "permission_added_to_role",
      "permission": "cloudaicompanion.geminiGcpEnablementSettings.delete",
      "role": "roles/cloudaicompanion.admin",
      "service": "cloudaicompanion",
      "method": "",
      "severity": "HIGH",
      "tags": [],
      "details": {
        "undocumented": true
      }
    },
    {
      "id": "2026-05-07-3216",
      "date": "2026-05-07",
      "commit": "7c3ab2622188",
      "dimension": "role_permissions",
      "change_type": "permission_added_to_role",
      "permission": "cloudaicompanion.repositoryGroups.list",
      "role": "roles/cloudaicompanion.editor",
      "service": "cloudaicompanion",
      "method": "",
      "severity": "MEDIUM",
      "tags": [],
      "details": {
        "undocumented": true
      }
    },
    {
      "id": "2026-05-07-3217",
      "date": "2026-05-07",
      "commit": "7c3ab2622188",
      "dimension": "role_permissions",
      "change_type": "permission_added_to_role",
      "permission": "cloudaicompanion.repositoryGroups.list",
      "role": "roles/cloudaicompanion.admin",
      "service": "cloudaicompanion",
      "method": "",
      "severity": "MEDIUM",
      "tags": [],
      "details": {
        "undocumented": true
      }
    },
    {
      "id": "2026-05-07-3218",
      "date": "2026-05-07",
      "commit": "7c3ab2622188",
      "dimension": "role_permissions",
      "change_type": "permission_added_to_role",
      "permission": "auditmanager.auditSchedules.update",
      "role": "roles/cloudsecuritycompliance.admin",
      "service": "auditmanager",
      "method": "",
      "severity": "HIGH",
      "tags": [],
      "details": {
        "undocumented": true
      }
    },
    {
      "id": "2026-05-07-3219",
      "date": "2026-05-07",
      "commit": "7c3ab2622188",
      "dimension": "role_permissions",
      "change_type": "permission_added_to_role",
      "permission": "auditmanager.auditSchedules.update",
      "role": "roles/securitycenter.admin",
      "service": "auditmanager",
      "method": "",
      "severity": "HIGH",
      "tags": [],
      "details": {
        "undocumented": true
      }
    },
    {
      "id": "2026-05-07-3220",
      "date": "2026-05-07",
      "commit": "7c3ab2622188",
      "dimension": "role_permissions",
      "change_type": "permission_added_to_role",
      "permission": "commerceproducer.releases.list",
      "role": "roles/editor",
      "service": "commerceproducer",
      "method": "",
      "severity": "MEDIUM",
      "tags": [],
      "details": {
        "undocumented": true
      }
    },
    {
      "id": "2026-05-07-3221",
      "date": "2026-05-07",
      "commit": "7c3ab2622188",
      "dimension": "role_permissions",
      "change_type": "permission_added_to_role",
      "permission": "commerceproducer.releases.list",
      "role": "roles/iam.securityAuditor",
      "service": "commerceproducer",
      "method": "",
      "severity": "MEDIUM",
      "tags": [],
      "details": {
        "undocumented": true
      }
    },
    {
      "id": "2026-05-07-3222",
      "date": "2026-05-07",
      "commit": "7c3ab2622188",
      "dimension": "role_permissions",
      "change_type": "permission_added_to_role",
      "permission": "cloudnumberregistry.realms.create",
      "role": "roles/editor",
      "service": "cloudnumberregistry",
      "method": "",
      "severity": "HIGH",
      "tags": [],
      "details": {
        "undocumented": true
      }
    },
    {
      "id": "2026-05-07-3223",
      "date": "2026-05-07",
      "commit": "7c3ab2622188",
      "dimension": "role_permissions",
      "change_type": "permission_added_to_role",
      "permission": "deploymentmanager.deployments.setIamPolicy",
      "role": "roles/deploymentmanager.admin",
      "service": "deploymentmanager",
      "method": "",
      "severity": "CRITICAL",
      "tags": [],
      "details": {
        "undocumented": true
      }
    },
    {
      "id": "2026-05-07-3224",
      "date": "2026-05-07",
      "commit": "7c3ab2622188",
      "dimension": "role_permissions",
      "change_type": "permission_added_to_role",
      "permission": "deploymentmanager.typeProviders.delete",
      "role": "roles/deploymentmanager.admin",
      "service": "deploymentmanager",
      "method": "",
      "severity": "HIGH",
      "tags": [],
      "details": {
        "undocumented": true
      }
    },
    {
      "id": "2026-05-07-3225",
      "date": "2026-05-07",
      "commit": "7c3ab2622188",
      "dimension": "role_permissions",
      "change_type": "permission_added_to_role",
      "permission": "chronicle.sharedPreferenceSets.get",
      "role": "roles/editor",
      "service": "chronicle",
      "method": "",
      "severity": "MEDIUM",
      "tags": [],
      "details": {
        "undocumented": true
      }
    },
    {
      "id": "2026-05-07-3226",
      "date": "2026-05-07",
      "commit": "7c3ab2622188",
      "dimension": "role_permissions",
      "change_type": "permission_added_to_role",
      "permission": "chronicle.sharedPreferenceSets.get",
      "role": "roles/chronicle.editor",
      "service": "chronicle",
      "method": "",
      "severity": "MEDIUM",
      "tags": [],
      "details": {
        "undocumented": true
      }
    },
    {
      "id": "2026-05-07-3227",
      "date": "2026-05-07",
      "commit": "7c3ab2622188",
      "dimension": "role_permissions",
      "change_type": "permission_added_to_role",
      "permission": "cloudaicompanion.codeToolsSettings.get",
      "role": "roles/cloudaicompanion.editor",
      "service": "cloudaicompanion",
      "method": "",
      "severity": "MEDIUM",
      "tags": [],
      "details": {
        "undocumented": true
      }
    },
    {
      "id": "2026-05-07-3228",
      "date": "2026-05-07",
      "commit": "7c3ab2622188",
      "dimension": "role_permissions",
      "change_type": "permission_added_to_role",
      "permission": "cloudaicompanion.codeToolsSettings.get",
      "role": "roles/cloudaicompanion.admin",
      "service": "cloudaicompanion",
      "method": "",
      "severity": "MEDIUM",
      "tags": [],
      "details": {
        "undocumented": true
      }
    },
    {
      "id": "2026-05-07-3229",
      "date": "2026-05-07",
      "commit": "7c3ab2622188",
      "dimension": "role_permissions",
      "change_type": "permission_added_to_role",
      "permission": "faulttesting.experimentTemplates.list",
      "role": "roles/editor",
      "service": "faulttesting",
      "method": "",
      "severity": "MEDIUM",
      "tags": [],
      "details": {
        "undocumented": true
      }
    },
    {
      "id": "2026-05-07-3230",
      "date": "2026-05-07",
      "commit": "7c3ab2622188",
      "dimension": "role_permissions",
      "change_type": "permission_added_to_role",
      "permission": "faulttesting.experimentTemplates.list",
      "role": "roles/iam.securityAuditor",
      "service": "faulttesting",
      "method": "",
      "severity": "MEDIUM",
      "tags": [],
      "details": {
        "undocumented": true
      }
    },
    {
      "id": "2026-05-07-3231",
      "date": "2026-05-07",
      "commit": "7c3ab2622188",
      "dimension": "role_permissions",
      "change_type": "permission_added_to_role",
      "permission": "cloudaicompanion.settingBindings.codeToolsSettingsList",
      "role": "roles/cloudaicompanion.editor",
      "service": "cloudaicompanion",
      "method": "",
      "severity": "MEDIUM",
      "tags": [],
      "details": {
        "undocumented": true
      }
    },
    {
      "id": "2026-05-07-3232",
      "date": "2026-05-07",
      "commit": "7c3ab2622188",
      "dimension": "role_permissions",
      "change_type": "permission_added_to_role",
      "permission": "cloudaicompanion.settingBindings.codeToolsSettingsList",
      "role": "roles/cloudaicompanion.admin",
      "service": "cloudaicompanion",
      "method": "",
      "severity": "MEDIUM",
      "tags": [],
      "details": {
        "undocumented": true
      }
    },
    {
      "id": "2026-05-07-3233",
      "date": "2026-05-07",
      "commit": "7c3ab2622188",
      "dimension": "role_permissions",
      "change_type": "permission_added_to_role",
      "permission": "cloudaicompanion.topics.setIamPolicy",
      "role": "roles/cloudaicompanion.admin",
      "service": "cloudaicompanion",
      "method": "",
      "severity": "CRITICAL",
      "tags": [],
      "details": {
        "undocumented": true
      }
    },
    {
      "id": "2026-05-07-3234",
      "date": "2026-05-07",
      "commit": "7c3ab2622188",
      "dimension": "role_permissions",
      "change_type": "permission_added_to_role",
      "permission": "commerceproducer.releases.verify",
      "role": "roles/editor",
      "service": "commerceproducer",
      "method": "",
      "severity": "MEDIUM",
      "tags": [],
      "details": {
        "undocumented": true
      }
    },
    {
      "id": "2026-05-07-3235",
      "date": "2026-05-07",
      "commit": "7c3ab2622188",
      "dimension": "role_permissions",
      "change_type": "permission_added_to_role",
      "permission": "cloudaicompanion.geminiGcpEnablementSettings.list",
      "role": "roles/cloudaicompanion.editor",
      "service": "cloudaicompanion",
      "method": "",
      "severity": "MEDIUM",
      "tags": [],
      "details": {
        "undocumented": true
      }
    },
    {
      "id": "2026-05-07-3236",
      "date": "2026-05-07",
      "commit": "7c3ab2622188",
      "dimension": "role_permissions",
      "change_type": "permission_added_to_role",
      "permission": "cloudaicompanion.geminiGcpEnablementSettings.list",
      "role": "roles/cloudaicompanion.admin",
      "service": "cloudaicompanion",
      "method": "",
      "severity": "MEDIUM",
      "tags": [],
      "details": {
        "undocumented": true
      }
    },
    {
      "id": "2026-05-07-3237",
      "date": "2026-05-07",
      "commit": "7c3ab2622188",
      "dimension": "role_permissions",
      "change_type": "permission_added_to_role",
      "permission": "cloudaicompanion.codeToolsSettings.update",
      "role": "roles/cloudaicompanion.editor",
      "service": "cloudaicompanion",
      "method": "",
      "severity": "HIGH",
      "tags": [],
      "details": {
        "undocumented": true
      }
    },
    {
      "id": "2026-05-07-3238",
      "date": "2026-05-07",
      "commit": "7c3ab2622188",
      "dimension": "role_permissions",
      "change_type": "permission_added_to_role",
      "permission": "cloudaicompanion.codeToolsSettings.update",
      "role": "roles/cloudaicompanion.admin",
      "service": "cloudaicompanion",
      "method": "",
      "severity": "HIGH",
      "tags": [],
      "details": {
        "undocumented": true
      }
    },
    {
      "id": "2026-05-07-3239",
      "date": "2026-05-07",
      "commit": "7c3ab2622188",
      "dimension": "role_permissions",
      "change_type": "permission_added_to_role",
      "permission": "cloudaicompanion.geminiGcpEnablementSettings.create",
      "role": "roles/cloudaicompanion.editor",
      "service": "cloudaicompanion",
      "method": "",
      "severity": "HIGH",
      "tags": [],
      "details": {
        "undocumented": true
      }
    },
    {
      "id": "2026-05-07-3240",
      "date": "2026-05-07",
      "commit": "7c3ab2622188",
      "dimension": "role_permissions",
      "change_type": "permission_added_to_role",
      "permission": "cloudaicompanion.geminiGcpEnablementSettings.create",
      "role": "roles/cloudaicompanion.admin",
      "service": "cloudaicompanion",
      "method": "",
      "severity": "HIGH",
      "tags": [],
      "details": {
        "undocumented": true
      }
    },
    {
      "id": "2026-05-07-3241",
      "date": "2026-05-07",
      "commit": "7c3ab2622188",
      "dimension": "role_permissions",
      "change_type": "permission_added_to_role",
      "permission": "cloudaicompanion.settingBindings.loggingSettingsUse",
      "role": "roles/cloudaicompanion.editor",
      "service": "cloudaicompanion",
      "method": "",
      "severity": "MEDIUM",
      "tags": [],
      "details": {
        "undocumented": true
      }
    },
    {
      "id": "2026-05-07-3242",
      "date": "2026-05-07",
      "commit": "7c3ab2622188",
      "dimension": "role_permissions",
      "change_type": "permission_added_to_role",
      "permission": "cloudaicompanion.settingBindings.loggingSettingsUse",
      "role": "roles/cloudaicompanion.admin",
      "service": "cloudaicompanion",
      "method": "",
      "severity": "MEDIUM",
      "tags": [],
      "details": {
        "undocumented": true
      }
    },
    {
      "id": "2026-05-07-3243",
      "date": "2026-05-07",
      "commit": "7c3ab2622188",
      "dimension": "role_permissions",
      "change_type": "permission_added_to_role",
      "permission": "artifactregistry.repositories.update",
      "role": "roles/artifactregistry.editor",
      "service": "artifactregistry",
      "method": "",
      "severity": "HIGH",
      "tags": [],
      "details": {
        "undocumented": true
      }
    },
    {
      "id": "2026-05-07-3244",
      "date": "2026-05-07",
      "commit": "7c3ab2622188",
      "dimension": "role_permissions",
      "change_type": "permission_added_to_role",
      "permission": "cloudaicompanion.releaseChannelSettings.list",
      "role": "roles/cloudaicompanion.editor",
      "service": "cloudaicompanion",
      "method": "",
      "severity": "MEDIUM",
      "tags": [],
      "details": {
        "undocumented": true
      }
    },
    {
      "id": "2026-05-07-3245",
      "date": "2026-05-07",
      "commit": "7c3ab2622188",
      "dimension": "role_permissions",
      "change_type": "permission_added_to_role",
      "permission": "cloudaicompanion.releaseChannelSettings.list",
      "role": "roles/cloudaicompanion.admin",
      "service": "cloudaicompanion",
      "method": "",
      "severity": "MEDIUM",
      "tags": [],
      "details": {
        "undocumented": true
      }
    },
    {
      "id": "2026-05-07-3246",
      "date": "2026-05-07",
      "commit": "7c3ab2622188",
      "dimension": "role_permissions",
      "change_type": "permission_added_to_role",
      "permission": "cloudnumberregistry.locations.list",
      "role": "roles/editor",
      "service": "cloudnumberregistry",
      "method": "",
      "severity": "MEDIUM",
      "tags": [],
      "details": {
        "undocumented": true
      }
    },
    {
      "id": "2026-05-07-3247",
      "date": "2026-05-07",
      "commit": "7c3ab2622188",
      "dimension": "role_permissions",
      "change_type": "permission_added_to_role",
      "permission": "cloudnumberregistry.locations.list",
      "role": "roles/iam.securityAuditor",
      "service": "cloudnumberregistry",
      "method": "",
      "severity": "MEDIUM",
      "tags": [],
      "details": {
        "undocumented": true
      }
    },
    {
      "id": "2026-05-07-3248",
      "date": "2026-05-07",
      "commit": "7c3ab2622188",
      "dimension": "role_permissions",
      "change_type": "permission_added_to_role",
      "permission": "cloudaicompanion.codeRepositoryIndexes.list",
      "role": "roles/cloudaicompanion.editor",
      "service": "cloudaicompanion",
      "method": "",
      "severity": "MEDIUM",
      "tags": [],
      "details": {
        "undocumented": true
      }
    },
    {
      "id": "2026-05-07-3249",
      "date": "2026-05-07",
      "commit": "7c3ab2622188",
      "dimension": "role_permissions",
      "change_type": "permission_added_to_role",
      "permission": "cloudaicompanion.codeRepositoryIndexes.list",
      "role": "roles/cloudaicompanion.admin",
      "service": "cloudaicompanion",
      "method": "",
      "severity": "MEDIUM",
      "tags": [],
      "details": {
        "undocumented": true
      }
    },
    {
      "id": "2026-05-07-3250",
      "date": "2026-05-07",
      "commit": "7c3ab2622188",
      "dimension": "role_permissions",
      "change_type": "permission_added_to_role",
      "permission": "deploymentmanager.typeProviders.getType",
      "role": "roles/deploymentmanager.admin",
      "service": "deploymentmanager",
      "method": "",
      "severity": "MEDIUM",
      "tags": [],
      "details": {
        "undocumented": true
      }
    },
    {
      "id": "2026-05-07-3251",
      "date": "2026-05-07",
      "commit": "7c3ab2622188",
      "dimension": "role_permissions",
      "change_type": "permission_added_to_role",
      "permission": "serviceusage.groups.listMembers",
      "role": "roles/deploymentmanager.admin",
      "service": "serviceusage",
      "method": "",
      "severity": "MEDIUM",
      "tags": [],
      "details": {
        "undocumented": true
      }
    },
    {
      "id": "2026-05-07-3252",
      "date": "2026-05-07",
      "commit": "7c3ab2622188",
      "dimension": "role_permissions",
      "change_type": "permission_added_to_role",
      "permission": "iam.googleapis.com-workloadIdentityPoolNamespaces.create",
      "role": "roles/iam.admin",
      "service": "iam",
      "method": "",
      "severity": "HIGH",
      "tags": [],
      "details": {
        "undocumented": true
      }
    },
    {
      "id": "2026-05-07-3253",
      "date": "2026-05-07",
      "commit": "7c3ab2622188",
      "dimension": "role_permissions",
      "change_type": "permission_added_to_role",
      "permission": "artifactregistry.files.update",
      "role": "roles/artifactregistry.editor",
      "service": "artifactregistry",
      "method": "",
      "severity": "HIGH",
      "tags": [],
      "details": {
        "undocumented": true
      }
    },
    {
      "id": "2026-05-07-3254",
      "date": "2026-05-07",
      "commit": "7c3ab2622188",
      "dimension": "role_permissions",
      "change_type": "permission_added_to_role",
      "permission": "artifactregistry.repositories.get",
      "role": "roles/artifactregistry.viewer",
      "service": "artifactregistry",
      "method": "",
      "severity": "MEDIUM",
      "tags": [],
      "details": {
        "undocumented": true
      }
    },
    {
      "id": "2026-05-07-3255",
      "date": "2026-05-07",
      "commit": "7c3ab2622188",
      "dimension": "role_permissions",
      "change_type": "permission_added_to_role",
      "permission": "artifactregistry.repositories.get",
      "role": "roles/artifactregistry.editor",
      "service": "artifactregistry",
      "method": "",
      "severity": "MEDIUM",
      "tags": [],
      "details": {
        "undocumented": true
      }
    },
    {
      "id": "2026-05-07-3256",
      "date": "2026-05-07",
      "commit": "7c3ab2622188",
      "dimension": "role_permissions",
      "change_type": "permission_added_to_role",
      "permission": "cloudaicompanion.repositoryGroups.setIamPolicy",
      "role": "roles/cloudaicompanion.admin",
      "service": "cloudaicompanion",
      "method": "",
      "severity": "CRITICAL",
      "tags": [],
      "details": {
        "undocumented": true
      }
    },
    {
      "id": "2026-05-07-3257",
      "date": "2026-05-07",
      "commit": "7c3ab2622188",
      "dimension": "role_permissions",
      "change_type": "permission_added_to_role",
      "permission": "commerceproducer.services.get",
      "role": "roles/editor",
      "service": "commerceproducer",
      "method": "",
      "severity": "MEDIUM",
      "tags": [],
      "details": {
        "undocumented": true
      }
    },
    {
      "id": "2026-05-07-3258",
      "date": "2026-05-07",
      "commit": "7c3ab2622188",
      "dimension": "role_permissions",
      "change_type": "permission_added_to_role",
      "permission": "faulttesting.validations.get",
      "role": "roles/editor",
      "service": "faulttesting",
      "method": "",
      "severity": "MEDIUM",
      "tags": [],
      "details": {
        "undocumented": true
      }
    },
    {
      "id": "2026-05-07-3259",
      "date": "2026-05-07",
      "commit": "7c3ab2622188",
      "dimension": "role_permissions",
      "change_type": "permission_added_to_role",
      "permission": "deploymentmanager.compositeTypes.list",
      "role": "roles/deploymentmanager.admin",
      "service": "deploymentmanager",
      "method": "",
      "severity": "MEDIUM",
      "tags": [],
      "details": {
        "undocumented": true
      }
    },
    {
      "id": "2026-05-07-3260",
      "date": "2026-05-07",
      "commit": "7c3ab2622188",
      "dimension": "role_permissions",
      "change_type": "permission_added_to_role",
      "permission": "deploymentmanager.typeProviders.create",
      "role": "roles/deploymentmanager.admin",
      "service": "deploymentmanager",
      "method": "",
      "severity": "HIGH",
      "tags": [],
      "details": {
        "undocumented": true
      }
    },
    {
      "id": "2026-05-07-3261",
      "date": "2026-05-07",
      "commit": "7c3ab2622188",
      "dimension": "methods",
      "change_type": "added",
      "permission": "",
      "role": "",
      "service": "chromemanagement",
      "method": "chromemanagement.customers.reports.findInstalledAppProfiles",
      "severity": "INFO",
      "tags": [],
      "details": {
        "service": "chromemanagement"
      }
    },
    {
      "id": "2026-05-07-3262",
      "date": "2026-05-07",
      "commit": "7c3ab2622188",
      "dimension": "methods",
      "change_type": "removed",
      "permission": "",
      "role": "",
      "service": "cloudtasks",
      "method": "cloudtasks.projects.locations.operations.get",
      "severity": "INFO",
      "tags": [],
      "details": {
        "service": "cloudtasks"
      }
    },
    {
      "id": "2026-05-07-3263",
      "date": "2026-05-07",
      "commit": "7c3ab2622188",
      "dimension": "method_map",
      "change_type": "unmapped_method",
      "permission": "",
      "role": "",
      "service": "chromemanagement",
      "method": "chromemanagement.customers.reports.findInstalledAppProfiles",
      "severity": "INFO",
      "tags": [],
      "details": {
        "note": "New method has no permission mapping"
      }
    }
  ],
  "summary": {
    "by_severity": {
      "CRITICAL": 12,
      "HIGH": 711,
      "MEDIUM": 2421,
      "INFO": 119
    },
    "by_dimension": {
      "methods": 81,
      "predefined_roles": 46,
      "role_permissions": 3061,
      "method_map": 75
    },
    "new_services": []
  }
}