{
  "generated_at": "2026-06-26T16:38:10Z",
  "total_entries": 2012,
  "pages": 21,
  "page": 21,
  "page_size": 100,
  "entries": [
    {
      "id": "2026-05-31-2001",
      "date": "2026-05-31",
      "commit": "484627b4f9fb",
      "dimension": "role_permissions",
      "change_type": "permission_added_to_role",
      "permission": "dataplex.operations.get",
      "role": "roles/spanner.databaseReader",
      "service": "dataplex",
      "method": "",
      "severity": "MEDIUM",
      "tags": [],
      "details": {
        "undocumented": true
      }
    },
    {
      "id": "2026-05-31-2002",
      "date": "2026-05-31",
      "commit": "484627b4f9fb",
      "dimension": "role_permissions",
      "change_type": "permission_added_to_role",
      "permission": "dataplex.operations.get",
      "role": "roles/spanner.databaseReaderWithDataBoost",
      "service": "dataplex",
      "method": "",
      "severity": "MEDIUM",
      "tags": [],
      "details": {
        "undocumented": true
      }
    },
    {
      "id": "2026-05-31-2003",
      "date": "2026-05-31",
      "commit": "484627b4f9fb",
      "dimension": "role_permissions",
      "change_type": "permission_added_to_role",
      "permission": "fleetengine.tasks.get",
      "role": "roles/fleetengine.viewer",
      "service": "fleetengine",
      "method": "",
      "severity": "MEDIUM",
      "tags": [],
      "details": {
        "undocumented": true
      }
    },
    {
      "id": "2026-05-31-2004",
      "date": "2026-05-31",
      "commit": "484627b4f9fb",
      "dimension": "role_permissions",
      "change_type": "permission_added_to_role",
      "permission": "cloudkms.projects.showEffectiveAutokeyConfig",
      "role": "roles/iam.securityAuditor",
      "service": "cloudkms",
      "method": "",
      "severity": "MEDIUM",
      "tags": [],
      "details": {
        "undocumented": true
      }
    },
    {
      "id": "2026-05-31-2005",
      "date": "2026-05-31",
      "commit": "484627b4f9fb",
      "dimension": "role_permissions",
      "change_type": "permission_added_to_role",
      "permission": "cloudkms.projects.showEffectiveAutokeyConfig",
      "role": "roles/cloudkms.viewer",
      "service": "cloudkms",
      "method": "",
      "severity": "MEDIUM",
      "tags": [],
      "details": {
        "undocumented": true
      }
    },
    {
      "id": "2026-05-31-2006",
      "date": "2026-05-31",
      "commit": "484627b4f9fb",
      "dimension": "role_permissions",
      "change_type": "permission_added_to_role",
      "permission": "fleetengine.trips.get",
      "role": "roles/fleetengine.viewer",
      "service": "fleetengine",
      "method": "",
      "severity": "MEDIUM",
      "tags": [],
      "details": {
        "undocumented": true
      }
    },
    {
      "id": "2026-05-31-2007",
      "date": "2026-05-31",
      "commit": "484627b4f9fb",
      "dimension": "role_permissions",
      "change_type": "permission_added_to_role",
      "permission": "fleetengine.tasktrackinginfo.get",
      "role": "roles/fleetengine.viewer",
      "service": "fleetengine",
      "method": "",
      "severity": "MEDIUM",
      "tags": [],
      "details": {
        "undocumented": true
      }
    },
    {
      "id": "2026-05-31-2008",
      "date": "2026-05-31",
      "commit": "484627b4f9fb",
      "dimension": "role_permissions",
      "change_type": "permission_added_to_role",
      "permission": "geminidataanalytics.locations.list",
      "role": "roles/geminidataanalytics.admin",
      "service": "geminidataanalytics",
      "method": "",
      "severity": "MEDIUM",
      "tags": [],
      "details": {
        "undocumented": true
      }
    },
    {
      "id": "2026-05-31-2009",
      "date": "2026-05-31",
      "commit": "484627b4f9fb",
      "dimension": "role_permissions",
      "change_type": "permission_added_to_role",
      "permission": "geminidataanalytics.locations.list",
      "role": "roles/geminidataanalytics.viewer",
      "service": "geminidataanalytics",
      "method": "",
      "severity": "MEDIUM",
      "tags": [],
      "details": {
        "undocumented": true
      }
    },
    {
      "id": "2026-05-31-2010",
      "date": "2026-05-31",
      "commit": "484627b4f9fb",
      "dimension": "role_permissions",
      "change_type": "permission_added_to_role",
      "permission": "geminidataanalytics.locations.chat",
      "role": "roles/geminidataanalytics.admin",
      "service": "geminidataanalytics",
      "method": "",
      "severity": "MEDIUM",
      "tags": [],
      "details": {
        "undocumented": true
      }
    },
    {
      "id": "2026-05-31-2011",
      "date": "2026-05-31",
      "commit": "484627b4f9fb",
      "dimension": "role_permissions",
      "change_type": "permission_added_to_role",
      "permission": "geminidataanalytics.locations.chat",
      "role": "roles/geminidataanalytics.viewer",
      "service": "geminidataanalytics",
      "method": "",
      "severity": "MEDIUM",
      "tags": [],
      "details": {
        "undocumented": true
      }
    },
    {
      "id": "2026-05-31-2012",
      "date": "2026-05-31",
      "commit": "484627b4f9fb",
      "dimension": "role_permissions",
      "change_type": "permission_added_to_role",
      "permission": "fleetengine.vehicles.list",
      "role": "roles/fleetengine.viewer",
      "service": "fleetengine",
      "method": "",
      "severity": "MEDIUM",
      "tags": [],
      "details": {
        "undocumented": true
      }
    }
  ],
  "summary": {
    "by_severity": {
      "CRITICAL": 9,
      "HIGH": 385,
      "MEDIUM": 1460,
      "INFO": 158
    },
    "by_dimension": {
      "role_permissions": 1728,
      "predefined_roles": 59,
      "methods": 115,
      "method_map": 110
    },
    "new_services": []
  }
}