{
  "generated_at": "2026-06-22T17:31:13Z",
  "total_entries": 1820,
  "pages": 19,
  "page": 19,
  "page_size": 100,
  "entries": [
    {
      "id": "2026-05-31-1801",
      "date": "2026-05-31",
      "commit": "484627b4f9fb",
      "dimension": "role_permissions",
      "change_type": "permission_added_to_role",
      "permission": "auditmanager.customComplianceFrameworks.list",
      "role": "roles/auditmanager.viewer",
      "service": "auditmanager",
      "method": "",
      "severity": "MEDIUM",
      "tags": [],
      "details": {
        "undocumented": true
      }
    },
    {
      "id": "2026-05-31-1802",
      "date": "2026-05-31",
      "commit": "484627b4f9fb",
      "dimension": "role_permissions",
      "change_type": "permission_added_to_role",
      "permission": "fleetengine.tasks.list",
      "role": "roles/fleetengine.viewer",
      "service": "fleetengine",
      "method": "",
      "severity": "MEDIUM",
      "tags": [],
      "details": {
        "undocumented": true
      }
    },
    {
      "id": "2026-05-31-1803",
      "date": "2026-05-31",
      "commit": "484627b4f9fb",
      "dimension": "role_permissions",
      "change_type": "permission_added_to_role",
      "permission": "auditmanager.resourceEnrollmentStatuses.get",
      "role": "roles/auditmanager.viewer",
      "service": "auditmanager",
      "method": "",
      "severity": "MEDIUM",
      "tags": [],
      "details": {
        "undocumented": true
      }
    },
    {
      "id": "2026-05-31-1804",
      "date": "2026-05-31",
      "commit": "484627b4f9fb",
      "dimension": "role_permissions",
      "change_type": "permission_added_to_role",
      "permission": "auditmanager.auditReports.list",
      "role": "roles/auditmanager.viewer",
      "service": "auditmanager",
      "method": "",
      "severity": "MEDIUM",
      "tags": [],
      "details": {
        "undocumented": true
      }
    },
    {
      "id": "2026-05-31-1805",
      "date": "2026-05-31",
      "commit": "484627b4f9fb",
      "dimension": "role_permissions",
      "change_type": "permission_added_to_role",
      "permission": "networkservices.tlsRoutes.create",
      "role": "roles/multiclusteringress.serviceAgent",
      "service": "networkservices",
      "method": "",
      "severity": "HIGH",
      "tags": [],
      "details": {
        "undocumented": true
      }
    },
    {
      "id": "2026-05-31-1806",
      "date": "2026-05-31",
      "commit": "484627b4f9fb",
      "dimension": "role_permissions",
      "change_type": "permission_added_to_role",
      "permission": "dataplex.operations.delete",
      "role": "roles/spanner.databaseUser",
      "service": "dataplex",
      "method": "",
      "severity": "HIGH",
      "tags": [],
      "details": {
        "undocumented": true
      }
    },
    {
      "id": "2026-05-31-1807",
      "date": "2026-05-31",
      "commit": "484627b4f9fb",
      "dimension": "role_permissions",
      "change_type": "permission_added_to_role",
      "permission": "dataplex.operations.delete",
      "role": "roles/datafusion.serviceAgent",
      "service": "dataplex",
      "method": "",
      "severity": "HIGH",
      "tags": [],
      "details": {
        "undocumented": true
      }
    },
    {
      "id": "2026-05-31-1808",
      "date": "2026-05-31",
      "commit": "484627b4f9fb",
      "dimension": "role_permissions",
      "change_type": "permission_added_to_role",
      "permission": "auditmanager.controls.list",
      "role": "roles/auditmanager.viewer",
      "service": "auditmanager",
      "method": "",
      "severity": "MEDIUM",
      "tags": [],
      "details": {
        "undocumented": true
      }
    },
    {
      "id": "2026-05-31-1809",
      "date": "2026-05-31",
      "commit": "484627b4f9fb",
      "dimension": "role_permissions",
      "change_type": "permission_added_to_role",
      "permission": "netapp.storagePools.restoreVolume",
      "role": "roles/owner",
      "service": "netapp",
      "method": "",
      "severity": "MEDIUM",
      "tags": [],
      "details": {
        "undocumented": true
      }
    },
    {
      "id": "2026-05-31-1810",
      "date": "2026-05-31",
      "commit": "484627b4f9fb",
      "dimension": "role_permissions",
      "change_type": "permission_added_to_role",
      "permission": "netapp.storagePools.restoreVolume",
      "role": "roles/netapp.admin",
      "service": "netapp",
      "method": "",
      "severity": "MEDIUM",
      "tags": [],
      "details": {
        "undocumented": true
      }
    },
    {
      "id": "2026-05-31-1811",
      "date": "2026-05-31",
      "commit": "484627b4f9fb",
      "dimension": "role_permissions",
      "change_type": "permission_added_to_role",
      "permission": "fleetengine.vehicles.search",
      "role": "roles/fleetengine.viewer",
      "service": "fleetengine",
      "method": "",
      "severity": "MEDIUM",
      "tags": [],
      "details": {
        "undocumented": true
      }
    },
    {
      "id": "2026-05-31-1812",
      "date": "2026-05-31",
      "commit": "484627b4f9fb",
      "dimension": "role_permissions",
      "change_type": "permission_added_to_role",
      "permission": "networksecurity.firewallEndpoints.useWildfire",
      "role": "roles/owner",
      "service": "networksecurity",
      "method": "",
      "severity": "MEDIUM",
      "tags": [],
      "details": {
        "undocumented": true
      }
    },
    {
      "id": "2026-05-31-1813",
      "date": "2026-05-31",
      "commit": "484627b4f9fb",
      "dimension": "role_permissions",
      "change_type": "permission_added_to_role",
      "permission": "networksecurity.firewallEndpoints.useWildfire",
      "role": "roles/compute.networkAdmin",
      "service": "networksecurity",
      "method": "",
      "severity": "MEDIUM",
      "tags": [],
      "details": {
        "undocumented": true
      }
    },
    {
      "id": "2026-05-31-1814",
      "date": "2026-05-31",
      "commit": "484627b4f9fb",
      "dimension": "role_permissions",
      "change_type": "permission_added_to_role",
      "permission": "networksecurity.firewallEndpoints.useWildfire",
      "role": "roles/cloudtpu.serviceAgent",
      "service": "networksecurity",
      "method": "",
      "severity": "MEDIUM",
      "tags": [],
      "details": {
        "undocumented": true
      }
    },
    {
      "id": "2026-05-31-1815",
      "date": "2026-05-31",
      "commit": "484627b4f9fb",
      "dimension": "role_permissions",
      "change_type": "permission_added_to_role",
      "permission": "networksecurity.firewallEndpoints.useWildfire",
      "role": "roles/composer.serviceAgent",
      "service": "networksecurity",
      "method": "",
      "severity": "MEDIUM",
      "tags": [],
      "details": {
        "undocumented": true
      }
    },
    {
      "id": "2026-05-31-1816",
      "date": "2026-05-31",
      "commit": "484627b4f9fb",
      "dimension": "role_permissions",
      "change_type": "permission_added_to_role",
      "permission": "networksecurity.firewallEndpoints.useWildfire",
      "role": "roles/iam.infrastructureAdmin",
      "service": "networksecurity",
      "method": "",
      "severity": "MEDIUM",
      "tags": [],
      "details": {
        "undocumented": true
      }
    },
    {
      "id": "2026-05-31-1817",
      "date": "2026-05-31",
      "commit": "484627b4f9fb",
      "dimension": "role_permissions",
      "change_type": "permission_added_to_role",
      "permission": "networksecurity.firewallEndpoints.useWildfire",
      "role": "roles/networksecurity.firewallEndpointAdmin",
      "service": "networksecurity",
      "method": "",
      "severity": "MEDIUM",
      "tags": [],
      "details": {
        "undocumented": true
      }
    },
    {
      "id": "2026-05-31-1818",
      "date": "2026-05-31",
      "commit": "484627b4f9fb",
      "dimension": "role_permissions",
      "change_type": "permission_added_to_role",
      "permission": "fleetengine.tasks.get",
      "role": "roles/fleetengine.viewer",
      "service": "fleetengine",
      "method": "",
      "severity": "MEDIUM",
      "tags": [],
      "details": {
        "undocumented": true
      }
    },
    {
      "id": "2026-05-27-1819",
      "date": "2026-05-27",
      "commit": "9d97ea9727ba",
      "dimension": "methods",
      "change_type": "added",
      "permission": "",
      "role": "",
      "service": "vmwareengine",
      "method": "vmwareengine.projects.locations.privateClouds.migrateManagementVms",
      "severity": "INFO",
      "tags": [],
      "details": {
        "service": "vmwareengine"
      }
    },
    {
      "id": "2026-05-27-1820",
      "date": "2026-05-27",
      "commit": "9d97ea9727ba",
      "dimension": "method_map",
      "change_type": "unmapped_method",
      "permission": "",
      "role": "",
      "service": "vmwareengine",
      "method": "vmwareengine.projects.locations.privateClouds.migrateManagementVms",
      "severity": "INFO",
      "tags": [],
      "details": {
        "note": "New method has no permission mapping"
      }
    }
  ],
  "summary": {
    "by_severity": {
      "CRITICAL": 6,
      "HIGH": 356,
      "MEDIUM": 1298,
      "INFO": 160
    },
    "by_dimension": {
      "predefined_roles": 59,
      "role_permissions": 1534,
      "methods": 116,
      "method_map": 111
    },
    "new_services": []
  }
}