{
  "generated_at": "2026-05-05T17:17:37Z",
  "total_entries": 41136,
  "pages": 412,
  "page": 412,
  "page_size": 100,
  "entries": [
    {
      "id": "2026-04-08-41101",
      "date": "2026-04-08",
      "commit": "d187ff9d3f4c",
      "dimension": "method_map",
      "change_type": "unmapped_method",
      "permission": "",
      "role": "",
      "service": "dataplex",
      "method": "dataplex.projects.locations.lakes.content.get",
      "severity": "INFO",
      "tags": [],
      "details": {
        "note": "New method has no permission mapping"
      }
    },
    {
      "id": "2026-04-08-41102",
      "date": "2026-04-08",
      "commit": "d187ff9d3f4c",
      "dimension": "method_map",
      "change_type": "unmapped_method",
      "permission": "",
      "role": "",
      "service": "networkconnectivity",
      "method": "networkconnectivity.projects.locations.serviceConnectionPolicies.testIamPermissions",
      "severity": "INFO",
      "tags": [],
      "details": {
        "note": "New method has no permission mapping"
      }
    },
    {
      "id": "2026-04-08-41103",
      "date": "2026-04-08",
      "commit": "d187ff9d3f4c",
      "dimension": "method_map",
      "change_type": "unmapped_method",
      "permission": "",
      "role": "",
      "service": "beyondcorp",
      "method": "beyondcorp.organizations.locations.global.partnerTenants.get",
      "severity": "INFO",
      "tags": [],
      "details": {
        "note": "New method has no permission mapping"
      }
    },
    {
      "id": "2026-04-08-41104",
      "date": "2026-04-08",
      "commit": "d187ff9d3f4c",
      "dimension": "method_map",
      "change_type": "unmapped_method",
      "permission": "",
      "role": "",
      "service": "networkconnectivity",
      "method": "networkconnectivity.projects.locations.serviceClasses.getIamPolicy",
      "severity": "INFO",
      "tags": [],
      "details": {
        "note": "New method has no permission mapping"
      }
    },
    {
      "id": "2026-04-08-41105",
      "date": "2026-04-08",
      "commit": "d187ff9d3f4c",
      "dimension": "method_map",
      "change_type": "unmapped_method",
      "permission": "",
      "role": "",
      "service": "networkmanagement",
      "method": "networkmanagement.organizations.locations.operations.list",
      "severity": "INFO",
      "tags": [],
      "details": {
        "note": "New method has no permission mapping"
      }
    },
    {
      "id": "2026-04-08-41106",
      "date": "2026-04-08",
      "commit": "d187ff9d3f4c",
      "dimension": "method_map",
      "change_type": "unmapped_method",
      "permission": "",
      "role": "",
      "service": "discoveryengine",
      "method": "discoveryengine.media.download",
      "severity": "INFO",
      "tags": [],
      "details": {
        "note": "New method has no permission mapping"
      }
    },
    {
      "id": "2026-04-08-41107",
      "date": "2026-04-08",
      "commit": "d187ff9d3f4c",
      "dimension": "method_map",
      "change_type": "unmapped_method",
      "permission": "",
      "role": "",
      "service": "dataplex",
      "method": "dataplex.projects.locations.dataProducts.dataAssets.setIamPolicy",
      "severity": "CRITICAL",
      "tags": [],
      "details": {
        "note": "New method has no permission mapping"
      }
    },
    {
      "id": "2026-04-08-41108",
      "date": "2026-04-08",
      "commit": "d187ff9d3f4c",
      "dimension": "method_map",
      "change_type": "unmapped_method",
      "permission": "",
      "role": "",
      "service": "displayvideo",
      "method": "displayvideo.advertisers.insertionOrders.targetingTypes.assignedTargetingOptions.get",
      "severity": "INFO",
      "tags": [],
      "details": {
        "note": "New method has no permission mapping"
      }
    },
    {
      "id": "2026-04-08-41109",
      "date": "2026-04-08",
      "commit": "d187ff9d3f4c",
      "dimension": "method_map",
      "change_type": "unmapped_method",
      "permission": "",
      "role": "",
      "service": "dataplex",
      "method": "dataplex.projects.locations.lakes.contentitems.list",
      "severity": "INFO",
      "tags": [],
      "details": {
        "note": "New method has no permission mapping"
      }
    },
    {
      "id": "2026-04-08-41110",
      "date": "2026-04-08",
      "commit": "d187ff9d3f4c",
      "dimension": "method_map",
      "change_type": "unmapped_method",
      "permission": "",
      "role": "",
      "service": "displayvideo",
      "method": "displayvideo.advertisers.insertionOrders.targetingTypes.assignedTargetingOptions.delete",
      "severity": "HIGH",
      "tags": [],
      "details": {
        "note": "New method has no permission mapping"
      }
    },
    {
      "id": "2026-04-08-41111",
      "date": "2026-04-08",
      "commit": "d187ff9d3f4c",
      "dimension": "method_map",
      "change_type": "unmapped_method",
      "permission": "",
      "role": "",
      "service": "beyondcorp",
      "method": "beyondcorp.organizations.locations.global.partnerTenants.delete",
      "severity": "HIGH",
      "tags": [],
      "details": {
        "note": "New method has no permission mapping"
      }
    },
    {
      "id": "2026-04-08-41112",
      "date": "2026-04-08",
      "commit": "d187ff9d3f4c",
      "dimension": "method_map",
      "change_type": "unmapped_method",
      "permission": "",
      "role": "",
      "service": "dataplex",
      "method": "dataplex.projects.locations.lakes.environments.list",
      "severity": "INFO",
      "tags": [],
      "details": {
        "note": "New method has no permission mapping"
      }
    },
    {
      "id": "2026-04-08-41113",
      "date": "2026-04-08",
      "commit": "d187ff9d3f4c",
      "dimension": "method_map",
      "change_type": "unmapped_method",
      "permission": "",
      "role": "",
      "service": "iam",
      "method": "iam.locations.workforcePools.providers.scimTenants.tokens.undelete",
      "severity": "INFO",
      "tags": [],
      "details": {
        "note": "New method has no permission mapping"
      }
    },
    {
      "id": "2026-04-08-41114",
      "date": "2026-04-08",
      "commit": "d187ff9d3f4c",
      "dimension": "method_map",
      "change_type": "unmapped_method",
      "permission": "",
      "role": "",
      "service": "dataplex",
      "method": "dataplex.projects.locations.lakes.content.setIamPolicy",
      "severity": "CRITICAL",
      "tags": [],
      "details": {
        "note": "New method has no permission mapping"
      }
    },
    {
      "id": "2026-04-08-41115",
      "date": "2026-04-08",
      "commit": "d187ff9d3f4c",
      "dimension": "method_map",
      "change_type": "unmapped_method",
      "permission": "",
      "role": "",
      "service": "networkconnectivity",
      "method": "networkconnectivity.projects.locations.serviceClasses.setIamPolicy",
      "severity": "CRITICAL",
      "tags": [],
      "details": {
        "note": "New method has no permission mapping"
      }
    },
    {
      "id": "2026-04-08-41116",
      "date": "2026-04-08",
      "commit": "d187ff9d3f4c",
      "dimension": "method_map",
      "change_type": "unmapped_method",
      "permission": "",
      "role": "",
      "service": "dataplex",
      "method": "dataplex.projects.locations.lakes.environments.getIamPolicy",
      "severity": "INFO",
      "tags": [],
      "details": {
        "note": "New method has no permission mapping"
      }
    },
    {
      "id": "2026-04-08-41117",
      "date": "2026-04-08",
      "commit": "d187ff9d3f4c",
      "dimension": "method_map",
      "change_type": "unmapped_method",
      "permission": "",
      "role": "",
      "service": "content",
      "method": "content.returnaddress.get",
      "severity": "INFO",
      "tags": [],
      "details": {
        "note": "New method has no permission mapping"
      }
    },
    {
      "id": "2026-04-08-41118",
      "date": "2026-04-08",
      "commit": "d187ff9d3f4c",
      "dimension": "method_map",
      "change_type": "unmapped_method",
      "permission": "",
      "role": "",
      "service": "dataplex",
      "method": "dataplex.projects.locations.lakes.contentitems.setIamPolicy",
      "severity": "CRITICAL",
      "tags": [],
      "details": {
        "note": "New method has no permission mapping"
      }
    },
    {
      "id": "2026-04-08-41119",
      "date": "2026-04-08",
      "commit": "d187ff9d3f4c",
      "dimension": "method_map",
      "change_type": "unmapped_method",
      "permission": "",
      "role": "",
      "service": "cloudsearch",
      "method": "cloudsearch.query.debugSearch",
      "severity": "INFO",
      "tags": [],
      "details": {
        "note": "New method has no permission mapping"
      }
    },
    {
      "id": "2026-04-08-41120",
      "date": "2026-04-08",
      "commit": "d187ff9d3f4c",
      "dimension": "method_map",
      "change_type": "unmapped_method",
      "permission": "",
      "role": "",
      "service": "dataplex",
      "method": "dataplex.projects.locations.lakes.content.testIamPermissions",
      "severity": "INFO",
      "tags": [],
      "details": {
        "note": "New method has no permission mapping"
      }
    },
    {
      "id": "2026-04-08-41121",
      "date": "2026-04-08",
      "commit": "d187ff9d3f4c",
      "dimension": "method_map",
      "change_type": "unmapped_method",
      "permission": "",
      "role": "",
      "service": "displayvideo",
      "method": "displayvideo.advertisers.lineItems.generateDefault",
      "severity": "INFO",
      "tags": [],
      "details": {
        "note": "New method has no permission mapping"
      }
    },
    {
      "id": "2026-04-08-41122",
      "date": "2026-04-08",
      "commit": "d187ff9d3f4c",
      "dimension": "method_map",
      "change_type": "unmapped_method",
      "permission": "",
      "role": "",
      "service": "networkmanagement",
      "method": "networkmanagement.organizations.locations.operations.cancel",
      "severity": "INFO",
      "tags": [],
      "details": {
        "note": "New method has no permission mapping"
      }
    },
    {
      "id": "2026-04-08-41123",
      "date": "2026-04-08",
      "commit": "d187ff9d3f4c",
      "dimension": "method_map",
      "change_type": "unmapped_method",
      "permission": "",
      "role": "",
      "service": "networkconnectivity",
      "method": "networkconnectivity.projects.locations.serviceConnectionMaps.testIamPermissions",
      "severity": "INFO",
      "tags": [],
      "details": {
        "note": "New method has no permission mapping"
      }
    },
    {
      "id": "2026-04-08-41124",
      "date": "2026-04-08",
      "commit": "d187ff9d3f4c",
      "dimension": "method_map",
      "change_type": "unmapped_method",
      "permission": "",
      "role": "",
      "service": "networkmanagement",
      "method": "networkmanagement.organizations.locations.operations.get",
      "severity": "INFO",
      "tags": [],
      "details": {
        "note": "New method has no permission mapping"
      }
    },
    {
      "id": "2026-04-08-41125",
      "date": "2026-04-08",
      "commit": "d187ff9d3f4c",
      "dimension": "method_map",
      "change_type": "unmapped_method",
      "permission": "",
      "role": "",
      "service": "dataplex",
      "method": "dataplex.projects.locations.dataProducts.dataAssets.testIamPermissions",
      "severity": "INFO",
      "tags": [],
      "details": {
        "note": "New method has no permission mapping"
      }
    },
    {
      "id": "2026-04-08-41126",
      "date": "2026-04-08",
      "commit": "d187ff9d3f4c",
      "dimension": "method_map",
      "change_type": "unmapped_method",
      "permission": "",
      "role": "",
      "service": "discoveryengine",
      "method": "discoveryengine.projects.locations.userStores.delete",
      "severity": "HIGH",
      "tags": [],
      "details": {
        "note": "New method has no permission mapping"
      }
    },
    {
      "id": "2026-04-08-41127",
      "date": "2026-04-08",
      "commit": "d187ff9d3f4c",
      "dimension": "method_map",
      "change_type": "unmapped_method",
      "permission": "",
      "role": "",
      "service": "cloudresourcemanager",
      "method": "cloudresourcemanager.locations.tagBindingCollections.update",
      "severity": "HIGH",
      "tags": [],
      "details": {
        "note": "New method has no permission mapping"
      }
    },
    {
      "id": "2026-04-08-41128",
      "date": "2026-04-08",
      "commit": "d187ff9d3f4c",
      "dimension": "method_map",
      "change_type": "unmapped_method",
      "permission": "",
      "role": "",
      "service": "dataplex",
      "method": "dataplex.projects.locations.lakes.environments.setIamPolicy",
      "severity": "CRITICAL",
      "tags": [],
      "details": {
        "note": "New method has no permission mapping"
      }
    },
    {
      "id": "2026-04-08-41129",
      "date": "2026-04-08",
      "commit": "d187ff9d3f4c",
      "dimension": "method_map",
      "change_type": "unmapped_method",
      "permission": "",
      "role": "",
      "service": "dataplex",
      "method": "dataplex.projects.locations.lakes.content.create",
      "severity": "HIGH",
      "tags": [],
      "details": {
        "note": "New method has no permission mapping"
      }
    },
    {
      "id": "2026-04-08-41130",
      "date": "2026-04-08",
      "commit": "d187ff9d3f4c",
      "dimension": "method_map",
      "change_type": "unmapped_method",
      "permission": "",
      "role": "",
      "service": "networkconnectivity",
      "method": "networkconnectivity.projects.locations.serviceConnectionPolicies.getIamPolicy",
      "severity": "INFO",
      "tags": [],
      "details": {
        "note": "New method has no permission mapping"
      }
    },
    {
      "id": "2026-04-08-41131",
      "date": "2026-04-08",
      "commit": "d187ff9d3f4c",
      "dimension": "method_map",
      "change_type": "unmapped_method",
      "permission": "",
      "role": "",
      "service": "dataplex",
      "method": "dataplex.projects.locations.lakes.content.patch",
      "severity": "HIGH",
      "tags": [],
      "details": {
        "note": "New method has no permission mapping"
      }
    },
    {
      "id": "2026-04-08-41132",
      "date": "2026-04-08",
      "commit": "d187ff9d3f4c",
      "dimension": "method_map",
      "change_type": "unmapped_method",
      "permission": "",
      "role": "",
      "service": "content",
      "method": "content.returnaddress.custombatch",
      "severity": "INFO",
      "tags": [],
      "details": {
        "note": "New method has no permission mapping"
      }
    },
    {
      "id": "2026-04-08-41133",
      "date": "2026-04-08",
      "commit": "d187ff9d3f4c",
      "dimension": "method_map",
      "change_type": "unmapped_method",
      "permission": "",
      "role": "",
      "service": "displayvideo",
      "method": "displayvideo.advertisers.campaigns.targetingTypes.assignedTargetingOptions.list",
      "severity": "INFO",
      "tags": [],
      "details": {
        "note": "New method has no permission mapping"
      }
    },
    {
      "id": "2026-04-08-41134",
      "date": "2026-04-08",
      "commit": "d187ff9d3f4c",
      "dimension": "method_map",
      "change_type": "unmapped_method",
      "permission": "",
      "role": "",
      "service": "dataplex",
      "method": "dataplex.projects.locations.lakes.content.delete",
      "severity": "HIGH",
      "tags": [],
      "details": {
        "note": "New method has no permission mapping"
      }
    },
    {
      "id": "2026-04-08-41135",
      "date": "2026-04-08",
      "commit": "d187ff9d3f4c",
      "dimension": "method_map",
      "change_type": "unmapped_method",
      "permission": "",
      "role": "",
      "service": "dataplex",
      "method": "dataplex.projects.locations.lakes.contentitems.delete",
      "severity": "HIGH",
      "tags": [],
      "details": {
        "note": "New method has no permission mapping"
      }
    },
    {
      "id": "2026-04-08-41136",
      "date": "2026-04-08",
      "commit": "d187ff9d3f4c",
      "dimension": "method_map",
      "change_type": "unmapped_method",
      "permission": "",
      "role": "",
      "service": "discoveryengine",
      "method": "discoveryengine.projects.locations.notebooks.sources.uploadFile",
      "severity": "INFO",
      "tags": [],
      "details": {
        "note": "New method has no permission mapping"
      }
    }
  ],
  "summary": {
    "by_severity": {
      "CRITICAL": 370,
      "HIGH": 8766,
      "MEDIUM": 30890,
      "INFO": 1110
    },
    "by_dimension": {
      "methods": 1033,
      "method_map": 544,
      "predefined_roles": 596,
      "role_permissions": 38963
    },
    "new_services": []
  }
}