{
  "generated_at": "2026-06-06T16:59:54Z",
  "total_entries": 1730,
  "pages": 18,
  "page": 18,
  "page_size": 100,
  "entries": [
    {
      "id": "2026-05-12-1701",
      "date": "2026-05-12",
      "commit": "d38ce37866d2",
      "dimension": "role_permissions",
      "change_type": "permission_added_to_role",
      "permission": "recommender.appengineVersionCostRecommendations.get",
      "role": "roles/appengine.appViewer",
      "service": "recommender",
      "method": "",
      "severity": "MEDIUM",
      "tags": [],
      "details": {
        "undocumented": true
      }
    },
    {
      "id": "2026-05-12-1702",
      "date": "2026-05-12",
      "commit": "d38ce37866d2",
      "dimension": "role_permissions",
      "change_type": "permission_added_to_role",
      "permission": "recommender.appengineVersionCostRecommendations.get",
      "role": "roles/composer.serviceAgent",
      "service": "recommender",
      "method": "",
      "severity": "MEDIUM",
      "tags": [],
      "details": {
        "undocumented": true
      }
    },
    {
      "id": "2026-05-12-1703",
      "date": "2026-05-12",
      "commit": "d38ce37866d2",
      "dimension": "role_permissions",
      "change_type": "permission_added_to_role",
      "permission": "recommender.appengineVersionCostRecommendations.get",
      "role": "roles/appengine.serviceAdmin",
      "service": "recommender",
      "method": "",
      "severity": "MEDIUM",
      "tags": [],
      "details": {
        "undocumented": true
      }
    },
    {
      "id": "2026-05-12-1704",
      "date": "2026-05-12",
      "commit": "d38ce37866d2",
      "dimension": "role_permissions",
      "change_type": "permission_added_to_role",
      "permission": "recommender.appengineVersionCostRecommendations.get",
      "role": "roles/recommender.appengineversioncostAdmin",
      "service": "recommender",
      "method": "",
      "severity": "MEDIUM",
      "tags": [],
      "details": {
        "undocumented": true
      }
    },
    {
      "id": "2026-05-12-1705",
      "date": "2026-05-12",
      "commit": "d38ce37866d2",
      "dimension": "role_permissions",
      "change_type": "permission_added_to_role",
      "permission": "recommender.appengineVersionCostRecommendations.get",
      "role": "roles/recommender.editor",
      "service": "recommender",
      "method": "",
      "severity": "MEDIUM",
      "tags": [],
      "details": {
        "undocumented": true
      }
    },
    {
      "id": "2026-05-12-1706",
      "date": "2026-05-12",
      "commit": "d38ce37866d2",
      "dimension": "role_permissions",
      "change_type": "permission_added_to_role",
      "permission": "recommender.appengineVersionCostRecommendations.get",
      "role": "roles/appengine.deployer",
      "service": "recommender",
      "method": "",
      "severity": "MEDIUM",
      "tags": [],
      "details": {
        "undocumented": true
      }
    },
    {
      "id": "2026-05-12-1707",
      "date": "2026-05-12",
      "commit": "d38ce37866d2",
      "dimension": "role_permissions",
      "change_type": "permission_added_to_role",
      "permission": "recommender.appengineVersionCostRecommendations.get",
      "role": "roles/owner",
      "service": "recommender",
      "method": "",
      "severity": "MEDIUM",
      "tags": [],
      "details": {
        "undocumented": true
      }
    },
    {
      "id": "2026-05-12-1708",
      "date": "2026-05-12",
      "commit": "d38ce37866d2",
      "dimension": "role_permissions",
      "change_type": "permission_removed_from_role",
      "permission": "recommender.appengineVersionCostRecommendations.get",
      "role": "roles/apphub.appManagementViewer",
      "service": "recommender",
      "method": "",
      "severity": "MEDIUM",
      "tags": [],
      "details": {
        "was_undocumented": true
      }
    },
    {
      "id": "2026-05-12-1709",
      "date": "2026-05-12",
      "commit": "d38ce37866d2",
      "dimension": "role_permissions",
      "change_type": "permission_removed_from_role",
      "permission": "recommender.appengineVersionCostRecommendations.get",
      "role": "roles/cloudhub.operator",
      "service": "recommender",
      "method": "",
      "severity": "MEDIUM",
      "tags": [],
      "details": {
        "was_undocumented": true
      }
    },
    {
      "id": "2026-05-12-1710",
      "date": "2026-05-12",
      "commit": "d38ce37866d2",
      "dimension": "role_permissions",
      "change_type": "permission_added_to_role",
      "permission": "recommender.locations.get",
      "role": "roles/recommender.appengineversioncostAdmin",
      "service": "recommender",
      "method": "",
      "severity": "MEDIUM",
      "tags": [],
      "details": {
        "undocumented": true
      }
    },
    {
      "id": "2026-05-12-1711",
      "date": "2026-05-12",
      "commit": "d38ce37866d2",
      "dimension": "role_permissions",
      "change_type": "permission_added_to_role",
      "permission": "recommender.locations.get",
      "role": "roles/recommender.appengineversioncostViewer",
      "service": "recommender",
      "method": "",
      "severity": "MEDIUM",
      "tags": [],
      "details": {
        "undocumented": true
      }
    },
    {
      "id": "2026-05-12-1712",
      "date": "2026-05-12",
      "commit": "d38ce37866d2",
      "dimension": "role_permissions",
      "change_type": "permission_added_to_role",
      "permission": "recommender.appengineVersionCostRecommendations.update",
      "role": "roles/recommender.editor",
      "service": "recommender",
      "method": "",
      "severity": "HIGH",
      "tags": [],
      "details": {
        "undocumented": true
      }
    },
    {
      "id": "2026-05-12-1713",
      "date": "2026-05-12",
      "commit": "d38ce37866d2",
      "dimension": "role_permissions",
      "change_type": "permission_added_to_role",
      "permission": "recommender.appengineVersionCostRecommendations.update",
      "role": "roles/composer.serviceAgent",
      "service": "recommender",
      "method": "",
      "severity": "HIGH",
      "tags": [],
      "details": {
        "undocumented": true
      }
    },
    {
      "id": "2026-05-12-1714",
      "date": "2026-05-12",
      "commit": "d38ce37866d2",
      "dimension": "role_permissions",
      "change_type": "permission_added_to_role",
      "permission": "recommender.appengineVersionCostRecommendations.update",
      "role": "roles/recommender.admin",
      "service": "recommender",
      "method": "",
      "severity": "HIGH",
      "tags": [],
      "details": {
        "undocumented": true
      }
    },
    {
      "id": "2026-05-12-1715",
      "date": "2026-05-12",
      "commit": "d38ce37866d2",
      "dimension": "role_permissions",
      "change_type": "permission_added_to_role",
      "permission": "recommender.appengineVersionCostRecommendations.update",
      "role": "roles/recommender.appengineversioncostAdmin",
      "service": "recommender",
      "method": "",
      "severity": "HIGH",
      "tags": [],
      "details": {
        "undocumented": true
      }
    },
    {
      "id": "2026-05-12-1716",
      "date": "2026-05-12",
      "commit": "d38ce37866d2",
      "dimension": "role_permissions",
      "change_type": "permission_added_to_role",
      "permission": "recommender.appengineVersionCostRecommendations.update",
      "role": "roles/appengine.deployer",
      "service": "recommender",
      "method": "",
      "severity": "HIGH",
      "tags": [],
      "details": {
        "undocumented": true
      }
    },
    {
      "id": "2026-05-12-1717",
      "date": "2026-05-12",
      "commit": "d38ce37866d2",
      "dimension": "role_permissions",
      "change_type": "permission_added_to_role",
      "permission": "recommender.appengineVersionCostRecommendations.update",
      "role": "roles/appengine.serviceAdmin",
      "service": "recommender",
      "method": "",
      "severity": "HIGH",
      "tags": [],
      "details": {
        "undocumented": true
      }
    },
    {
      "id": "2026-05-12-1718",
      "date": "2026-05-12",
      "commit": "d38ce37866d2",
      "dimension": "role_permissions",
      "change_type": "permission_added_to_role",
      "permission": "recommender.appengineVersionCostRecommendations.update",
      "role": "roles/owner",
      "service": "recommender",
      "method": "",
      "severity": "HIGH",
      "tags": [],
      "details": {
        "undocumented": true
      }
    },
    {
      "id": "2026-05-11-1719",
      "date": "2026-05-11",
      "commit": "5efb79ca79b5",
      "dimension": "role_permissions",
      "change_type": "permission_added_to_role",
      "permission": "recommender.appengineVersionCostInsights.get",
      "role": "roles/apphub.appManagementViewer",
      "service": "recommender",
      "method": "",
      "severity": "MEDIUM",
      "tags": [],
      "details": {
        "undocumented": true
      }
    },
    {
      "id": "2026-05-11-1720",
      "date": "2026-05-11",
      "commit": "5efb79ca79b5",
      "dimension": "role_permissions",
      "change_type": "permission_added_to_role",
      "permission": "recommender.appengineVersionCostInsights.get",
      "role": "roles/cloudhub.operator",
      "service": "recommender",
      "method": "",
      "severity": "MEDIUM",
      "tags": [],
      "details": {
        "undocumented": true
      }
    },
    {
      "id": "2026-05-11-1721",
      "date": "2026-05-11",
      "commit": "5efb79ca79b5",
      "dimension": "role_permissions",
      "change_type": "permission_added_to_role",
      "permission": "recommender.appengineVersionCostInsights.list",
      "role": "roles/apphub.appManagementViewer",
      "service": "recommender",
      "method": "",
      "severity": "MEDIUM",
      "tags": [],
      "details": {
        "undocumented": true
      }
    },
    {
      "id": "2026-05-11-1722",
      "date": "2026-05-11",
      "commit": "5efb79ca79b5",
      "dimension": "role_permissions",
      "change_type": "permission_added_to_role",
      "permission": "recommender.appengineVersionCostInsights.list",
      "role": "roles/cloudhub.operator",
      "service": "recommender",
      "method": "",
      "severity": "MEDIUM",
      "tags": [],
      "details": {
        "undocumented": true
      }
    },
    {
      "id": "2026-05-11-1723",
      "date": "2026-05-11",
      "commit": "5efb79ca79b5",
      "dimension": "role_permissions",
      "change_type": "permission_added_to_role",
      "permission": "recommender.appengineVersionCostRecommendations.list",
      "role": "roles/apphub.appManagementViewer",
      "service": "recommender",
      "method": "",
      "severity": "MEDIUM",
      "tags": [],
      "details": {
        "undocumented": true
      }
    },
    {
      "id": "2026-05-11-1724",
      "date": "2026-05-11",
      "commit": "5efb79ca79b5",
      "dimension": "role_permissions",
      "change_type": "permission_added_to_role",
      "permission": "recommender.appengineVersionCostRecommendations.list",
      "role": "roles/cloudhub.operator",
      "service": "recommender",
      "method": "",
      "severity": "MEDIUM",
      "tags": [],
      "details": {
        "undocumented": true
      }
    },
    {
      "id": "2026-05-11-1725",
      "date": "2026-05-11",
      "commit": "5efb79ca79b5",
      "dimension": "role_permissions",
      "change_type": "permission_added_to_role",
      "permission": "recommender.appengineVersionCostRecommendations.get",
      "role": "roles/apphub.appManagementViewer",
      "service": "recommender",
      "method": "",
      "severity": "MEDIUM",
      "tags": [],
      "details": {
        "undocumented": true
      }
    },
    {
      "id": "2026-05-11-1726",
      "date": "2026-05-11",
      "commit": "5efb79ca79b5",
      "dimension": "role_permissions",
      "change_type": "permission_added_to_role",
      "permission": "recommender.appengineVersionCostRecommendations.get",
      "role": "roles/cloudhub.operator",
      "service": "recommender",
      "method": "",
      "severity": "MEDIUM",
      "tags": [],
      "details": {
        "undocumented": true
      }
    },
    {
      "id": "2026-05-11-1727",
      "date": "2026-05-11",
      "commit": "5efb79ca79b5",
      "dimension": "methods",
      "change_type": "added",
      "permission": "",
      "role": "",
      "service": "aiplatform",
      "method": "aiplatform.reasoningEngines.cancelAsyncQuery",
      "severity": "INFO",
      "tags": [],
      "details": {
        "service": "aiplatform"
      }
    },
    {
      "id": "2026-05-11-1728",
      "date": "2026-05-11",
      "commit": "5efb79ca79b5",
      "dimension": "methods",
      "change_type": "added",
      "permission": "",
      "role": "",
      "service": "aiplatform",
      "method": "aiplatform.projects.locations.reasoningEngines.cancelAsyncQuery",
      "severity": "INFO",
      "tags": [],
      "details": {
        "service": "aiplatform"
      }
    },
    {
      "id": "2026-05-11-1729",
      "date": "2026-05-11",
      "commit": "5efb79ca79b5",
      "dimension": "method_map",
      "change_type": "unmapped_method",
      "permission": "",
      "role": "",
      "service": "aiplatform",
      "method": "aiplatform.reasoningEngines.cancelAsyncQuery",
      "severity": "INFO",
      "tags": [],
      "details": {
        "note": "New method has no permission mapping"
      }
    },
    {
      "id": "2026-05-11-1730",
      "date": "2026-05-11",
      "commit": "5efb79ca79b5",
      "dimension": "method_map",
      "change_type": "unmapped_method",
      "permission": "",
      "role": "",
      "service": "aiplatform",
      "method": "aiplatform.projects.locations.reasoningEngines.cancelAsyncQuery",
      "severity": "INFO",
      "tags": [],
      "details": {
        "note": "New method has no permission mapping"
      }
    }
  ],
  "summary": {
    "by_severity": {
      "CRITICAL": 3,
      "HIGH": 396,
      "MEDIUM": 1215,
      "INFO": 116
    },
    "by_dimension": {
      "role_permissions": 1553,
      "predefined_roles": 24,
      "methods": 79,
      "method_map": 74
    },
    "new_services": []
  }
}