{
  "generated_at": "2026-04-11T16:26:46Z",
  "total_entries": 47317,
  "pages": 474,
  "page": 474,
  "page_size": 100,
  "entries": [
    {
      "id": "2026-03-14-47301",
      "date": "2026-03-14",
      "commit": "ad249bce3d0d",
      "dimension": "role_permissions",
      "change_type": "permission_added_to_role",
      "permission": "chronicle.investigationComments.update",
      "role": "roles/editor",
      "service": "chronicle",
      "method": "",
      "severity": "HIGH",
      "tags": [],
      "details": {
        "undocumented": true
      }
    },
    {
      "id": "2026-03-14-47302",
      "date": "2026-03-14",
      "commit": "ad249bce3d0d",
      "dimension": "role_permissions",
      "change_type": "permission_added_to_role",
      "permission": "file.instances.createCrossProjectBackup",
      "role": "roles/editor",
      "service": "file",
      "method": "",
      "severity": "MEDIUM",
      "tags": [],
      "details": {
        "undocumented": true
      }
    },
    {
      "id": "2026-03-14-47303",
      "date": "2026-03-14",
      "commit": "ad249bce3d0d",
      "dimension": "role_permissions",
      "change_type": "permission_added_to_role",
      "permission": "file.instances.createCrossProjectBackup",
      "role": "roles/backupdr.filestoreOperator",
      "service": "file",
      "method": "",
      "severity": "MEDIUM",
      "tags": [],
      "details": {
        "undocumented": true
      }
    },
    {
      "id": "2026-03-14-47304",
      "date": "2026-03-14",
      "commit": "ad249bce3d0d",
      "dimension": "role_permissions",
      "change_type": "permission_added_to_role",
      "permission": "file.instances.createCrossProjectBackup",
      "role": "roles/backupdr.serviceAgent",
      "service": "file",
      "method": "",
      "severity": "MEDIUM",
      "tags": [],
      "details": {
        "undocumented": true
      }
    },
    {
      "id": "2026-03-14-47305",
      "date": "2026-03-14",
      "commit": "ad249bce3d0d",
      "dimension": "role_permissions",
      "change_type": "permission_added_to_role",
      "permission": "chronicle.investigationComments.get",
      "role": "roles/editor",
      "service": "chronicle",
      "method": "",
      "severity": "MEDIUM",
      "tags": [],
      "details": {
        "undocumented": true
      }
    },
    {
      "id": "2026-03-14-47306",
      "date": "2026-03-14",
      "commit": "ad249bce3d0d",
      "dimension": "role_permissions",
      "change_type": "permission_added_to_role",
      "permission": "chronicle.investigationComments.get",
      "role": "roles/iam.supportUser",
      "service": "chronicle",
      "method": "",
      "severity": "MEDIUM",
      "tags": [],
      "details": {
        "undocumented": true
      }
    },
    {
      "id": "2026-03-14-47307",
      "date": "2026-03-14",
      "commit": "ad249bce3d0d",
      "dimension": "role_permissions",
      "change_type": "permission_added_to_role",
      "permission": "chronicle.investigationComments.get",
      "role": "roles/viewer",
      "service": "chronicle",
      "method": "",
      "severity": "MEDIUM",
      "tags": [],
      "details": {
        "undocumented": true
      }
    },
    {
      "id": "2026-03-14-47308",
      "date": "2026-03-14",
      "commit": "ad249bce3d0d",
      "dimension": "role_permissions",
      "change_type": "permission_added_to_role",
      "permission": "chronicle.investigationComments.delete",
      "role": "roles/editor",
      "service": "chronicle",
      "method": "",
      "severity": "HIGH",
      "tags": [],
      "details": {
        "undocumented": true
      }
    },
    {
      "id": "2026-03-14-47309",
      "date": "2026-03-14",
      "commit": "ad249bce3d0d",
      "dimension": "role_permissions",
      "change_type": "permission_added_to_role",
      "permission": "compute.multiMigMembers.list",
      "role": "roles/batch.serviceAgent",
      "service": "compute",
      "method": "",
      "severity": "MEDIUM",
      "tags": [],
      "details": {
        "undocumented": true
      }
    },
    {
      "id": "2026-03-14-47310",
      "date": "2026-03-14",
      "commit": "ad249bce3d0d",
      "dimension": "role_permissions",
      "change_type": "permission_added_to_role",
      "permission": "compute.multiMigMembers.list",
      "role": "roles/cloudtpu.serviceAgent",
      "service": "compute",
      "method": "",
      "severity": "MEDIUM",
      "tags": [],
      "details": {
        "undocumented": true
      }
    },
    {
      "id": "2026-03-14-47311",
      "date": "2026-03-14",
      "commit": "ad249bce3d0d",
      "dimension": "role_permissions",
      "change_type": "permission_added_to_role",
      "permission": "compute.multiMigMembers.list",
      "role": "roles/dataproc.serviceAgent",
      "service": "compute",
      "method": "",
      "severity": "MEDIUM",
      "tags": [],
      "details": {
        "undocumented": true
      }
    },
    {
      "id": "2026-03-14-47312",
      "date": "2026-03-14",
      "commit": "ad249bce3d0d",
      "dimension": "role_permissions",
      "change_type": "permission_added_to_role",
      "permission": "compute.multiMigMembers.list",
      "role": "roles/dataflow.serviceAgent",
      "service": "compute",
      "method": "",
      "severity": "MEDIUM",
      "tags": [],
      "details": {
        "undocumented": true
      }
    },
    {
      "id": "2026-03-14-47313",
      "date": "2026-03-14",
      "commit": "ad249bce3d0d",
      "dimension": "role_permissions",
      "change_type": "permission_added_to_role",
      "permission": "chronicle.investigationComments.create",
      "role": "roles/editor",
      "service": "chronicle",
      "method": "",
      "severity": "HIGH",
      "tags": [],
      "details": {
        "undocumented": true
      }
    },
    {
      "id": "2026-03-14-47314",
      "date": "2026-03-14",
      "commit": "ad249bce3d0d",
      "dimension": "role_permissions",
      "change_type": "permission_added_to_role",
      "permission": "compute.multiMigMembers.get",
      "role": "roles/batch.serviceAgent",
      "service": "compute",
      "method": "",
      "severity": "MEDIUM",
      "tags": [],
      "details": {
        "undocumented": true
      }
    },
    {
      "id": "2026-03-14-47315",
      "date": "2026-03-14",
      "commit": "ad249bce3d0d",
      "dimension": "role_permissions",
      "change_type": "permission_added_to_role",
      "permission": "compute.multiMigMembers.get",
      "role": "roles/cloudtpu.serviceAgent",
      "service": "compute",
      "method": "",
      "severity": "MEDIUM",
      "tags": [],
      "details": {
        "undocumented": true
      }
    },
    {
      "id": "2026-03-14-47316",
      "date": "2026-03-14",
      "commit": "ad249bce3d0d",
      "dimension": "role_permissions",
      "change_type": "permission_added_to_role",
      "permission": "compute.multiMigMembers.get",
      "role": "roles/dataproc.serviceAgent",
      "service": "compute",
      "method": "",
      "severity": "MEDIUM",
      "tags": [],
      "details": {
        "undocumented": true
      }
    },
    {
      "id": "2026-03-14-47317",
      "date": "2026-03-14",
      "commit": "ad249bce3d0d",
      "dimension": "role_permissions",
      "change_type": "permission_added_to_role",
      "permission": "compute.multiMigMembers.get",
      "role": "roles/dataflow.serviceAgent",
      "service": "compute",
      "method": "",
      "severity": "MEDIUM",
      "tags": [],
      "details": {
        "undocumented": true
      }
    }
  ],
  "summary": {
    "by_severity": {
      "CRITICAL": 421,
      "HIGH": 10634,
      "MEDIUM": 35098,
      "INFO": 1164
    },
    "by_dimension": {
      "predefined_roles": 710,
      "role_permissions": 44966,
      "methods": 1074,
      "method_map": 567
    },
    "new_services": []
  }
}