{
  "generated_at": "2026-06-29T16:59:00Z",
  "total_entries": 2157,
  "pages": 22,
  "page": 22,
  "page_size": 100,
  "entries": [
    {
      "id": "2026-06-01-2101",
      "date": "2026-06-01",
      "commit": "15cd273a086b",
      "dimension": "methods",
      "change_type": "added",
      "permission": "",
      "role": "",
      "service": "compute",
      "method": "compute.organizationRolloutPlans.get",
      "severity": "INFO",
      "tags": [],
      "details": {
        "service": "compute"
      }
    },
    {
      "id": "2026-06-01-2102",
      "date": "2026-06-01",
      "commit": "15cd273a086b",
      "dimension": "methods",
      "change_type": "added",
      "permission": "",
      "role": "",
      "service": "compute",
      "method": "compute.organizationRolloutPlans.list",
      "severity": "INFO",
      "tags": [],
      "details": {
        "service": "compute"
      }
    },
    {
      "id": "2026-06-01-2103",
      "date": "2026-06-01",
      "commit": "15cd273a086b",
      "dimension": "methods",
      "change_type": "added",
      "permission": "",
      "role": "",
      "service": "compute",
      "method": "compute.orgVmExtensionPolicies.delete",
      "severity": "HIGH",
      "tags": [],
      "details": {
        "service": "compute"
      }
    },
    {
      "id": "2026-06-01-2104",
      "date": "2026-06-01",
      "commit": "15cd273a086b",
      "dimension": "methods",
      "change_type": "added",
      "permission": "",
      "role": "",
      "service": "compute",
      "method": "compute.organizationRollouts.delete",
      "severity": "HIGH",
      "tags": [],
      "details": {
        "service": "compute"
      }
    },
    {
      "id": "2026-06-01-2105",
      "date": "2026-06-01",
      "commit": "15cd273a086b",
      "dimension": "methods",
      "change_type": "added",
      "permission": "",
      "role": "",
      "service": "compute",
      "method": "compute.folderZoneVmExtensionPolicies.getVmExtension",
      "severity": "INFO",
      "tags": [],
      "details": {
        "service": "compute"
      }
    },
    {
      "id": "2026-06-01-2106",
      "date": "2026-06-01",
      "commit": "15cd273a086b",
      "dimension": "methods",
      "change_type": "added",
      "permission": "",
      "role": "",
      "service": "compute",
      "method": "compute.organizationZoneVmExtensionPolicies.listVmExtensions",
      "severity": "INFO",
      "tags": [],
      "details": {
        "service": "compute"
      }
    },
    {
      "id": "2026-06-01-2107",
      "date": "2026-06-01",
      "commit": "15cd273a086b",
      "dimension": "methods",
      "change_type": "added",
      "permission": "",
      "role": "",
      "service": "compute",
      "method": "compute.organizationZoneVmExtensionPolicies.insert",
      "severity": "HIGH",
      "tags": [],
      "details": {
        "service": "compute"
      }
    },
    {
      "id": "2026-06-01-2108",
      "date": "2026-06-01",
      "commit": "15cd273a086b",
      "dimension": "methods",
      "change_type": "added",
      "permission": "",
      "role": "",
      "service": "compute",
      "method": "compute.organizationRollouts.get",
      "severity": "INFO",
      "tags": [],
      "details": {
        "service": "compute"
      }
    },
    {
      "id": "2026-06-01-2109",
      "date": "2026-06-01",
      "commit": "15cd273a086b",
      "dimension": "methods",
      "change_type": "added",
      "permission": "",
      "role": "",
      "service": "compute",
      "method": "compute.organizationRolloutPlans.insert",
      "severity": "HIGH",
      "tags": [],
      "details": {
        "service": "compute"
      }
    },
    {
      "id": "2026-06-01-2110",
      "date": "2026-06-01",
      "commit": "15cd273a086b",
      "dimension": "methods",
      "change_type": "added",
      "permission": "",
      "role": "",
      "service": "compute",
      "method": "compute.folderZoneVmExtensionPolicies.delete",
      "severity": "HIGH",
      "tags": [],
      "details": {
        "service": "compute"
      }
    },
    {
      "id": "2026-06-01-2111",
      "date": "2026-06-01",
      "commit": "15cd273a086b",
      "dimension": "methods",
      "change_type": "added",
      "permission": "",
      "role": "",
      "service": "compute",
      "method": "compute.folderZoneVmExtensionPolicies.insert",
      "severity": "HIGH",
      "tags": [],
      "details": {
        "service": "compute"
      }
    },
    {
      "id": "2026-06-01-2112",
      "date": "2026-06-01",
      "commit": "15cd273a086b",
      "dimension": "methods",
      "change_type": "added",
      "permission": "",
      "role": "",
      "service": "compute",
      "method": "compute.organizationRollouts.list",
      "severity": "INFO",
      "tags": [],
      "details": {
        "service": "compute"
      }
    },
    {
      "id": "2026-06-01-2113",
      "date": "2026-06-01",
      "commit": "15cd273a086b",
      "dimension": "methods",
      "change_type": "added",
      "permission": "",
      "role": "",
      "service": "compute",
      "method": "compute.organizationRollouts.cancel",
      "severity": "INFO",
      "tags": [],
      "details": {
        "service": "compute"
      }
    },
    {
      "id": "2026-06-01-2114",
      "date": "2026-06-01",
      "commit": "15cd273a086b",
      "dimension": "methods",
      "change_type": "added",
      "permission": "",
      "role": "",
      "service": "compute",
      "method": "compute.organizationZoneVmExtensionPolicies.get",
      "severity": "INFO",
      "tags": [],
      "details": {
        "service": "compute"
      }
    },
    {
      "id": "2026-06-01-2115",
      "date": "2026-06-01",
      "commit": "15cd273a086b",
      "dimension": "methods",
      "change_type": "added",
      "permission": "",
      "role": "",
      "service": "compute",
      "method": "compute.organizationRolloutPlans.delete",
      "severity": "HIGH",
      "tags": [],
      "details": {
        "service": "compute"
      }
    },
    {
      "id": "2026-06-01-2116",
      "date": "2026-06-01",
      "commit": "15cd273a086b",
      "dimension": "methods",
      "change_type": "added",
      "permission": "",
      "role": "",
      "service": "compute",
      "method": "compute.organizationZoneVmExtensionPolicies.update",
      "severity": "HIGH",
      "tags": [],
      "details": {
        "service": "compute"
      }
    },
    {
      "id": "2026-06-01-2117",
      "date": "2026-06-01",
      "commit": "15cd273a086b",
      "dimension": "methods",
      "change_type": "added",
      "permission": "",
      "role": "",
      "service": "artifactregistry",
      "method": "artifactregistry.projects.locations.repositories.prewarmedArtifacts.list",
      "severity": "INFO",
      "tags": [],
      "details": {
        "service": "artifactregistry"
      }
    },
    {
      "id": "2026-06-01-2118",
      "date": "2026-06-01",
      "commit": "15cd273a086b",
      "dimension": "methods",
      "change_type": "added",
      "permission": "",
      "role": "",
      "service": "artifactregistry",
      "method": "artifactregistry.projects.locations.repositories.prewarmArtifact",
      "severity": "INFO",
      "tags": [],
      "details": {
        "service": "artifactregistry"
      }
    },
    {
      "id": "2026-06-01-2119",
      "date": "2026-06-01",
      "commit": "15cd273a086b",
      "dimension": "methods",
      "change_type": "added",
      "permission": "",
      "role": "",
      "service": "artifactregistry",
      "method": "artifactregistry.projects.locations.repositories.removePrewarmedArtifact",
      "severity": "INFO",
      "tags": [],
      "details": {
        "service": "artifactregistry"
      }
    },
    {
      "id": "2026-06-01-2120",
      "date": "2026-06-01",
      "commit": "15cd273a086b",
      "dimension": "methods",
      "change_type": "added",
      "permission": "",
      "role": "",
      "service": "artifactregistry",
      "method": "artifactregistry.projects.locations.repositories.checkPrewarmedArtifact",
      "severity": "INFO",
      "tags": [],
      "details": {
        "service": "artifactregistry"
      }
    },
    {
      "id": "2026-06-01-2121",
      "date": "2026-06-01",
      "commit": "15cd273a086b",
      "dimension": "methods",
      "change_type": "added",
      "permission": "",
      "role": "",
      "service": "chromemanagement",
      "method": "chromemanagement.customers.reports.countChromeProfileVersions",
      "severity": "INFO",
      "tags": [],
      "details": {
        "service": "chromemanagement"
      }
    },
    {
      "id": "2026-06-01-2122",
      "date": "2026-06-01",
      "commit": "15cd273a086b",
      "dimension": "method_map",
      "change_type": "unmapped_method",
      "permission": "",
      "role": "",
      "service": "compute",
      "method": "compute.folderZoneVmExtensionPolicies.get",
      "severity": "INFO",
      "tags": [],
      "details": {
        "note": "New method has no permission mapping"
      }
    },
    {
      "id": "2026-06-01-2123",
      "date": "2026-06-01",
      "commit": "15cd273a086b",
      "dimension": "method_map",
      "change_type": "unmapped_method",
      "permission": "",
      "role": "",
      "service": "compute",
      "method": "compute.organizationRollouts.pause",
      "severity": "INFO",
      "tags": [],
      "details": {
        "note": "New method has no permission mapping"
      }
    },
    {
      "id": "2026-06-01-2124",
      "date": "2026-06-01",
      "commit": "15cd273a086b",
      "dimension": "method_map",
      "change_type": "unmapped_method",
      "permission": "",
      "role": "",
      "service": "networksecurity",
      "method": "networksecurity.organizations.locations.firewallEndpoints.wildfireVerdictChangeRequests.get",
      "severity": "INFO",
      "tags": [],
      "details": {
        "note": "New method has no permission mapping"
      }
    },
    {
      "id": "2026-06-01-2125",
      "date": "2026-06-01",
      "commit": "15cd273a086b",
      "dimension": "method_map",
      "change_type": "unmapped_method",
      "permission": "",
      "role": "",
      "service": "compute",
      "method": "compute.organizationZoneVmExtensionPolicies.list",
      "severity": "INFO",
      "tags": [],
      "details": {
        "note": "New method has no permission mapping"
      }
    },
    {
      "id": "2026-06-01-2126",
      "date": "2026-06-01",
      "commit": "15cd273a086b",
      "dimension": "method_map",
      "change_type": "unmapped_method",
      "permission": "",
      "role": "",
      "service": "compute",
      "method": "compute.folderZoneVmExtensionPolicies.list",
      "severity": "INFO",
      "tags": [],
      "details": {
        "note": "New method has no permission mapping"
      }
    },
    {
      "id": "2026-06-01-2127",
      "date": "2026-06-01",
      "commit": "15cd273a086b",
      "dimension": "method_map",
      "change_type": "unmapped_method",
      "permission": "",
      "role": "",
      "service": "compute",
      "method": "compute.folderZoneVmExtensionPolicies.listVmExtensions",
      "severity": "INFO",
      "tags": [],
      "details": {
        "note": "New method has no permission mapping"
      }
    },
    {
      "id": "2026-06-01-2128",
      "date": "2026-06-01",
      "commit": "15cd273a086b",
      "dimension": "method_map",
      "change_type": "unmapped_method",
      "permission": "",
      "role": "",
      "service": "compute",
      "method": "compute.organizationRollouts.resume",
      "severity": "INFO",
      "tags": [],
      "details": {
        "note": "New method has no permission mapping"
      }
    },
    {
      "id": "2026-06-01-2129",
      "date": "2026-06-01",
      "commit": "15cd273a086b",
      "dimension": "method_map",
      "change_type": "unmapped_method",
      "permission": "",
      "role": "",
      "service": "compute",
      "method": "compute.organizationRollouts.advance",
      "severity": "INFO",
      "tags": [],
      "details": {
        "note": "New method has no permission mapping"
      }
    },
    {
      "id": "2026-06-01-2130",
      "date": "2026-06-01",
      "commit": "15cd273a086b",
      "dimension": "method_map",
      "change_type": "unmapped_method",
      "permission": "",
      "role": "",
      "service": "artifactregistry",
      "method": "artifactregistry.projects.locations.repositories.checkPrewarmedArtifact",
      "severity": "INFO",
      "tags": [],
      "details": {
        "note": "New method has no permission mapping"
      }
    },
    {
      "id": "2026-06-01-2131",
      "date": "2026-06-01",
      "commit": "15cd273a086b",
      "dimension": "method_map",
      "change_type": "unmapped_method",
      "permission": "",
      "role": "",
      "service": "compute",
      "method": "compute.folderZoneVmExtensionPolicies.update",
      "severity": "HIGH",
      "tags": [],
      "details": {
        "note": "New method has no permission mapping"
      }
    },
    {
      "id": "2026-06-01-2132",
      "date": "2026-06-01",
      "commit": "15cd273a086b",
      "dimension": "method_map",
      "change_type": "unmapped_method",
      "permission": "",
      "role": "",
      "service": "compute",
      "method": "compute.organizationZoneVmExtensionPolicies.getVmExtension",
      "severity": "INFO",
      "tags": [],
      "details": {
        "note": "New method has no permission mapping"
      }
    },
    {
      "id": "2026-06-01-2133",
      "date": "2026-06-01",
      "commit": "15cd273a086b",
      "dimension": "method_map",
      "change_type": "unmapped_method",
      "permission": "",
      "role": "",
      "service": "networksecurity",
      "method": "networksecurity.projects.locations.firewallEndpoints.wildfireVerdictChangeRequests.create",
      "severity": "HIGH",
      "tags": [],
      "details": {
        "note": "New method has no permission mapping"
      }
    },
    {
      "id": "2026-06-01-2134",
      "date": "2026-06-01",
      "commit": "15cd273a086b",
      "dimension": "method_map",
      "change_type": "unmapped_method",
      "permission": "",
      "role": "",
      "service": "compute",
      "method": "compute.organizationRolloutPlans.get",
      "severity": "INFO",
      "tags": [],
      "details": {
        "note": "New method has no permission mapping"
      }
    },
    {
      "id": "2026-06-01-2135",
      "date": "2026-06-01",
      "commit": "15cd273a086b",
      "dimension": "method_map",
      "change_type": "unmapped_method",
      "permission": "",
      "role": "",
      "service": "networksecurity",
      "method": "networksecurity.organizations.locations.firewallEndpoints.wildfireVerdictChangeRequests.list",
      "severity": "INFO",
      "tags": [],
      "details": {
        "note": "New method has no permission mapping"
      }
    },
    {
      "id": "2026-06-01-2136",
      "date": "2026-06-01",
      "commit": "15cd273a086b",
      "dimension": "method_map",
      "change_type": "unmapped_method",
      "permission": "",
      "role": "",
      "service": "compute",
      "method": "compute.organizationRolloutPlans.list",
      "severity": "INFO",
      "tags": [],
      "details": {
        "note": "New method has no permission mapping"
      }
    },
    {
      "id": "2026-06-01-2137",
      "date": "2026-06-01",
      "commit": "15cd273a086b",
      "dimension": "method_map",
      "change_type": "unmapped_method",
      "permission": "",
      "role": "",
      "service": "artifactregistry",
      "method": "artifactregistry.projects.locations.repositories.removePrewarmedArtifact",
      "severity": "INFO",
      "tags": [],
      "details": {
        "note": "New method has no permission mapping"
      }
    },
    {
      "id": "2026-06-01-2138",
      "date": "2026-06-01",
      "commit": "15cd273a086b",
      "dimension": "method_map",
      "change_type": "unmapped_method",
      "permission": "",
      "role": "",
      "service": "networksecurity",
      "method": "networksecurity.projects.locations.firewallEndpoints.wildfireVerdictChangeRequests.get",
      "severity": "INFO",
      "tags": [],
      "details": {
        "note": "New method has no permission mapping"
      }
    },
    {
      "id": "2026-06-01-2139",
      "date": "2026-06-01",
      "commit": "15cd273a086b",
      "dimension": "method_map",
      "change_type": "unmapped_method",
      "permission": "",
      "role": "",
      "service": "artifactregistry",
      "method": "artifactregistry.projects.locations.repositories.prewarmArtifact",
      "severity": "INFO",
      "tags": [],
      "details": {
        "note": "New method has no permission mapping"
      }
    },
    {
      "id": "2026-06-01-2140",
      "date": "2026-06-01",
      "commit": "15cd273a086b",
      "dimension": "method_map",
      "change_type": "unmapped_method",
      "permission": "",
      "role": "",
      "service": "compute",
      "method": "compute.orgVmExtensionPolicies.delete",
      "severity": "HIGH",
      "tags": [],
      "details": {
        "note": "New method has no permission mapping"
      }
    },
    {
      "id": "2026-06-01-2141",
      "date": "2026-06-01",
      "commit": "15cd273a086b",
      "dimension": "method_map",
      "change_type": "unmapped_method",
      "permission": "",
      "role": "",
      "service": "compute",
      "method": "compute.folderZoneVmExtensionPolicies.getVmExtension",
      "severity": "INFO",
      "tags": [],
      "details": {
        "note": "New method has no permission mapping"
      }
    },
    {
      "id": "2026-06-01-2142",
      "date": "2026-06-01",
      "commit": "15cd273a086b",
      "dimension": "method_map",
      "change_type": "unmapped_method",
      "permission": "",
      "role": "",
      "service": "compute",
      "method": "compute.organizationZoneVmExtensionPolicies.listVmExtensions",
      "severity": "INFO",
      "tags": [],
      "details": {
        "note": "New method has no permission mapping"
      }
    },
    {
      "id": "2026-06-01-2143",
      "date": "2026-06-01",
      "commit": "15cd273a086b",
      "dimension": "method_map",
      "change_type": "unmapped_method",
      "permission": "",
      "role": "",
      "service": "compute",
      "method": "compute.organizationRollouts.delete",
      "severity": "HIGH",
      "tags": [],
      "details": {
        "note": "New method has no permission mapping"
      }
    },
    {
      "id": "2026-06-01-2144",
      "date": "2026-06-01",
      "commit": "15cd273a086b",
      "dimension": "method_map",
      "change_type": "unmapped_method",
      "permission": "",
      "role": "",
      "service": "compute",
      "method": "compute.organizationZoneVmExtensionPolicies.insert",
      "severity": "HIGH",
      "tags": [],
      "details": {
        "note": "New method has no permission mapping"
      }
    },
    {
      "id": "2026-06-01-2145",
      "date": "2026-06-01",
      "commit": "15cd273a086b",
      "dimension": "method_map",
      "change_type": "unmapped_method",
      "permission": "",
      "role": "",
      "service": "networksecurity",
      "method": "networksecurity.projects.locations.firewallEndpoints.wildfireVerdictChangeRequests.list",
      "severity": "INFO",
      "tags": [],
      "details": {
        "note": "New method has no permission mapping"
      }
    },
    {
      "id": "2026-06-01-2146",
      "date": "2026-06-01",
      "commit": "15cd273a086b",
      "dimension": "method_map",
      "change_type": "unmapped_method",
      "permission": "",
      "role": "",
      "service": "compute",
      "method": "compute.organizationRollouts.get",
      "severity": "INFO",
      "tags": [],
      "details": {
        "note": "New method has no permission mapping"
      }
    },
    {
      "id": "2026-06-01-2147",
      "date": "2026-06-01",
      "commit": "15cd273a086b",
      "dimension": "method_map",
      "change_type": "unmapped_method",
      "permission": "",
      "role": "",
      "service": "compute",
      "method": "compute.organizationRolloutPlans.insert",
      "severity": "HIGH",
      "tags": [],
      "details": {
        "note": "New method has no permission mapping"
      }
    },
    {
      "id": "2026-06-01-2148",
      "date": "2026-06-01",
      "commit": "15cd273a086b",
      "dimension": "method_map",
      "change_type": "unmapped_method",
      "permission": "",
      "role": "",
      "service": "compute",
      "method": "compute.folderZoneVmExtensionPolicies.delete",
      "severity": "HIGH",
      "tags": [],
      "details": {
        "note": "New method has no permission mapping"
      }
    },
    {
      "id": "2026-06-01-2149",
      "date": "2026-06-01",
      "commit": "15cd273a086b",
      "dimension": "method_map",
      "change_type": "unmapped_method",
      "permission": "",
      "role": "",
      "service": "compute",
      "method": "compute.folderZoneVmExtensionPolicies.insert",
      "severity": "HIGH",
      "tags": [],
      "details": {
        "note": "New method has no permission mapping"
      }
    },
    {
      "id": "2026-06-01-2150",
      "date": "2026-06-01",
      "commit": "15cd273a086b",
      "dimension": "method_map",
      "change_type": "unmapped_method",
      "permission": "",
      "role": "",
      "service": "chromemanagement",
      "method": "chromemanagement.customers.reports.countChromeProfileVersions",
      "severity": "INFO",
      "tags": [],
      "details": {
        "note": "New method has no permission mapping"
      }
    },
    {
      "id": "2026-06-01-2151",
      "date": "2026-06-01",
      "commit": "15cd273a086b",
      "dimension": "method_map",
      "change_type": "unmapped_method",
      "permission": "",
      "role": "",
      "service": "artifactregistry",
      "method": "artifactregistry.projects.locations.repositories.prewarmedArtifacts.list",
      "severity": "INFO",
      "tags": [],
      "details": {
        "note": "New method has no permission mapping"
      }
    },
    {
      "id": "2026-06-01-2152",
      "date": "2026-06-01",
      "commit": "15cd273a086b",
      "dimension": "method_map",
      "change_type": "unmapped_method",
      "permission": "",
      "role": "",
      "service": "networksecurity",
      "method": "networksecurity.organizations.locations.firewallEndpoints.wildfireVerdictChangeRequests.create",
      "severity": "HIGH",
      "tags": [],
      "details": {
        "note": "New method has no permission mapping"
      }
    },
    {
      "id": "2026-06-01-2153",
      "date": "2026-06-01",
      "commit": "15cd273a086b",
      "dimension": "method_map",
      "change_type": "unmapped_method",
      "permission": "",
      "role": "",
      "service": "compute",
      "method": "compute.organizationRollouts.list",
      "severity": "INFO",
      "tags": [],
      "details": {
        "note": "New method has no permission mapping"
      }
    },
    {
      "id": "2026-06-01-2154",
      "date": "2026-06-01",
      "commit": "15cd273a086b",
      "dimension": "method_map",
      "change_type": "unmapped_method",
      "permission": "",
      "role": "",
      "service": "compute",
      "method": "compute.organizationRollouts.cancel",
      "severity": "INFO",
      "tags": [],
      "details": {
        "note": "New method has no permission mapping"
      }
    },
    {
      "id": "2026-06-01-2155",
      "date": "2026-06-01",
      "commit": "15cd273a086b",
      "dimension": "method_map",
      "change_type": "unmapped_method",
      "permission": "",
      "role": "",
      "service": "compute",
      "method": "compute.organizationZoneVmExtensionPolicies.get",
      "severity": "INFO",
      "tags": [],
      "details": {
        "note": "New method has no permission mapping"
      }
    },
    {
      "id": "2026-06-01-2156",
      "date": "2026-06-01",
      "commit": "15cd273a086b",
      "dimension": "method_map",
      "change_type": "unmapped_method",
      "permission": "",
      "role": "",
      "service": "compute",
      "method": "compute.organizationRolloutPlans.delete",
      "severity": "HIGH",
      "tags": [],
      "details": {
        "note": "New method has no permission mapping"
      }
    },
    {
      "id": "2026-06-01-2157",
      "date": "2026-06-01",
      "commit": "15cd273a086b",
      "dimension": "method_map",
      "change_type": "unmapped_method",
      "permission": "",
      "role": "",
      "service": "compute",
      "method": "compute.organizationZoneVmExtensionPolicies.update",
      "severity": "HIGH",
      "tags": [],
      "details": {
        "note": "New method has no permission mapping"
      }
    }
  ],
  "summary": {
    "by_severity": {
      "CRITICAL": 9,
      "HIGH": 428,
      "MEDIUM": 1488,
      "INFO": 232
    },
    "by_dimension": {
      "methods": 168,
      "method_map": 163,
      "predefined_roles": 61,
      "role_permissions": 1765
    },
    "new_services": []
  }
}